<?xml version="1.0" encoding="UTF-8" standalone="no"?>
<!-- This is a Stata 17.0 generated SVG file (http://www.stata.com) -->

<svg version="1.1" width="700px" height="509px" viewBox="0 0 3960 2880" xmlns="http://www.w3.org/2000/svg" xmlns:xlink="http://www.w3.org/1999/xlink">
	<desc>Stata Graph - Graph</desc>
	<rect x="0" y="0" width="3960" height="2880" style="fill:#FFFFFF;stroke:none"/>
	<rect x="0.00" y="0.00" width="3959.88" height="2880.00" style="fill:#FFFFFF"/>
	<rect x="2.88" y="2.88" width="3954.12" height="2874.24" style="fill:none;stroke:#FFFFFF;stroke-width:5.76"/>
	<line x1="465.80" y1="2489.19" x2="3859.02" y2="2489.19" style="stroke:#E8E8E8;stroke-width:5.76"/>
	<line x1="465.80" y1="2011.50" x2="3859.02" y2="2011.50" style="stroke:#E8E8E8;stroke-width:5.76"/>
	<line x1="465.80" y1="1533.81" x2="3859.02" y2="1533.81" style="stroke:#E8E8E8;stroke-width:5.76"/>
	<line x1="465.80" y1="1056.12" x2="3859.02" y2="1056.12" style="stroke:#E8E8E8;stroke-width:5.76"/>
	<line x1="465.80" y1="578.43" x2="3859.02" y2="578.43" style="stroke:#E8E8E8;stroke-width:5.76"/>
	<line x1="465.80" y1="100.86" x2="3859.02" y2="100.86" style="stroke:#E8E8E8;stroke-width:5.76"/>
	<line x1="465.80" y1="2489.19" x2="465.80" y2="100.86" style="stroke:#E8E8E8;stroke-width:5.76"/>
	<line x1="1144.44" y1="2489.19" x2="1144.44" y2="100.86" style="stroke:#E8E8E8;stroke-width:5.76"/>
	<line x1="1823.09" y1="2489.19" x2="1823.09" y2="100.86" style="stroke:#E8E8E8;stroke-width:5.76"/>
	<line x1="2501.73" y1="2489.19" x2="2501.73" y2="100.86" style="stroke:#E8E8E8;stroke-width:5.76"/>
	<line x1="3180.38" y1="2489.19" x2="3180.38" y2="100.86" style="stroke:#E8E8E8;stroke-width:5.76"/>
	<line x1="3859.02" y1="2489.19" x2="3859.02" y2="100.86" style="stroke:#E8E8E8;stroke-width:5.76"/>
	<path d=" M465.67 2489.31 L533.61 2284.74 L601.42 2125.97 L669.36 2009.76 L737.18 1918.93 L804.99 1843.93 L872.93 1779.58 L940.75 1722.53 L1008.69 1670.31 L1076.50 1621.92 L1144.32 1576.62 L1212.26 1533.68 L1280.07 1492.97 L1348.01 1453.98 L1415.82 1416.73 L1483.76 1380.85 L1551.58 1346.07 L1619.39 1312.66 L1687.33 1280.11 L1755.15 1248.68 L1823.09 1218.11 L1890.90 1188.41 L1958.71 1159.57 L2026.65 1131.61 L2094.47 1104.50 L2162.41 1078.27 L2230.22 1052.90 L2298.16 1028.27 L2365.98 1004.51 L2433.79 981.62 L2501.73 959.46 L2569.55 938.05 L2637.48 917.39 L2705.30 897.34 L2773.11 878.03 L2841.05 859.22 L2908.87 841.03 L2976.81 823.33 L3044.62 806.01 L3112.44 789.30 L3180.38 772.97 L3248.19 757.00 L3316.13 741.53 L3383.94 726.44 L3451.88 711.58 L3519.70 697.23 L3587.51 683.00 L3655.45 669.26 L3723.27 655.77 L3791.20 642.53 L3859.02 629.54" stroke-linejoin="round" style="fill:none;stroke:#0390D6;stroke-width:8.64"/>
	<line x1="465.67" y1="2489.31" x2="475.20" y2="2450.08" style="stroke:#0390D6;stroke-width:8.64"/>
	<line x1="479.16" y1="2433.25" x2="488.56" y2="2394.02" style="stroke:#0390D6;stroke-width:8.64"/>
	<line x1="492.65" y1="2377.31" x2="502.05" y2="2338.08" style="stroke:#0390D6;stroke-width:8.64"/>
	<line x1="506.14" y1="2321.38" x2="515.54" y2="2282.02" style="stroke:#0390D6;stroke-width:8.64"/>
	<line x1="519.50" y1="2265.31" x2="529.03" y2="2226.08" style="stroke:#0390D6;stroke-width:8.64"/>
	<line x1="532.99" y1="2209.38" x2="533.61" y2="2206.78" style="stroke:#0390D6;stroke-width:8.64"/>
	<line x1="533.61" y1="2206.78" x2="546.11" y2="2171.14" style="stroke:#0390D6;stroke-width:8.64"/>
	<line x1="551.68" y1="2154.93" x2="565.04" y2="2116.81" style="stroke:#0390D6;stroke-width:8.64"/>
	<line x1="570.61" y1="2100.60" x2="583.98" y2="2062.48" style="stroke:#0390D6;stroke-width:8.64"/>
	<line x1="589.67" y1="2046.27" x2="601.42" y2="2012.36" style="stroke:#0390D6;stroke-width:8.64"/>
	<line x1="601.42" y1="2012.36" x2="603.40" y2="2008.40" style="stroke:#0390D6;stroke-width:8.64"/>
	<line x1="611.20" y1="1992.93" x2="629.39" y2="1957.04" style="stroke:#0390D6;stroke-width:8.64"/>
	<line x1="637.07" y1="1941.57" x2="655.26" y2="1905.56" style="stroke:#0390D6;stroke-width:8.64"/>
	<line x1="662.93" y1="1890.09" x2="669.36" y2="1877.47" style="stroke:#0390D6;stroke-width:8.64"/>
	<line x1="669.36" y1="1877.47" x2="683.84" y2="1855.69" style="stroke:#0390D6;stroke-width:8.64"/>
	<line x1="693.25" y1="1841.33" x2="715.65" y2="1807.67" style="stroke:#0390D6;stroke-width:8.64"/>
	<line x1="725.05" y1="1793.32" x2="737.18" y2="1775.13" style="stroke:#0390D6;stroke-width:8.64"/>
	<line x1="737.18" y1="1775.13" x2="748.81" y2="1760.77" style="stroke:#0390D6;stroke-width:8.64"/>
	<line x1="759.83" y1="1747.40" x2="785.32" y2="1716.22" style="stroke:#0390D6;stroke-width:8.64"/>
	<line x1="796.21" y1="1702.98" x2="804.99" y2="1692.21" style="stroke:#0390D6;stroke-width:8.64"/>
	<line x1="804.99" y1="1692.21" x2="823.43" y2="1673.15" style="stroke:#0390D6;stroke-width:8.64"/>
	<line x1="835.44" y1="1660.78" x2="863.53" y2="1631.82" style="stroke:#0390D6;stroke-width:8.64"/>
	<line x1="875.65" y1="1619.57" x2="905.60" y2="1592.59" style="stroke:#0390D6;stroke-width:8.64"/>
	<line x1="918.47" y1="1580.96" x2="940.75" y2="1560.66" style="stroke:#0390D6;stroke-width:8.64"/>
	<line x1="940.75" y1="1560.66" x2="948.67" y2="1554.22" style="stroke:#0390D6;stroke-width:8.64"/>
	<line x1="962.03" y1="1543.46" x2="993.34" y2="1517.96" style="stroke:#0390D6;stroke-width:8.64"/>
	<line x1="1006.71" y1="1507.07" x2="1008.69" y2="1505.47" style="stroke:#0390D6;stroke-width:8.64"/>
	<line x1="1008.69" y1="1505.47" x2="1039.01" y2="1482.82" style="stroke:#0390D6;stroke-width:8.64"/>
	<line x1="1052.87" y1="1472.55" x2="1076.50" y2="1454.85" style="stroke:#0390D6;stroke-width:8.64"/>
	<line x1="1076.50" y1="1454.85" x2="1085.29" y2="1448.79" style="stroke:#0390D6;stroke-width:8.64"/>
	<line x1="1099.52" y1="1438.89" x2="1132.68" y2="1415.99" style="stroke:#0390D6;stroke-width:8.64"/>
	<line x1="1147.04" y1="1406.34" x2="1180.95" y2="1384.56" style="stroke:#0390D6;stroke-width:8.64"/>
	<line x1="1195.55" y1="1375.28" x2="1212.26" y2="1364.63" style="stroke:#0390D6;stroke-width:8.64"/>
	<line x1="1212.26" y1="1364.63" x2="1229.83" y2="1354.11" style="stroke:#0390D6;stroke-width:8.64"/>
	<line x1="1244.55" y1="1345.20" x2="1279.08" y2="1324.41" style="stroke:#0390D6;stroke-width:8.64"/>
	<line x1="1294.05" y1="1315.87" x2="1329.20" y2="1295.95" style="stroke:#0390D6;stroke-width:8.64"/>
	<line x1="1344.17" y1="1287.54" x2="1348.01" y2="1285.43" style="stroke:#0390D6;stroke-width:8.64"/>
	<line x1="1348.01" y1="1285.43" x2="1379.69" y2="1268.48" style="stroke:#0390D6;stroke-width:8.64"/>
	<line x1="1394.91" y1="1260.31" x2="1415.82" y2="1249.17" style="stroke:#0390D6;stroke-width:8.64"/>
	<line x1="1415.82" y1="1249.17" x2="1430.67" y2="1241.62" style="stroke:#0390D6;stroke-width:8.64"/>
	<line x1="1446.02" y1="1233.83" x2="1482.03" y2="1215.63" style="stroke:#0390D6;stroke-width:8.64"/>
	<line x1="1497.50" y1="1208.09" x2="1533.88" y2="1190.64" style="stroke:#0390D6;stroke-width:8.64"/>
	<line x1="1549.47" y1="1183.09" x2="1551.58" y2="1182.10" style="stroke:#0390D6;stroke-width:8.64"/>
	<line x1="1551.58" y1="1182.10" x2="1586.10" y2="1166.13" style="stroke:#0390D6;stroke-width:8.64"/>
	<line x1="1601.70" y1="1158.95" x2="1619.39" y2="1150.79" style="stroke:#0390D6;stroke-width:8.64"/>
	<line x1="1619.39" y1="1150.79" x2="1638.57" y2="1142.37" style="stroke:#0390D6;stroke-width:8.64"/>
	<line x1="1654.29" y1="1135.44" x2="1687.33" y2="1120.84" style="stroke:#0390D6;stroke-width:8.64"/>
	<line x1="1687.33" y1="1120.84" x2="1691.17" y2="1119.23" style="stroke:#0390D6;stroke-width:8.64"/>
	<line x1="1707.13" y1="1112.55" x2="1744.26" y2="1096.83" style="stroke:#0390D6;stroke-width:8.64"/>
	<line x1="1760.22" y1="1090.15" x2="1797.59" y2="1075.05" style="stroke:#0390D6;stroke-width:8.64"/>
	<line x1="1813.56" y1="1068.61" x2="1823.09" y2="1064.78" style="stroke:#0390D6;stroke-width:8.64"/>
	<line x1="1823.09" y1="1064.78" x2="1851.18" y2="1053.89" style="stroke:#0390D6;stroke-width:8.64"/>
	<line x1="1867.26" y1="1047.58" x2="1890.90" y2="1038.42" style="stroke:#0390D6;stroke-width:8.64"/>
	<line x1="1890.90" y1="1038.42" x2="1904.88" y2="1033.22" style="stroke:#0390D6;stroke-width:8.64"/>
	<line x1="1921.10" y1="1027.16" x2="1958.71" y2="1013.17" style="stroke:#0390D6;stroke-width:8.64"/>
	<line x1="1958.71" y1="1013.17" x2="1958.96" y2="1013.17" style="stroke:#0390D6;stroke-width:8.64"/>
	<line x1="1975.17" y1="1007.36" x2="2013.04" y2="993.74" style="stroke:#0390D6;stroke-width:8.64"/>
	<line x1="2029.38" y1="987.93" x2="2067.49" y2="974.93" style="stroke:#0390D6;stroke-width:8.64"/>
	<line x1="2083.83" y1="969.36" x2="2094.47" y2="965.65" style="stroke:#0390D6;stroke-width:8.64"/>
	<line x1="2094.47" y1="965.65" x2="2122.07" y2="956.49" style="stroke:#0390D6;stroke-width:8.64"/>
	<line x1="2138.40" y1="951.17" x2="2162.41" y2="943.25" style="stroke:#0390D6;stroke-width:8.64"/>
	<line x1="2162.41" y1="943.25" x2="2176.89" y2="938.67" style="stroke:#0390D6;stroke-width:8.64"/>
	<line x1="2193.34" y1="933.48" x2="2230.22" y2="921.84" style="stroke:#0390D6;stroke-width:8.64"/>
	<line x1="2230.22" y1="921.84" x2="2231.83" y2="921.35" style="stroke:#0390D6;stroke-width:8.64"/>
	<line x1="2248.29" y1="916.40" x2="2286.90" y2="904.76" style="stroke:#0390D6;stroke-width:8.64"/>
	<line x1="2303.48" y1="899.94" x2="2342.22" y2="888.55" style="stroke:#0390D6;stroke-width:8.64"/>
	<line x1="2358.80" y1="883.85" x2="2365.98" y2="881.75" style="stroke:#0390D6;stroke-width:8.64"/>
	<line x1="2365.98" y1="881.75" x2="2397.53" y2="872.96" style="stroke:#0390D6;stroke-width:8.64"/>
	<line x1="2414.24" y1="868.38" x2="2433.79" y2="862.94" style="stroke:#0390D6;stroke-width:8.64"/>
	<line x1="2433.79" y1="862.94" x2="2453.10" y2="857.86" style="stroke:#0390D6;stroke-width:8.64"/>
	<line x1="2469.80" y1="853.41" x2="2501.73" y2="844.99" style="stroke:#0390D6;stroke-width:8.64"/>
	<line x1="2501.73" y1="844.99" x2="2508.78" y2="843.14" style="stroke:#0390D6;stroke-width:8.64"/>
	<line x1="2525.49" y1="838.93" x2="2564.59" y2="828.90" style="stroke:#0390D6;stroke-width:8.64"/>
	<line x1="2581.30" y1="824.82" x2="2620.53" y2="815.29" style="stroke:#0390D6;stroke-width:8.64"/>
	<line x1="2637.24" y1="811.21" x2="2637.48" y2="811.08" style="stroke:#0390D6;stroke-width:8.64"/>
	<line x1="2637.48" y1="811.08" x2="2676.59" y2="801.93" style="stroke:#0390D6;stroke-width:8.64"/>
	<line x1="2693.30" y1="798.09" x2="2705.30" y2="795.24" style="stroke:#0390D6;stroke-width:8.64"/>
	<line x1="2705.30" y1="795.24" x2="2732.65" y2="789.05" style="stroke:#0390D6;stroke-width:8.64"/>
	<line x1="2749.48" y1="785.22" x2="2773.11" y2="779.90" style="stroke:#0390D6;stroke-width:8.64"/>
	<line x1="2773.11" y1="779.90" x2="2788.83" y2="776.56" style="stroke:#0390D6;stroke-width:8.64"/>
	<line x1="2805.66" y1="772.84" x2="2841.05" y2="765.17" style="stroke:#0390D6;stroke-width:8.64"/>
	<line x1="2841.05" y1="765.17" x2="2845.14" y2="764.30" style="stroke:#0390D6;stroke-width:8.64"/>
	<line x1="2861.97" y1="760.84" x2="2901.44" y2="752.55" style="stroke:#0390D6;stroke-width:8.64"/>
	<line x1="2918.40" y1="749.08" x2="2957.87" y2="741.04" style="stroke:#0390D6;stroke-width:8.64"/>
	<line x1="2974.83" y1="737.57" x2="2976.81" y2="737.20" style="stroke:#0390D6;stroke-width:8.64"/>
	<line x1="2976.81" y1="737.20" x2="3014.30" y2="729.78" style="stroke:#0390D6;stroke-width:8.64"/>
	<line x1="3031.26" y1="726.44" x2="3044.62" y2="723.84" style="stroke:#0390D6;stroke-width:8.64"/>
	<line x1="3044.62" y1="723.84" x2="3070.86" y2="718.89" style="stroke:#0390D6;stroke-width:8.64"/>
	<line x1="3087.81" y1="715.67" x2="3112.44" y2="710.97" style="stroke:#0390D6;stroke-width:8.64"/>
	<line x1="3112.44" y1="710.97" x2="3127.41" y2="708.24" style="stroke:#0390D6;stroke-width:8.64"/>
	<line x1="3144.36" y1="705.15" x2="3180.38" y2="698.47" style="stroke:#0390D6;stroke-width:8.64"/>
	<line x1="3180.38" y1="698.47" x2="3183.96" y2="697.85" style="stroke:#0390D6;stroke-width:8.64"/>
	<line x1="3201.04" y1="694.75" x2="3240.64" y2="687.58" style="stroke:#0390D6;stroke-width:8.64"/>
	<line x1="3257.72" y1="684.61" x2="3297.44" y2="677.68" style="stroke:#0390D6;stroke-width:8.64"/>
	<line x1="3314.40" y1="674.71" x2="3316.13" y2="674.46" style="stroke:#0390D6;stroke-width:8.64"/>
	<line x1="3316.13" y1="674.46" x2="3354.12" y2="668.02" style="stroke:#0390D6;stroke-width:8.64"/>
	<line x1="3371.07" y1="665.18" x2="3383.94" y2="662.95" style="stroke:#0390D6;stroke-width:8.64"/>
	<line x1="3383.94" y1="662.95" x2="3410.92" y2="658.49" style="stroke:#0390D6;stroke-width:8.64"/>
	<line x1="3427.88" y1="655.65" x2="3451.88" y2="651.81" style="stroke:#0390D6;stroke-width:8.64"/>
	<line x1="3451.88" y1="651.81" x2="3467.72" y2="649.21" style="stroke:#0390D6;stroke-width:8.64"/>
	<line x1="3484.80" y1="646.49" x2="3519.70" y2="640.92" style="stroke:#0390D6;stroke-width:8.64"/>
	<line x1="3519.70" y1="640.92" x2="3524.52" y2="640.18" style="stroke:#0390D6;stroke-width:8.64"/>
	<line x1="3541.60" y1="637.46" x2="3581.45" y2="631.27" style="stroke:#0390D6;stroke-width:8.64"/>
	<line x1="3598.53" y1="628.55" x2="3638.37" y2="622.48" style="stroke:#0390D6;stroke-width:8.64"/>
	<line x1="3655.33" y1="619.88" x2="3655.45" y2="619.88" style="stroke:#0390D6;stroke-width:8.64"/>
	<line x1="3655.45" y1="619.88" x2="3695.30" y2="614.07" style="stroke:#0390D6;stroke-width:8.64"/>
	<line x1="3712.38" y1="611.47" x2="3723.27" y2="609.86" style="stroke:#0390D6;stroke-width:8.64"/>
	<line x1="3723.27" y1="609.86" x2="3752.22" y2="605.65" style="stroke:#0390D6;stroke-width:8.64"/>
	<line x1="3769.30" y1="603.05" x2="3791.20" y2="599.96" style="stroke:#0390D6;stroke-width:8.64"/>
	<line x1="3791.20" y1="599.96" x2="3809.27" y2="597.36" style="stroke:#0390D6;stroke-width:8.64"/>
	<line x1="3826.23" y1="595.01" x2="3859.02" y2="590.31" style="stroke:#0390D6;stroke-width:8.64"/>
	<path d="" stroke-linejoin="round" style="fill:none;stroke:#0390D6;stroke-width:8.64"/>
	<path d=" M465.67 2489.31 L533.61 2475.20 L601.42 2462.33 L669.36 2450.33 L737.18 2438.94 L804.99 2427.93 L872.93 2417.28 L940.75 2407.01 L1008.69 2397.11 L1076.50 2387.34 L1144.32 2377.56 L1212.26 2367.16 L1280.07 2356.89 L1348.01 2346.99 L1415.82 2337.22 L1483.76 2327.56 L1551.58 2318.40 L1619.39 2309.25 L1687.33 2300.09 L1755.15 2290.81 L1823.09 2281.28 L1890.90 2271.63 L1958.71 2262.10 L2026.65 2252.94 L2094.47 2243.78 L2162.41 2234.87 L2230.22 2226.08 L2298.16 2217.42 L2365.98 2208.88 L2433.79 2200.47 L2501.73 2192.30 L2569.55 2183.76 L2637.48 2174.97 L2705.30 2166.19 L2773.11 2157.40 L2841.05 2148.61 L2908.87 2140.08 L2976.81 2131.66 L3044.62 2123.49 L3112.44 2115.45 L3180.38 2107.40 L3248.19 2099.24 L3316.13 2090.82 L3383.94 2082.28 L3451.88 2073.74 L3519.70 2065.20 L3587.51 2056.79 L3655.45 2048.62 L3723.27 2040.58 L3791.20 2032.66 L3859.02 2024.86" stroke-linejoin="round" style="fill:none;stroke:#FE300B;stroke-width:8.64"/>
	<line x1="465.67" y1="2489.31" x2="504.28" y2="2477.43" style="stroke:#FE300B;stroke-width:8.64"/>
	<line x1="520.74" y1="2472.35" x2="533.61" y2="2468.52" style="stroke:#FE300B;stroke-width:8.64"/>
	<line x1="533.61" y1="2468.52" x2="559.60" y2="2461.34" style="stroke:#FE300B;stroke-width:8.64"/>
	<line x1="576.18" y1="2456.64" x2="601.42" y2="2449.71" style="stroke:#FE300B;stroke-width:8.64"/>
	<line x1="601.42" y1="2449.71" x2="615.16" y2="2446.12" style="stroke:#FE300B;stroke-width:8.64"/>
	<line x1="631.87" y1="2441.79" x2="669.36" y2="2432.13" style="stroke:#FE300B;stroke-width:8.64"/>
	<line x1="669.36" y1="2432.13" x2="670.85" y2="2431.76" style="stroke:#FE300B;stroke-width:8.64"/>
	<line x1="687.68" y1="2427.68" x2="726.78" y2="2418.15" style="stroke:#FE300B;stroke-width:8.64"/>
	<line x1="743.61" y1="2414.07" x2="782.84" y2="2404.79" style="stroke:#FE300B;stroke-width:8.64"/>
	<line x1="799.55" y1="2400.83" x2="804.99" y2="2399.46" style="stroke:#FE300B;stroke-width:8.64"/>
	<line x1="804.99" y1="2399.46" x2="838.90" y2="2391.79" style="stroke:#FE300B;stroke-width:8.64"/>
	<line x1="855.73" y1="2387.95" x2="872.93" y2="2383.99" style="stroke:#FE300B;stroke-width:8.64"/>
	<line x1="872.93" y1="2383.99" x2="895.08" y2="2379.17" style="stroke:#FE300B;stroke-width:8.64"/>
	<line x1="911.91" y1="2375.46" x2="940.75" y2="2369.02" style="stroke:#FE300B;stroke-width:8.64"/>
	<line x1="940.75" y1="2369.02" x2="951.27" y2="2366.79" style="stroke:#FE300B;stroke-width:8.64"/>
	<line x1="968.22" y1="2363.08" x2="1007.57" y2="2354.66" style="stroke:#FE300B;stroke-width:8.64"/>
	<line x1="1024.53" y1="2351.08" x2="1064.00" y2="2342.78" style="stroke:#FE300B;stroke-width:8.64"/>
	<line x1="1080.83" y1="2339.32" x2="1120.31" y2="2331.03" style="stroke:#FE300B;stroke-width:8.64"/>
	<line x1="1137.14" y1="2327.44" x2="1144.32" y2="2325.95" style="stroke:#FE300B;stroke-width:8.64"/>
	<line x1="1144.32" y1="2325.95" x2="1176.62" y2="2318.90" style="stroke:#FE300B;stroke-width:8.64"/>
	<line x1="1193.44" y1="2315.19" x2="1212.26" y2="2311.10" style="stroke:#FE300B;stroke-width:8.64"/>
	<line x1="1212.26" y1="2311.10" x2="1232.80" y2="2306.52" style="stroke:#FE300B;stroke-width:8.64"/>
	<line x1="1249.75" y1="2302.94" x2="1280.07" y2="2296.25" style="stroke:#FE300B;stroke-width:8.64"/>
	<line x1="1280.07" y1="2296.25" x2="1289.10" y2="2294.40" style="stroke:#FE300B;stroke-width:8.64"/>
	<line x1="1306.06" y1="2290.81" x2="1345.53" y2="2282.52" style="stroke:#FE300B;stroke-width:8.64"/>
	<line x1="1362.36" y1="2279.05" x2="1401.84" y2="2270.76" style="stroke:#FE300B;stroke-width:8.64"/>
	<line x1="1418.67" y1="2267.29" x2="1458.27" y2="2259.37" style="stroke:#FE300B;stroke-width:8.64"/>
	<line x1="1475.10" y1="2255.91" x2="1483.76" y2="2254.18" style="stroke:#FE300B;stroke-width:8.64"/>
	<line x1="1483.76" y1="2254.18" x2="1514.70" y2="2247.99" style="stroke:#FE300B;stroke-width:8.64"/>
	<line x1="1531.65" y1="2244.65" x2="1551.58" y2="2240.69" style="stroke:#FE300B;stroke-width:8.64"/>
	<line x1="1551.58" y1="2240.69" x2="1571.25" y2="2236.85" style="stroke:#FE300B;stroke-width:8.64"/>
	<line x1="1588.08" y1="2233.63" x2="1619.39" y2="2227.45" style="stroke:#FE300B;stroke-width:8.64"/>
	<line x1="1619.39" y1="2227.45" x2="1627.68" y2="2225.84" style="stroke:#FE300B;stroke-width:8.64"/>
	<line x1="1644.64" y1="2222.62" x2="1684.24" y2="2215.07" style="stroke:#FE300B;stroke-width:8.64"/>
	<line x1="1701.19" y1="2211.85" x2="1740.79" y2="2204.30" style="stroke:#FE300B;stroke-width:8.64"/>
	<line x1="1757.74" y1="2201.09" x2="1797.35" y2="2193.54" style="stroke:#FE300B;stroke-width:8.64"/>
	<line x1="1814.30" y1="2190.32" x2="1823.09" y2="2188.59" style="stroke:#FE300B;stroke-width:8.64"/>
	<line x1="1823.09" y1="2188.59" x2="1853.78" y2="2182.52" style="stroke:#FE300B;stroke-width:8.64"/>
	<line x1="1870.73" y1="2179.18" x2="1890.90" y2="2175.22" style="stroke:#FE300B;stroke-width:8.64"/>
	<line x1="1890.90" y1="2175.22" x2="1910.33" y2="2171.39" style="stroke:#FE300B;stroke-width:8.64"/>
	<line x1="1927.28" y1="2168.04" x2="1958.71" y2="2161.73" style="stroke:#FE300B;stroke-width:8.64"/>
	<line x1="1958.71" y1="2161.73" x2="1966.88" y2="2160.12" style="stroke:#FE300B;stroke-width:8.64"/>
	<line x1="1983.84" y1="2156.91" x2="2023.44" y2="2149.11" style="stroke:#FE300B;stroke-width:8.64"/>
	<line x1="2040.27" y1="2145.89" x2="2079.87" y2="2138.22" style="stroke:#FE300B;stroke-width:8.64"/>
	<line x1="2096.82" y1="2135.00" x2="2136.54" y2="2127.58" style="stroke:#FE300B;stroke-width:8.64"/>
	<line x1="2153.50" y1="2124.36" x2="2162.41" y2="2122.63" style="stroke:#FE300B;stroke-width:8.64"/>
	<line x1="2162.41" y1="2122.63" x2="2193.10" y2="2116.93" style="stroke:#FE300B;stroke-width:8.64"/>
	<line x1="2209.93" y1="2113.84" x2="2230.22" y2="2110.13" style="stroke:#FE300B;stroke-width:8.64"/>
	<line x1="2230.22" y1="2110.13" x2="2249.65" y2="2106.66" style="stroke:#FE300B;stroke-width:8.64"/>
	<line x1="2266.61" y1="2103.57" x2="2298.16" y2="2097.88" style="stroke:#FE300B;stroke-width:8.64"/>
	<line x1="2298.16" y1="2097.88" x2="2306.33" y2="2096.39" style="stroke:#FE300B;stroke-width:8.64"/>
	<line x1="2323.28" y1="2093.30" x2="2363.01" y2="2086.12" style="stroke:#FE300B;stroke-width:8.64"/>
	<line x1="2379.96" y1="2083.03" x2="2419.56" y2="2075.60" style="stroke:#FE300B;stroke-width:8.64"/>
	<line x1="2436.51" y1="2072.51" x2="2476.11" y2="2064.96" style="stroke:#FE300B;stroke-width:8.64"/>
	<line x1="2493.07" y1="2061.74" x2="2501.73" y2="2060.13" style="stroke:#FE300B;stroke-width:8.64"/>
	<line x1="2501.73" y1="2060.13" x2="2532.67" y2="2054.31" style="stroke:#FE300B;stroke-width:8.64"/>
	<line x1="2549.62" y1="2051.10" x2="2569.55" y2="2047.26" style="stroke:#FE300B;stroke-width:8.64"/>
	<line x1="2569.55" y1="2047.26" x2="2589.22" y2="2043.55" style="stroke:#FE300B;stroke-width:8.64"/>
	<line x1="2606.05" y1="2040.45" x2="2637.48" y2="2034.51" style="stroke:#FE300B;stroke-width:8.64"/>
	<line x1="2637.48" y1="2034.51" x2="2645.78" y2="2032.90" style="stroke:#FE300B;stroke-width:8.64"/>
	<line x1="2662.73" y1="2029.81" x2="2702.33" y2="2022.39" style="stroke:#FE300B;stroke-width:8.64"/>
	<line x1="2719.28" y1="2019.29" x2="2759.01" y2="2012.24" style="stroke:#FE300B;stroke-width:8.64"/>
	<line x1="2775.96" y1="2009.14" x2="2815.68" y2="2002.09" style="stroke:#FE300B;stroke-width:8.64"/>
	<line x1="2832.64" y1="1999.12" x2="2841.05" y2="1997.63" style="stroke:#FE300B;stroke-width:8.64"/>
	<line x1="2841.05" y1="1997.63" x2="2872.36" y2="1992.19" style="stroke:#FE300B;stroke-width:8.64"/>
	<line x1="2889.32" y1="1989.10" x2="2908.87" y2="1985.75" style="stroke:#FE300B;stroke-width:8.64"/>
	<line x1="2908.87" y1="1985.75" x2="2929.04" y2="1982.29" style="stroke:#FE300B;stroke-width:8.64"/>
	<line x1="2946.12" y1="1979.32" x2="2976.81" y2="1974.12" style="stroke:#FE300B;stroke-width:8.64"/>
	<line x1="2976.81" y1="1974.12" x2="2985.84" y2="1972.51" style="stroke:#FE300B;stroke-width:8.64"/>
	<line x1="3002.79" y1="1969.54" x2="3042.52" y2="1962.74" style="stroke:#FE300B;stroke-width:8.64"/>
	<line x1="3059.47" y1="1959.77" x2="3099.20" y2="1952.71" style="stroke:#FE300B;stroke-width:8.64"/>
	<line x1="3116.27" y1="1949.62" x2="3155.87" y2="1942.56" style="stroke:#FE300B;stroke-width:8.64"/>
	<line x1="3172.83" y1="1939.59" x2="3180.38" y2="1938.23" style="stroke:#FE300B;stroke-width:8.64"/>
	<line x1="3180.38" y1="1938.23" x2="3212.55" y2="1932.54" style="stroke:#FE300B;stroke-width:8.64"/>
	<line x1="3229.50" y1="1929.45" x2="3248.19" y2="1926.11" style="stroke:#FE300B;stroke-width:8.64"/>
	<line x1="3248.19" y1="1926.11" x2="3269.23" y2="1922.27" style="stroke:#FE300B;stroke-width:8.64"/>
	<line x1="3286.18" y1="1919.30" x2="3316.13" y2="1913.98" style="stroke:#FE300B;stroke-width:8.64"/>
	<line x1="3316.13" y1="1913.98" x2="3325.91" y2="1912.24" style="stroke:#FE300B;stroke-width:8.64"/>
	<line x1="3342.86" y1="1909.27" x2="3382.58" y2="1902.22" style="stroke:#FE300B;stroke-width:8.64"/>
	<line x1="3399.54" y1="1899.25" x2="3439.26" y2="1892.44" style="stroke:#FE300B;stroke-width:8.64"/>
	<line x1="3456.34" y1="1889.47" x2="3496.06" y2="1882.67" style="stroke:#FE300B;stroke-width:8.64"/>
	<line x1="3513.01" y1="1879.70" x2="3519.70" y2="1878.58" style="stroke:#FE300B;stroke-width:8.64"/>
	<line x1="3519.70" y1="1878.58" x2="3552.74" y2="1873.01" style="stroke:#FE300B;stroke-width:8.64"/>
	<line x1="3569.82" y1="1870.17" x2="3587.51" y2="1867.20" style="stroke:#FE300B;stroke-width:8.64"/>
	<line x1="3587.51" y1="1867.20" x2="3609.54" y2="1863.61" style="stroke:#FE300B;stroke-width:8.64"/>
	<line x1="3626.62" y1="1860.76" x2="3655.45" y2="1856.06" style="stroke:#FE300B;stroke-width:8.64"/>
	<line x1="3655.45" y1="1856.06" x2="3666.47" y2="1854.33" style="stroke:#FE300B;stroke-width:8.64"/>
	<line x1="3683.42" y1="1851.48" x2="3723.27" y2="1845.17" style="stroke:#FE300B;stroke-width:8.64"/>
	<line x1="3740.22" y1="1842.45" x2="3780.07" y2="1836.01" style="stroke:#FE300B;stroke-width:8.64"/>
	<line x1="3797.14" y1="1833.41" x2="3836.99" y2="1826.98" style="stroke:#FE300B;stroke-width:8.64"/>
	<line x1="3853.95" y1="1824.26" x2="3859.02" y2="1823.51" style="stroke:#FE300B;stroke-width:8.64"/>
	<path d="" stroke-linejoin="round" style="fill:none;stroke:#FE300B;stroke-width:8.64"/>
	<line x1="465.80" y1="2489.19" x2="465.80" y2="100.86" style="stroke:#000000;stroke-width:5.76"/>
	<line x1="465.80" y1="2489.19" x2="425.82" y2="2489.19" style="stroke:#000000;stroke-width:5.76"/>
	<text x="405.78" y="2524.21" style="font-family:'Helvetica';font-size:99.99px;fill:#000000" text-anchor="end">0.0</text>
	<line x1="465.80" y1="2011.50" x2="425.82" y2="2011.50" style="stroke:#000000;stroke-width:5.76"/>
	<text x="405.78" y="2046.52" style="font-family:'Helvetica';font-size:99.99px;fill:#000000" text-anchor="end">0.1</text>
	<line x1="465.80" y1="1533.81" x2="425.82" y2="1533.81" style="stroke:#000000;stroke-width:5.76"/>
	<text x="405.78" y="1568.83" style="font-family:'Helvetica';font-size:99.99px;fill:#000000" text-anchor="end">0.2</text>
	<line x1="465.80" y1="1056.12" x2="425.82" y2="1056.12" style="stroke:#000000;stroke-width:5.76"/>
	<text x="405.78" y="1091.14" style="font-family:'Helvetica';font-size:99.99px;fill:#000000" text-anchor="end">0.3</text>
	<line x1="465.80" y1="578.43" x2="425.82" y2="578.43" style="stroke:#000000;stroke-width:5.76"/>
	<text x="405.78" y="613.45" style="font-family:'Helvetica';font-size:99.99px;fill:#000000" text-anchor="end">0.4</text>
	<line x1="465.80" y1="100.86" x2="425.82" y2="100.86" style="stroke:#000000;stroke-width:5.76"/>
	<text x="405.78" y="135.89" style="font-family:'Helvetica';font-size:99.99px;fill:#000000" text-anchor="end">0.5</text>
	<text x="190.71" y="1294.96" style="font-family:'Helvetica';font-size:99.99px;fill:#000000" transform="rotate(-90 190.71,1294.96)" text-anchor="middle">Probability of Death</text>
	<line x1="465.80" y1="2489.19" x2="3859.02" y2="2489.19" style="stroke:#000000;stroke-width:5.76"/>
	<line x1="465.80" y1="2489.19" x2="465.80" y2="2529.16" style="stroke:#000000;stroke-width:5.76"/>
	<text x="465.80" y="2619.14" style="font-family:'Helvetica';font-size:99.99px;fill:#000000" text-anchor="middle">0</text>
	<line x1="1144.44" y1="2489.19" x2="1144.44" y2="2529.16" style="stroke:#000000;stroke-width:5.76"/>
	<text x="1144.44" y="2619.14" style="font-family:'Helvetica';font-size:99.99px;fill:#000000" text-anchor="middle">1</text>
	<line x1="1823.09" y1="2489.19" x2="1823.09" y2="2529.16" style="stroke:#000000;stroke-width:5.76"/>
	<text x="1823.09" y="2619.14" style="font-family:'Helvetica';font-size:99.99px;fill:#000000" text-anchor="middle">2</text>
	<line x1="2501.73" y1="2489.19" x2="2501.73" y2="2529.16" style="stroke:#000000;stroke-width:5.76"/>
	<text x="2501.73" y="2619.14" style="font-family:'Helvetica';font-size:99.99px;fill:#000000" text-anchor="middle">3</text>
	<line x1="3180.38" y1="2489.19" x2="3180.38" y2="2529.16" style="stroke:#000000;stroke-width:5.76"/>
	<text x="3180.38" y="2619.14" style="font-family:'Helvetica';font-size:99.99px;fill:#000000" text-anchor="middle">4</text>
	<line x1="3859.02" y1="2489.19" x2="3859.02" y2="2529.16" style="stroke:#000000;stroke-width:5.76"/>
	<text x="3859.02" y="2619.14" style="font-family:'Helvetica';font-size:99.99px;fill:#000000" text-anchor="middle">5</text>
	<text x="2162.41" y="2729.16" style="font-family:'Helvetica';font-size:99.99px;fill:#000000" text-anchor="middle">Years since Diagnosis</text>
	<line x1="543.51" y1="228.57" x2="743.49" y2="228.57" style="stroke:#0390D6;stroke-width:8.64"/>
	<line x1="543.51" y1="368.54" x2="583.85" y2="368.54" style="stroke:#0390D6;stroke-width:8.64"/>
	<line x1="601.05" y1="368.54" x2="641.40" y2="368.54" style="stroke:#0390D6;stroke-width:8.64"/>
	<line x1="658.60" y1="368.54" x2="698.94" y2="368.54" style="stroke:#0390D6;stroke-width:8.64"/>
	<line x1="716.26" y1="368.54" x2="743.49" y2="368.54" style="stroke:#0390D6;stroke-width:8.64"/>
	<line x1="543.51" y1="508.50" x2="743.49" y2="508.50" style="stroke:#FE300B;stroke-width:8.64"/>
	<line x1="543.51" y1="648.59" x2="583.85" y2="648.59" style="stroke:#FE300B;stroke-width:8.64"/>
	<line x1="601.05" y1="648.59" x2="641.40" y2="648.59" style="stroke:#FE300B;stroke-width:8.64"/>
	<line x1="658.60" y1="648.59" x2="698.94" y2="648.59" style="stroke:#FE300B;stroke-width:8.64"/>
	<line x1="716.26" y1="648.59" x2="743.49" y2="648.59" style="stroke:#FE300B;stroke-width:8.64"/>
	<text x="803.51" y="263.60" style="font-family:'Helvetica';font-size:99.99px;fill:#000000">Cancer: Least Deprived</text>
	<text x="803.51" y="403.57" style="font-family:'Helvetica';font-size:99.99px;fill:#000000">Cancer: Most Deprived</text>
	<text x="803.51" y="543.53" style="font-family:'Helvetica';font-size:99.99px;fill:#000000">Other Causes: Least Deprived</text>
	<text x="803.51" y="683.62" style="font-family:'Helvetica';font-size:99.99px;fill:#000000">Other Causes: Most Deprived</text>
</svg>
