<?xml version="1.0" encoding="UTF-8" standalone="no"?>
<!-- This is a Stata 16.0 generated SVG file (http://www.stata.com) -->

<svg version="1.1" width="700px" height="509px" viewBox="0 0 3960 2880" xmlns="http://www.w3.org/2000/svg" xmlns:xlink="http://www.w3.org/1999/xlink">
	<desc>Stata Graph - Graph</desc>
	<rect x="0" y="0" width="3960" height="2880" style="fill:#FFFFFF;stroke:none"/>
	<rect x="0.00" y="0.00" width="3959.88" height="2880.00" style="fill:#FFFFFF"/>
	<rect x="2.88" y="2.88" width="3954.12" height="2874.24" style="fill:none;stroke:#FFFFFF;stroke-width:5.76"/>
	<rect x="63.36" y="63.36" width="1916.64" height="2753.28" style="fill:#FFFFFF"/>
	<rect x="65.52" y="65.52" width="1912.32" height="2748.96" style="fill:none;stroke:#FFFFFF;stroke-width:4.32"/>
	<line x1="347.12" y1="2523.59" x2="1904.39" y2="2523.59" style="stroke:#E8E8E8;stroke-width:4.32"/>
	<line x1="347.12" y1="1927.34" x2="1904.39" y2="1927.34" style="stroke:#E8E8E8;stroke-width:4.32"/>
	<line x1="347.12" y1="1331.22" x2="1904.39" y2="1331.22" style="stroke:#E8E8E8;stroke-width:4.32"/>
	<line x1="347.12" y1="735.10" x2="1904.39" y2="735.10" style="stroke:#E8E8E8;stroke-width:4.32"/>
	<line x1="347.12" y1="138.98" x2="1904.39" y2="138.98" style="stroke:#E8E8E8;stroke-width:4.32"/>
	<line x1="347.12" y1="2523.59" x2="347.12" y2="138.98" style="stroke:#E8E8E8;stroke-width:4.32"/>
	<line x1="658.47" y1="2523.59" x2="658.47" y2="138.98" style="stroke:#E8E8E8;stroke-width:4.32"/>
	<line x1="969.95" y1="2523.59" x2="969.95" y2="138.98" style="stroke:#E8E8E8;stroke-width:4.32"/>
	<line x1="1281.43" y1="2523.59" x2="1281.43" y2="138.98" style="stroke:#E8E8E8;stroke-width:4.32"/>
	<line x1="1592.91" y1="2523.59" x2="1592.91" y2="138.98" style="stroke:#E8E8E8;stroke-width:4.32"/>
	<line x1="1904.39" y1="2523.59" x2="1904.39" y2="138.98" style="stroke:#E8E8E8;stroke-width:4.32"/>
	<path d=" M347.00 2523.59 L378.80 2462.83 L410.60 2402.06 L442.41 2341.42 L474.09 2281.16 L505.89 2221.38 L537.69 2162.23 L569.50 2103.69 L601.30 2045.90 L632.98 1988.97 L664.78 1932.79 L696.59 1877.59 L728.39 1823.27 L760.20 1769.80 L792.00 1717.21 L823.68 1665.60 L855.48 1614.74 L887.29 1564.74 L919.09 1515.61 L950.89 1467.10 L982.58 1419.46 L1014.38 1372.55 L1046.18 1326.27 L1077.99 1280.61 L1109.79 1235.56 L1141.59 1191.25 L1173.27 1147.45 L1205.08 1104.26 L1236.88 1061.56 L1268.68 1019.48 L1300.49 977.90 L1332.17 936.82 L1363.97 896.23 L1395.78 856.13 L1427.58 816.53 L1459.38 777.42 L1491.06 738.81 L1522.87 700.57 L1554.67 662.83 L1586.47 625.58 L1618.28 588.70 L1650.08 552.19 L1681.76 516.18 L1713.57 480.54 L1745.37 445.27 L1777.17 410.37 L1808.98 375.96 L1840.66 341.93 L1872.46 308.15 L1904.27 274.86" stroke-linejoin="round" style="fill:none;stroke:#2166AC;stroke-width:6.48"/>
	<path d=" M347.00 2523.59 L378.80 2462.83 L410.60 2402.06 L442.41 2341.67 L474.09 2281.40 L505.89 2221.63 L537.69 2162.10 L569.50 2103.07 L601.30 2044.54 L632.98 1986.62 L664.78 1929.20 L696.59 1872.27 L728.39 1816.09 L760.20 1760.52 L792.00 1705.58 L823.68 1651.37 L855.48 1597.79 L887.29 1544.94 L919.09 1492.72 L950.89 1441.24 L982.58 1390.50 L1014.38 1340.38 L1046.18 1290.88 L1077.99 1241.99 L1109.79 1193.73 L1141.59 1146.21 L1173.27 1099.18 L1205.08 1052.65 L1236.88 1006.86 L1268.68 961.44 L1300.49 916.77 L1332.17 872.46 L1363.97 828.78 L1395.78 785.59 L1427.58 742.89 L1459.38 700.69 L1491.06 658.87 L1522.87 617.66 L1554.67 576.94 L1586.47 536.60 L1618.28 496.75 L1650.08 457.27 L1681.76 418.29 L1713.57 379.80 L1745.37 341.68 L1777.17 303.94 L1808.98 266.69 L1840.66 229.81 L1872.46 193.43 L1904.27 157.29" stroke-linejoin="round" style="fill:none;stroke:#B2182B;stroke-width:6.48"/>
	<line x1="347.12" y1="2523.59" x2="317.05" y2="2523.59" style="stroke:#000000;stroke-width:4.32"/>
	<text x="302.07" y="2549.87" style="font-family:'Helvetica';font-size:74.99px;fill:#000000" text-anchor="end">0</text>
	<line x1="347.12" y1="1927.34" x2="317.05" y2="1927.34" style="stroke:#000000;stroke-width:4.32"/>
	<text x="302.07" y="1953.62" style="font-family:'Helvetica';font-size:74.99px;fill:#000000" text-anchor="end">2</text>
	<line x1="347.12" y1="1331.22" x2="317.05" y2="1331.22" style="stroke:#000000;stroke-width:4.32"/>
	<text x="302.07" y="1357.50" style="font-family:'Helvetica';font-size:74.99px;fill:#000000" text-anchor="end">4</text>
	<line x1="347.12" y1="735.10" x2="317.05" y2="735.10" style="stroke:#000000;stroke-width:4.32"/>
	<text x="302.07" y="761.38" style="font-family:'Helvetica';font-size:74.99px;fill:#000000" text-anchor="end">6</text>
	<line x1="347.12" y1="138.98" x2="317.05" y2="138.98" style="stroke:#000000;stroke-width:4.32"/>
	<text x="302.07" y="165.25" style="font-family:'Helvetica';font-size:74.99px;fill:#000000" text-anchor="end">8</text>
	<line x1="347.12" y1="2523.59" x2="347.12" y2="138.98" style="stroke:#000000;stroke-width:4.32"/>
	<text x="206.38" y="1331.22" style="font-family:'Helvetica';font-size:74.99px;fill:#000000" transform="rotate(-90 206.38,1331.22)" text-anchor="middle">RMST (years)</text>
	<line x1="347.12" y1="2523.59" x2="347.12" y2="2553.54" style="stroke:#000000;stroke-width:4.32"/>
	<text x="347.12" y="2620.95" style="font-family:'Helvetica';font-size:74.99px;fill:#000000" text-anchor="middle">0</text>
	<line x1="658.47" y1="2523.59" x2="658.47" y2="2553.54" style="stroke:#000000;stroke-width:4.32"/>
	<text x="658.47" y="2620.95" style="font-family:'Helvetica';font-size:74.99px;fill:#000000" text-anchor="middle">2</text>
	<line x1="969.95" y1="2523.59" x2="969.95" y2="2553.54" style="stroke:#000000;stroke-width:4.32"/>
	<text x="969.95" y="2620.95" style="font-family:'Helvetica';font-size:74.99px;fill:#000000" text-anchor="middle">4</text>
	<line x1="1281.43" y1="2523.59" x2="1281.43" y2="2553.54" style="stroke:#000000;stroke-width:4.32"/>
	<text x="1281.43" y="2620.95" style="font-family:'Helvetica';font-size:74.99px;fill:#000000" text-anchor="middle">6</text>
	<line x1="1592.91" y1="2523.59" x2="1592.91" y2="2553.54" style="stroke:#000000;stroke-width:4.32"/>
	<text x="1592.91" y="2620.95" style="font-family:'Helvetica';font-size:74.99px;fill:#000000" text-anchor="middle">8</text>
	<line x1="1904.39" y1="2523.59" x2="1904.39" y2="2553.54" style="stroke:#000000;stroke-width:4.32"/>
	<text x="1904.39" y="2620.95" style="font-family:'Helvetica';font-size:74.99px;fill:#000000" text-anchor="middle">10</text>
	<line x1="347.12" y1="2523.59" x2="1904.39" y2="2523.59" style="stroke:#000000;stroke-width:4.32"/>
	<text x="1125.75" y="2703.49" style="font-family:'Helvetica';font-size:74.99px;fill:#000000" text-anchor="middle">Years from surgery</text>
	<line x1="405.40" y1="234.76" x2="555.39" y2="234.76" style="stroke:#2166AC;stroke-width:6.48"/>
	<line x1="405.40" y1="349.73" x2="555.39" y2="349.73" style="stroke:#B2182B;stroke-width:6.48"/>
	<text x="615.41" y="261.04" style="font-family:'Helvetica';font-size:74.99px;fill:#000000">No treatment</text>
	<text x="615.41" y="376.01" style="font-family:'Helvetica';font-size:74.99px;fill:#000000">Treatment</text>
	<rect x="1980.00" y="63.36" width="1916.52" height="2753.28" style="fill:#FFFFFF"/>
	<rect x="1982.16" y="65.52" width="1912.20" height="2748.96" style="fill:none;stroke:#FFFFFF;stroke-width:4.32"/>
	<line x1="2329.22" y1="2499.70" x2="3820.91" y2="2499.70" style="stroke:#E8E8E8;stroke-width:4.32"/>
	<line x1="2329.22" y1="1909.52" x2="3820.91" y2="1909.52" style="stroke:#E8E8E8;stroke-width:4.32"/>
	<line x1="2329.22" y1="1319.34" x2="3820.91" y2="1319.34" style="stroke:#E8E8E8;stroke-width:4.32"/>
	<line x1="2329.22" y1="729.16" x2="3820.91" y2="729.16" style="stroke:#E8E8E8;stroke-width:4.32"/>
	<line x1="2329.22" y1="138.98" x2="3820.91" y2="138.98" style="stroke:#E8E8E8;stroke-width:4.32"/>
	<line x1="2329.22" y1="2523.59" x2="2329.22" y2="138.98" style="stroke:#E8E8E8;stroke-width:4.32"/>
	<line x1="2627.58" y1="2523.59" x2="2627.58" y2="138.98" style="stroke:#E8E8E8;stroke-width:4.32"/>
	<line x1="2925.95" y1="2523.59" x2="2925.95" y2="138.98" style="stroke:#E8E8E8;stroke-width:4.32"/>
	<line x1="3224.31" y1="2523.59" x2="3224.31" y2="138.98" style="stroke:#E8E8E8;stroke-width:4.32"/>
	<line x1="3522.54" y1="2523.59" x2="3522.54" y2="138.98" style="stroke:#E8E8E8;stroke-width:4.32"/>
	<line x1="3820.91" y1="2523.59" x2="3820.91" y2="138.98" style="stroke:#E8E8E8;stroke-width:4.32"/>
	<defs>
		<path id="path_ObtnbONg" d="M2329.22 2499.70 L2329.22 2499.70 L2359.66 2500.45 L2390.11 2503.05 L2420.55 2507.13 L2450.99 2511.96 L2481.43 2516.66 L2511.88 2520.37 L2542.32 2522.85 L2572.76 2523.59 L2603.20 2522.48 L2633.65 2519.50 L2664.09 2514.80 L2694.53 2508.37 L2724.97 2500.32 L2755.42 2490.79 L2785.86 2479.90 L2816.30 2467.90 L2846.74 2455.03 L2877.19 2441.42 L2907.63 2427.18 L2938.07 2412.71 L2968.51 2398.10 L2998.96 2383.62 L3029.40 2369.27 L3059.84 2355.28 L3090.28 2341.55 L3120.73 2328.43 L3151.17 2315.68 L3181.61 2303.43 L3212.05 2291.55 L3242.50 2280.17 L3272.94 2269.15 L3303.38 2258.63 L3333.82 2248.48 L3364.27 2238.71 L3394.71 2229.30 L3425.15 2220.27 L3455.59 2211.73 L3486.04 2203.56 L3516.48 2195.89 L3546.92 2188.71 L3577.36 2182.15 L3607.81 2176.21 L3638.25 2170.89 L3668.69 2166.31 L3699.14 2162.60 L3729.58 2159.63 L3760.02 2157.65 L3790.46 2156.66 L3820.91 2156.66 L3820.91 516.18 L3790.46 570.13 L3760.02 623.60 L3729.58 676.56 L3699.14 729.28 L3668.69 781.75 L3638.25 833.98 L3607.81 886.08 L3577.36 938.05 L3546.92 989.91 L3516.48 1041.76 L3486.04 1093.61 L3455.59 1145.34 L3425.15 1197.19 L3394.71 1249.17 L3364.27 1301.15 L3333.82 1353.00 L3303.38 1404.98 L3272.94 1456.95 L3242.50 1508.81 L3212.05 1560.66 L3181.61 1612.14 L3151.17 1663.62 L3120.73 1714.73 L3090.28 1765.47 L3059.84 1815.84 L3029.40 1865.71 L2998.96 1915.21 L2968.51 1964.10 L2938.07 2012.24 L2907.63 2059.64 L2877.19 2106.04 L2846.74 2151.34 L2816.30 2195.15 L2785.86 2237.10 L2755.42 2276.95 L2724.97 2314.32 L2694.53 2348.72 L2664.09 2379.66 L2633.65 2406.89 L2603.20 2430.40 L2572.76 2449.83 L2542.32 2465.42 L2511.88 2477.30 L2481.43 2486.09 L2450.99 2492.16 L2420.55 2495.99 L2390.11 2498.22 L2359.66 2499.33 L2329.22 2499.70 L2329.22 2499.70 Z" stroke-linecap="round"/>
	</defs>
	<defs>
		<clipPath id="clipPath_zuTlzJiz">
			<use xlink:href="#path_ObtnbONg"/>
		</clipPath>
	</defs>
	<use xlink:href="#path_ObtnbONg" style="stroke:none;fill:#3333FF;fill-opacity:0.20"/>
	<use xlink:href="#path_ObtnbONg" style="fill:none;stroke:#0000FF;stroke-opacity:0.20;stroke-width:12.96" clip-path="url(#clipPath_zuTlzJiz)"/>
	<path d=" M2329.22 2499.83 L2359.66 2499.95 L2390.11 2500.69 L2420.55 2501.68 L2450.99 2502.06 L2481.43 2501.44 L2511.88 2498.96 L2542.32 2494.14 L2572.76 2486.71 L2603.20 2476.44 L2633.65 2463.32 L2664.09 2447.36 L2694.53 2428.55 L2724.97 2407.38 L2755.42 2383.99 L2785.86 2358.62 L2816.30 2331.52 L2846.74 2303.18 L2877.19 2273.73 L2907.63 2243.53 L2938.07 2212.60 L2968.51 2181.16 L2998.96 2149.48 L3029.40 2117.55 L3059.84 2085.62 L3090.28 2053.57 L3120.73 2021.64 L3151.17 1989.71 L3181.61 1957.91 L3212.05 1926.11 L3242.50 1894.55 L3272.94 1863.11 L3303.38 1831.93 L3333.82 1800.87 L3364.27 1769.93 L3394.71 1739.24 L3425.15 1708.79 L3455.59 1678.60 L3486.04 1648.65 L3516.48 1618.82 L3546.92 1589.37 L3577.36 1560.17 L3607.81 1531.21 L3638.25 1502.50 L3668.69 1474.16 L3699.14 1446.06 L3729.58 1418.22 L3760.02 1390.62 L3790.46 1363.40 L3820.91 1336.54" stroke-linejoin="round" style="fill:none;stroke:#0000FF;stroke-width:6.48"/>
	<line x1="2329.22" y1="2499.70" x2="2299.28" y2="2499.70" style="stroke:#000000;stroke-width:4.32"/>
	<text x="2284.30" y="2525.98" style="font-family:'Helvetica';font-size:74.99px;fill:#000000" text-anchor="end">0.0</text>
	<line x1="2329.22" y1="1909.52" x2="2299.28" y2="1909.52" style="stroke:#000000;stroke-width:4.32"/>
	<text x="2284.30" y="1935.80" style="font-family:'Helvetica';font-size:74.99px;fill:#000000" text-anchor="end">0.2</text>
	<line x1="2329.22" y1="1319.34" x2="2299.28" y2="1319.34" style="stroke:#000000;stroke-width:4.32"/>
	<text x="2284.30" y="1345.62" style="font-family:'Helvetica';font-size:74.99px;fill:#000000" text-anchor="end">0.4</text>
	<line x1="2329.22" y1="729.16" x2="2299.28" y2="729.16" style="stroke:#000000;stroke-width:4.32"/>
	<text x="2284.30" y="755.44" style="font-family:'Helvetica';font-size:74.99px;fill:#000000" text-anchor="end">0.6</text>
	<line x1="2329.22" y1="138.98" x2="2299.28" y2="138.98" style="stroke:#000000;stroke-width:4.32"/>
	<text x="2284.30" y="165.25" style="font-family:'Helvetica';font-size:74.99px;fill:#000000" text-anchor="end">0.8</text>
	<line x1="2329.22" y1="2499.70" x2="2329.22" y2="138.98" style="stroke:#000000;stroke-width:4.32"/>
	<text x="2123.02" y="1331.22" style="font-family:'Helvetica';font-size:74.99px;fill:#000000" transform="rotate(-90 2123.02,1331.22)" text-anchor="middle">Difference in RMST (years)</text>
	<line x1="2329.22" y1="2523.59" x2="2329.22" y2="2553.54" style="stroke:#000000;stroke-width:4.32"/>
	<text x="2329.22" y="2620.95" style="font-family:'Helvetica';font-size:74.99px;fill:#000000" text-anchor="middle">0</text>
	<line x1="2627.58" y1="2523.59" x2="2627.58" y2="2553.54" style="stroke:#000000;stroke-width:4.32"/>
	<text x="2627.58" y="2620.95" style="font-family:'Helvetica';font-size:74.99px;fill:#000000" text-anchor="middle">2</text>
	<line x1="2925.95" y1="2523.59" x2="2925.95" y2="2553.54" style="stroke:#000000;stroke-width:4.32"/>
	<text x="2925.95" y="2620.95" style="font-family:'Helvetica';font-size:74.99px;fill:#000000" text-anchor="middle">4</text>
	<line x1="3224.31" y1="2523.59" x2="3224.31" y2="2553.54" style="stroke:#000000;stroke-width:4.32"/>
	<text x="3224.31" y="2620.95" style="font-family:'Helvetica';font-size:74.99px;fill:#000000" text-anchor="middle">6</text>
	<line x1="3522.54" y1="2523.59" x2="3522.54" y2="2553.54" style="stroke:#000000;stroke-width:4.32"/>
	<text x="3522.54" y="2620.95" style="font-family:'Helvetica';font-size:74.99px;fill:#000000" text-anchor="middle">8</text>
	<line x1="3820.91" y1="2523.59" x2="3820.91" y2="2553.54" style="stroke:#000000;stroke-width:4.32"/>
	<text x="3820.91" y="2620.95" style="font-family:'Helvetica';font-size:74.99px;fill:#000000" text-anchor="middle">10</text>
	<line x1="2329.22" y1="2523.59" x2="3820.91" y2="2523.59" style="stroke:#000000;stroke-width:4.32"/>
	<text x="3075.06" y="2703.49" style="font-family:'Helvetica';font-size:74.99px;fill:#000000" text-anchor="middle">Years from surgery</text>
</svg>
