<?xml version="1.0" encoding="UTF-8" standalone="no"?>
<!-- This is a Stata 15.1 generated SVG file (http://www.stata.com) -->

<svg version="1.1" width="700px" height="509px" viewBox="0 0 3960 2880" xmlns="http://www.w3.org/2000/svg" xmlns:xlink="http://www.w3.org/1999/xlink">
	<desc>Stata Graph - Graph</desc>
	<rect x="0" y="0" width="3960" height="2880" style="fill:#FFFFFF;stroke:none"/>
	<rect x="0.00" y="0.00" width="3959.88" height="2880.00" style="fill:#FFFFFF"/>
	<rect x="2.88" y="2.88" width="3954.12" height="2874.24" style="fill:none;stroke:#FFFFFF;stroke-width:5.76"/>
	<line x1="465.80" y1="2489.19" x2="3859.02" y2="2489.19" style="stroke:#E8E8E8;stroke-width:5.76"/>
	<line x1="465.80" y1="2011.50" x2="3859.02" y2="2011.50" style="stroke:#E8E8E8;stroke-width:5.76"/>
	<line x1="465.80" y1="1533.81" x2="3859.02" y2="1533.81" style="stroke:#E8E8E8;stroke-width:5.76"/>
	<line x1="465.80" y1="1056.12" x2="3859.02" y2="1056.12" style="stroke:#E8E8E8;stroke-width:5.76"/>
	<line x1="465.80" y1="578.43" x2="3859.02" y2="578.43" style="stroke:#E8E8E8;stroke-width:5.76"/>
	<line x1="465.80" y1="100.86" x2="3859.02" y2="100.86" style="stroke:#E8E8E8;stroke-width:5.76"/>
	<line x1="465.80" y1="2489.19" x2="465.80" y2="100.86" style="stroke:#E8E8E8;stroke-width:5.76"/>
	<line x1="1144.44" y1="2489.19" x2="1144.44" y2="100.86" style="stroke:#E8E8E8;stroke-width:5.76"/>
	<line x1="1823.09" y1="2489.19" x2="1823.09" y2="100.86" style="stroke:#E8E8E8;stroke-width:5.76"/>
	<line x1="2501.73" y1="2489.19" x2="2501.73" y2="100.86" style="stroke:#E8E8E8;stroke-width:5.76"/>
	<line x1="3180.38" y1="2489.19" x2="3180.38" y2="100.86" style="stroke:#E8E8E8;stroke-width:5.76"/>
	<line x1="3859.02" y1="2489.19" x2="3859.02" y2="100.86" style="stroke:#E8E8E8;stroke-width:5.76"/>
	<line x1="465.67" y1="100.86" x2="499.95" y2="100.98" stroke-linecap="round" style="stroke:#0390D6;stroke-width:8.64"/>
	<line x1="499.95" y1="100.98" x2="534.23" y2="101.73" stroke-linecap="round" style="stroke:#0390D6;stroke-width:8.64"/>
	<line x1="534.23" y1="101.73" x2="568.51" y2="103.33" stroke-linecap="round" style="stroke:#0390D6;stroke-width:8.64"/>
	<line x1="568.51" y1="103.33" x2="602.79" y2="105.81" stroke-linecap="round" style="stroke:#0390D6;stroke-width:8.64"/>
	<line x1="602.79" y1="105.81" x2="637.07" y2="109.27" stroke-linecap="round" style="stroke:#0390D6;stroke-width:8.64"/>
	<line x1="637.07" y1="109.27" x2="671.34" y2="113.73" stroke-linecap="round" style="stroke:#0390D6;stroke-width:8.64"/>
	<line x1="671.34" y1="113.73" x2="705.62" y2="119.30" stroke-linecap="round" style="stroke:#0390D6;stroke-width:8.64"/>
	<line x1="705.62" y1="119.30" x2="739.90" y2="125.61" stroke-linecap="round" style="stroke:#0390D6;stroke-width:8.64"/>
	<line x1="739.90" y1="125.61" x2="774.18" y2="133.04" stroke-linecap="round" style="stroke:#0390D6;stroke-width:8.64"/>
	<line x1="774.18" y1="133.04" x2="808.46" y2="141.20" stroke-linecap="round" style="stroke:#0390D6;stroke-width:8.64"/>
	<line x1="808.46" y1="141.20" x2="842.74" y2="150.11" stroke-linecap="round" style="stroke:#0390D6;stroke-width:8.64"/>
	<line x1="842.74" y1="150.11" x2="877.02" y2="159.89" stroke-linecap="round" style="stroke:#0390D6;stroke-width:8.64"/>
	<line x1="877.02" y1="159.89" x2="911.29" y2="170.29" stroke-linecap="round" style="stroke:#0390D6;stroke-width:8.64"/>
	<line x1="911.29" y1="170.29" x2="945.57" y2="181.30" stroke-linecap="round" style="stroke:#0390D6;stroke-width:8.64"/>
	<line x1="945.57" y1="181.30" x2="979.85" y2="192.81" stroke-linecap="round" style="stroke:#0390D6;stroke-width:8.64"/>
	<line x1="979.85" y1="192.81" x2="1014.13" y2="204.94" stroke-linecap="round" style="stroke:#0390D6;stroke-width:8.64"/>
	<line x1="1014.13" y1="204.94" x2="1048.41" y2="217.56" stroke-linecap="round" style="stroke:#0390D6;stroke-width:8.64"/>
	<line x1="1048.41" y1="217.56" x2="1082.69" y2="230.55" stroke-linecap="round" style="stroke:#0390D6;stroke-width:8.64"/>
	<line x1="1082.69" y1="230.55" x2="1116.97" y2="243.92" stroke-linecap="round" style="stroke:#0390D6;stroke-width:8.64"/>
	<line x1="1116.97" y1="243.92" x2="1151.25" y2="257.53" stroke-linecap="round" style="stroke:#0390D6;stroke-width:8.64"/>
	<line x1="1151.25" y1="257.53" x2="1185.53" y2="271.52" stroke-linecap="round" style="stroke:#0390D6;stroke-width:8.64"/>
	<line x1="1185.53" y1="271.52" x2="1219.80" y2="285.75" stroke-linecap="round" style="stroke:#0390D6;stroke-width:8.64"/>
	<line x1="1219.80" y1="285.75" x2="1254.08" y2="300.23" stroke-linecap="round" style="stroke:#0390D6;stroke-width:8.64"/>
	<line x1="1254.08" y1="300.23" x2="1288.36" y2="314.83" stroke-linecap="round" style="stroke:#0390D6;stroke-width:8.64"/>
	<line x1="1288.36" y1="314.83" x2="1322.64" y2="329.68" stroke-linecap="round" style="stroke:#0390D6;stroke-width:8.64"/>
	<line x1="1322.64" y1="329.68" x2="1356.92" y2="344.53" stroke-linecap="round" style="stroke:#0390D6;stroke-width:8.64"/>
	<line x1="1356.92" y1="344.53" x2="1391.20" y2="359.38" stroke-linecap="round" style="stroke:#0390D6;stroke-width:8.64"/>
	<line x1="1391.20" y1="359.38" x2="1425.48" y2="374.48" stroke-linecap="round" style="stroke:#0390D6;stroke-width:8.64"/>
	<line x1="1425.48" y1="374.48" x2="1459.76" y2="389.45" stroke-linecap="round" style="stroke:#0390D6;stroke-width:8.64"/>
	<line x1="1459.76" y1="389.45" x2="1494.03" y2="404.30" stroke-linecap="round" style="stroke:#0390D6;stroke-width:8.64"/>
	<line x1="1494.03" y1="404.30" x2="1528.31" y2="419.28" stroke-linecap="round" style="stroke:#0390D6;stroke-width:8.64"/>
	<line x1="1528.31" y1="419.28" x2="1562.59" y2="434.13" stroke-linecap="round" style="stroke:#0390D6;stroke-width:8.64"/>
	<line x1="1562.59" y1="434.13" x2="1596.87" y2="448.86" stroke-linecap="round" style="stroke:#0390D6;stroke-width:8.64"/>
	<line x1="1596.87" y1="448.86" x2="1631.15" y2="463.46" stroke-linecap="round" style="stroke:#0390D6;stroke-width:8.64"/>
	<line x1="1631.15" y1="463.46" x2="1665.43" y2="477.94" stroke-linecap="round" style="stroke:#0390D6;stroke-width:8.64"/>
	<line x1="1665.43" y1="477.94" x2="1699.71" y2="492.29" stroke-linecap="round" style="stroke:#0390D6;stroke-width:8.64"/>
	<line x1="1699.71" y1="492.29" x2="1733.86" y2="506.52" stroke-linecap="round" style="stroke:#0390D6;stroke-width:8.64"/>
	<line x1="1733.86" y1="506.52" x2="1768.14" y2="520.51" stroke-linecap="round" style="stroke:#0390D6;stroke-width:8.64"/>
	<line x1="1768.14" y1="520.51" x2="1802.42" y2="534.37" stroke-linecap="round" style="stroke:#0390D6;stroke-width:8.64"/>
	<line x1="1802.42" y1="534.37" x2="1836.70" y2="547.86" stroke-linecap="round" style="stroke:#0390D6;stroke-width:8.64"/>
	<line x1="1836.70" y1="547.86" x2="1870.98" y2="561.35" stroke-linecap="round" style="stroke:#0390D6;stroke-width:8.64"/>
	<line x1="1870.98" y1="561.35" x2="1905.26" y2="574.59" stroke-linecap="round" style="stroke:#0390D6;stroke-width:8.64"/>
	<line x1="1905.26" y1="574.59" x2="1939.53" y2="587.58" stroke-linecap="round" style="stroke:#0390D6;stroke-width:8.64"/>
	<line x1="1939.53" y1="587.58" x2="1973.81" y2="600.45" stroke-linecap="round" style="stroke:#0390D6;stroke-width:8.64"/>
	<line x1="1973.81" y1="600.45" x2="2008.09" y2="613.20" stroke-linecap="round" style="stroke:#0390D6;stroke-width:8.64"/>
	<line x1="2008.09" y1="613.20" x2="2042.37" y2="625.70" stroke-linecap="round" style="stroke:#0390D6;stroke-width:8.64"/>
	<line x1="2042.37" y1="625.70" x2="2076.65" y2="638.07" stroke-linecap="round" style="stroke:#0390D6;stroke-width:8.64"/>
	<line x1="2076.65" y1="638.07" x2="2110.93" y2="650.33" stroke-linecap="round" style="stroke:#0390D6;stroke-width:8.64"/>
	<line x1="2110.93" y1="650.33" x2="2145.21" y2="662.33" stroke-linecap="round" style="stroke:#0390D6;stroke-width:8.64"/>
	<line x1="2145.21" y1="662.33" x2="2179.49" y2="674.33" stroke-linecap="round" style="stroke:#0390D6;stroke-width:8.64"/>
	<line x1="2179.49" y1="674.33" x2="2213.76" y2="686.09" stroke-linecap="round" style="stroke:#0390D6;stroke-width:8.64"/>
	<line x1="2213.76" y1="686.09" x2="2248.04" y2="697.72" stroke-linecap="round" style="stroke:#0390D6;stroke-width:8.64"/>
	<line x1="2248.04" y1="697.72" x2="2282.32" y2="709.23" stroke-linecap="round" style="stroke:#0390D6;stroke-width:8.64"/>
	<line x1="2282.32" y1="709.23" x2="2316.60" y2="720.74" stroke-linecap="round" style="stroke:#0390D6;stroke-width:8.64"/>
	<line x1="2316.60" y1="720.74" x2="2350.88" y2="732.00" stroke-linecap="round" style="stroke:#0390D6;stroke-width:8.64"/>
	<line x1="2350.88" y1="732.00" x2="2385.16" y2="743.27" stroke-linecap="round" style="stroke:#0390D6;stroke-width:8.64"/>
	<line x1="2385.16" y1="743.27" x2="2419.44" y2="754.28" stroke-linecap="round" style="stroke:#0390D6;stroke-width:8.64"/>
	<line x1="2419.44" y1="754.28" x2="2453.72" y2="765.29" stroke-linecap="round" style="stroke:#0390D6;stroke-width:8.64"/>
	<line x1="2453.72" y1="765.29" x2="2487.99" y2="776.31" stroke-linecap="round" style="stroke:#0390D6;stroke-width:8.64"/>
	<line x1="2487.99" y1="776.31" x2="2522.27" y2="787.07" stroke-linecap="round" style="stroke:#0390D6;stroke-width:8.64"/>
	<line x1="2522.27" y1="787.07" x2="2556.55" y2="797.84" stroke-linecap="round" style="stroke:#0390D6;stroke-width:8.64"/>
	<line x1="2556.55" y1="797.84" x2="2590.83" y2="808.48" stroke-linecap="round" style="stroke:#0390D6;stroke-width:8.64"/>
	<line x1="2590.83" y1="808.48" x2="2625.11" y2="819.00" stroke-linecap="round" style="stroke:#0390D6;stroke-width:8.64"/>
	<line x1="2625.11" y1="819.00" x2="2659.39" y2="829.52" stroke-linecap="round" style="stroke:#0390D6;stroke-width:8.64"/>
	<line x1="2659.39" y1="829.52" x2="2693.67" y2="839.92" stroke-linecap="round" style="stroke:#0390D6;stroke-width:8.64"/>
	<line x1="2693.67" y1="839.92" x2="2727.95" y2="850.19" stroke-linecap="round" style="stroke:#0390D6;stroke-width:8.64"/>
	<line x1="2727.95" y1="850.19" x2="2762.22" y2="860.46" stroke-linecap="round" style="stroke:#0390D6;stroke-width:8.64"/>
	<line x1="2762.22" y1="860.46" x2="2796.50" y2="870.61" stroke-linecap="round" style="stroke:#0390D6;stroke-width:8.64"/>
	<line x1="2796.50" y1="870.61" x2="2830.78" y2="880.63" stroke-linecap="round" style="stroke:#0390D6;stroke-width:8.64"/>
	<line x1="2830.78" y1="880.63" x2="2865.06" y2="890.66" stroke-linecap="round" style="stroke:#0390D6;stroke-width:8.64"/>
	<line x1="2865.06" y1="890.66" x2="2899.34" y2="900.56" stroke-linecap="round" style="stroke:#0390D6;stroke-width:8.64"/>
	<line x1="2899.34" y1="900.56" x2="2933.62" y2="910.46" stroke-linecap="round" style="stroke:#0390D6;stroke-width:8.64"/>
	<line x1="2933.62" y1="910.46" x2="2967.90" y2="920.23" stroke-linecap="round" style="stroke:#0390D6;stroke-width:8.64"/>
	<line x1="2967.90" y1="920.23" x2="3002.18" y2="930.01" stroke-linecap="round" style="stroke:#0390D6;stroke-width:8.64"/>
	<line x1="3002.18" y1="930.01" x2="3036.45" y2="939.66" stroke-linecap="round" style="stroke:#0390D6;stroke-width:8.64"/>
	<line x1="3036.45" y1="939.66" x2="3070.73" y2="949.19" stroke-linecap="round" style="stroke:#0390D6;stroke-width:8.64"/>
	<line x1="3070.73" y1="949.19" x2="3105.01" y2="958.72" stroke-linecap="round" style="stroke:#0390D6;stroke-width:8.64"/>
	<line x1="3105.01" y1="958.72" x2="3139.17" y2="968.25" stroke-linecap="round" style="stroke:#0390D6;stroke-width:8.64"/>
	<line x1="3139.17" y1="968.25" x2="3173.45" y2="977.66" stroke-linecap="round" style="stroke:#0390D6;stroke-width:8.64"/>
	<line x1="3173.45" y1="977.66" x2="3207.72" y2="986.94" stroke-linecap="round" style="stroke:#0390D6;stroke-width:8.64"/>
	<line x1="3207.72" y1="986.94" x2="3242.00" y2="996.22" stroke-linecap="round" style="stroke:#0390D6;stroke-width:8.64"/>
	<line x1="3242.00" y1="996.22" x2="3276.28" y2="1005.38" stroke-linecap="round" style="stroke:#0390D6;stroke-width:8.64"/>
	<line x1="3276.28" y1="1005.38" x2="3310.56" y2="1014.53" stroke-linecap="round" style="stroke:#0390D6;stroke-width:8.64"/>
	<line x1="3310.56" y1="1014.53" x2="3344.84" y2="1023.69" stroke-linecap="round" style="stroke:#0390D6;stroke-width:8.64"/>
	<line x1="3344.84" y1="1023.69" x2="3379.12" y2="1032.73" stroke-linecap="round" style="stroke:#0390D6;stroke-width:8.64"/>
	<line x1="3379.12" y1="1032.73" x2="3413.40" y2="1041.64" stroke-linecap="round" style="stroke:#0390D6;stroke-width:8.64"/>
	<line x1="3413.40" y1="1041.64" x2="3447.68" y2="1050.55" stroke-linecap="round" style="stroke:#0390D6;stroke-width:8.64"/>
	<line x1="3447.68" y1="1050.55" x2="3481.95" y2="1059.46" stroke-linecap="round" style="stroke:#0390D6;stroke-width:8.64"/>
	<line x1="3481.95" y1="1059.46" x2="3516.23" y2="1068.24" stroke-linecap="round" style="stroke:#0390D6;stroke-width:8.64"/>
	<line x1="3516.23" y1="1068.24" x2="3550.51" y2="1077.03" stroke-linecap="round" style="stroke:#0390D6;stroke-width:8.64"/>
	<line x1="3550.51" y1="1077.03" x2="3584.79" y2="1085.69" stroke-linecap="round" style="stroke:#0390D6;stroke-width:8.64"/>
	<line x1="3584.79" y1="1085.69" x2="3619.07" y2="1094.36" stroke-linecap="round" style="stroke:#0390D6;stroke-width:8.64"/>
	<line x1="3619.07" y1="1094.36" x2="3653.35" y2="1102.89" stroke-linecap="round" style="stroke:#0390D6;stroke-width:8.64"/>
	<line x1="3653.35" y1="1102.89" x2="3687.63" y2="1111.43" stroke-linecap="round" style="stroke:#0390D6;stroke-width:8.64"/>
	<line x1="3687.63" y1="1111.43" x2="3721.91" y2="1119.97" stroke-linecap="round" style="stroke:#0390D6;stroke-width:8.64"/>
	<line x1="3721.91" y1="1119.97" x2="3756.18" y2="1128.39" stroke-linecap="round" style="stroke:#0390D6;stroke-width:8.64"/>
	<line x1="3756.18" y1="1128.39" x2="3790.46" y2="1136.80" stroke-linecap="round" style="stroke:#0390D6;stroke-width:8.64"/>
	<line x1="3790.46" y1="1136.80" x2="3824.74" y2="1145.22" stroke-linecap="round" style="stroke:#0390D6;stroke-width:8.64"/>
	<line x1="3824.74" y1="1145.22" x2="3859.02" y2="1153.51" stroke-linecap="round" style="stroke:#0390D6;stroke-width:8.64"/>
	<line x1="465.67" y1="100.86" x2="499.95" y2="100.98" stroke-linecap="round" style="stroke:#FE300B;stroke-width:8.64"/>
	<line x1="499.95" y1="100.98" x2="534.23" y2="101.60" stroke-linecap="round" style="stroke:#FE300B;stroke-width:8.64"/>
	<line x1="534.23" y1="101.60" x2="568.51" y2="102.84" stroke-linecap="round" style="stroke:#FE300B;stroke-width:8.64"/>
	<line x1="568.51" y1="102.84" x2="602.79" y2="104.70" stroke-linecap="round" style="stroke:#FE300B;stroke-width:8.64"/>
	<line x1="602.79" y1="104.70" x2="637.07" y2="107.54" stroke-linecap="round" style="stroke:#FE300B;stroke-width:8.64"/>
	<line x1="637.07" y1="107.54" x2="671.34" y2="111.01" stroke-linecap="round" style="stroke:#FE300B;stroke-width:8.64"/>
	<line x1="671.34" y1="111.01" x2="705.62" y2="115.46" stroke-linecap="round" style="stroke:#FE300B;stroke-width:8.64"/>
	<line x1="705.62" y1="115.46" x2="739.90" y2="120.54" stroke-linecap="round" style="stroke:#FE300B;stroke-width:8.64"/>
	<line x1="739.90" y1="120.54" x2="774.18" y2="126.35" stroke-linecap="round" style="stroke:#FE300B;stroke-width:8.64"/>
	<line x1="774.18" y1="126.35" x2="808.46" y2="132.79" stroke-linecap="round" style="stroke:#FE300B;stroke-width:8.64"/>
	<line x1="808.46" y1="132.79" x2="842.74" y2="139.84" stroke-linecap="round" style="stroke:#FE300B;stroke-width:8.64"/>
	<line x1="842.74" y1="139.84" x2="877.02" y2="147.64" stroke-linecap="round" style="stroke:#FE300B;stroke-width:8.64"/>
	<line x1="877.02" y1="147.64" x2="911.29" y2="155.93" stroke-linecap="round" style="stroke:#FE300B;stroke-width:8.64"/>
	<line x1="911.29" y1="155.93" x2="945.57" y2="164.59" stroke-linecap="round" style="stroke:#FE300B;stroke-width:8.64"/>
	<line x1="945.57" y1="164.59" x2="979.85" y2="173.87" stroke-linecap="round" style="stroke:#FE300B;stroke-width:8.64"/>
	<line x1="979.85" y1="173.87" x2="1014.13" y2="183.53" stroke-linecap="round" style="stroke:#FE300B;stroke-width:8.64"/>
	<line x1="1014.13" y1="183.53" x2="1048.41" y2="193.55" stroke-linecap="round" style="stroke:#FE300B;stroke-width:8.64"/>
	<line x1="1048.41" y1="193.55" x2="1082.69" y2="203.95" stroke-linecap="round" style="stroke:#FE300B;stroke-width:8.64"/>
	<line x1="1082.69" y1="203.95" x2="1116.97" y2="214.71" stroke-linecap="round" style="stroke:#FE300B;stroke-width:8.64"/>
	<line x1="1116.97" y1="214.71" x2="1151.25" y2="225.60" stroke-linecap="round" style="stroke:#FE300B;stroke-width:8.64"/>
	<line x1="1151.25" y1="225.60" x2="1185.53" y2="236.86" stroke-linecap="round" style="stroke:#FE300B;stroke-width:8.64"/>
	<line x1="1185.53" y1="236.86" x2="1219.80" y2="248.25" stroke-linecap="round" style="stroke:#FE300B;stroke-width:8.64"/>
	<line x1="1219.80" y1="248.25" x2="1254.08" y2="259.88" stroke-linecap="round" style="stroke:#FE300B;stroke-width:8.64"/>
	<line x1="1254.08" y1="259.88" x2="1288.36" y2="271.76" stroke-linecap="round" style="stroke:#FE300B;stroke-width:8.64"/>
	<line x1="1288.36" y1="271.76" x2="1322.64" y2="283.64" stroke-linecap="round" style="stroke:#FE300B;stroke-width:8.64"/>
	<line x1="1322.64" y1="283.64" x2="1356.92" y2="295.65" stroke-linecap="round" style="stroke:#FE300B;stroke-width:8.64"/>
	<line x1="1356.92" y1="295.65" x2="1391.20" y2="307.78" stroke-linecap="round" style="stroke:#FE300B;stroke-width:8.64"/>
	<line x1="1391.20" y1="307.78" x2="1425.48" y2="319.90" stroke-linecap="round" style="stroke:#FE300B;stroke-width:8.64"/>
	<line x1="1425.48" y1="319.90" x2="1459.76" y2="332.03" stroke-linecap="round" style="stroke:#FE300B;stroke-width:8.64"/>
	<line x1="1459.76" y1="332.03" x2="1494.03" y2="344.16" stroke-linecap="round" style="stroke:#FE300B;stroke-width:8.64"/>
	<line x1="1494.03" y1="344.16" x2="1528.31" y2="356.29" stroke-linecap="round" style="stroke:#FE300B;stroke-width:8.64"/>
	<line x1="1528.31" y1="356.29" x2="1562.59" y2="368.42" stroke-linecap="round" style="stroke:#FE300B;stroke-width:8.64"/>
	<line x1="1562.59" y1="368.42" x2="1596.87" y2="380.42" stroke-linecap="round" style="stroke:#FE300B;stroke-width:8.64"/>
	<line x1="1596.87" y1="380.42" x2="1631.15" y2="392.42" stroke-linecap="round" style="stroke:#FE300B;stroke-width:8.64"/>
	<line x1="1631.15" y1="392.42" x2="1665.43" y2="404.30" stroke-linecap="round" style="stroke:#FE300B;stroke-width:8.64"/>
	<line x1="1665.43" y1="404.30" x2="1699.71" y2="416.06" stroke-linecap="round" style="stroke:#FE300B;stroke-width:8.64"/>
	<line x1="1699.71" y1="416.06" x2="1733.86" y2="427.69" stroke-linecap="round" style="stroke:#FE300B;stroke-width:8.64"/>
	<line x1="1733.86" y1="427.69" x2="1768.14" y2="439.20" stroke-linecap="round" style="stroke:#FE300B;stroke-width:8.64"/>
	<line x1="1768.14" y1="439.20" x2="1802.42" y2="450.59" stroke-linecap="round" style="stroke:#FE300B;stroke-width:8.64"/>
	<line x1="1802.42" y1="450.59" x2="1836.70" y2="461.85" stroke-linecap="round" style="stroke:#FE300B;stroke-width:8.64"/>
	<line x1="1836.70" y1="461.85" x2="1870.98" y2="472.86" stroke-linecap="round" style="stroke:#FE300B;stroke-width:8.64"/>
	<line x1="1870.98" y1="472.86" x2="1905.26" y2="483.88" stroke-linecap="round" style="stroke:#FE300B;stroke-width:8.64"/>
	<line x1="1905.26" y1="483.88" x2="1939.53" y2="494.64" stroke-linecap="round" style="stroke:#FE300B;stroke-width:8.64"/>
	<line x1="1939.53" y1="494.64" x2="1973.81" y2="505.29" stroke-linecap="round" style="stroke:#FE300B;stroke-width:8.64"/>
	<line x1="1973.81" y1="505.29" x2="2008.09" y2="515.93" stroke-linecap="round" style="stroke:#FE300B;stroke-width:8.64"/>
	<line x1="2008.09" y1="515.93" x2="2042.37" y2="526.33" stroke-linecap="round" style="stroke:#FE300B;stroke-width:8.64"/>
	<line x1="2042.37" y1="526.33" x2="2076.65" y2="536.60" stroke-linecap="round" style="stroke:#FE300B;stroke-width:8.64"/>
	<line x1="2076.65" y1="536.60" x2="2110.93" y2="546.87" stroke-linecap="round" style="stroke:#FE300B;stroke-width:8.64"/>
	<line x1="2110.93" y1="546.87" x2="2145.21" y2="556.89" stroke-linecap="round" style="stroke:#FE300B;stroke-width:8.64"/>
	<line x1="2145.21" y1="556.89" x2="2179.49" y2="566.92" stroke-linecap="round" style="stroke:#FE300B;stroke-width:8.64"/>
	<line x1="2179.49" y1="566.92" x2="2213.76" y2="576.82" stroke-linecap="round" style="stroke:#FE300B;stroke-width:8.64"/>
	<line x1="2213.76" y1="576.82" x2="2248.04" y2="586.59" stroke-linecap="round" style="stroke:#FE300B;stroke-width:8.64"/>
	<line x1="2248.04" y1="586.59" x2="2282.32" y2="596.25" stroke-linecap="round" style="stroke:#FE300B;stroke-width:8.64"/>
	<line x1="2282.32" y1="596.25" x2="2316.60" y2="605.90" stroke-linecap="round" style="stroke:#FE300B;stroke-width:8.64"/>
	<line x1="2316.60" y1="605.90" x2="2350.88" y2="615.43" stroke-linecap="round" style="stroke:#FE300B;stroke-width:8.64"/>
	<line x1="2350.88" y1="615.43" x2="2385.16" y2="624.83" stroke-linecap="round" style="stroke:#FE300B;stroke-width:8.64"/>
	<line x1="2385.16" y1="624.83" x2="2419.44" y2="634.24" stroke-linecap="round" style="stroke:#FE300B;stroke-width:8.64"/>
	<line x1="2419.44" y1="634.24" x2="2453.72" y2="643.52" stroke-linecap="round" style="stroke:#FE300B;stroke-width:8.64"/>
	<line x1="2453.72" y1="643.52" x2="2487.99" y2="652.80" stroke-linecap="round" style="stroke:#FE300B;stroke-width:8.64"/>
	<line x1="2487.99" y1="652.80" x2="2522.27" y2="661.96" stroke-linecap="round" style="stroke:#FE300B;stroke-width:8.64"/>
	<line x1="2522.27" y1="661.96" x2="2556.55" y2="671.12" stroke-linecap="round" style="stroke:#FE300B;stroke-width:8.64"/>
	<line x1="2556.55" y1="671.12" x2="2590.83" y2="680.15" stroke-linecap="round" style="stroke:#FE300B;stroke-width:8.64"/>
	<line x1="2590.83" y1="680.15" x2="2625.11" y2="689.19" stroke-linecap="round" style="stroke:#FE300B;stroke-width:8.64"/>
	<line x1="2625.11" y1="689.19" x2="2659.39" y2="698.10" stroke-linecap="round" style="stroke:#FE300B;stroke-width:8.64"/>
	<line x1="2659.39" y1="698.10" x2="2693.67" y2="707.01" stroke-linecap="round" style="stroke:#FE300B;stroke-width:8.64"/>
	<line x1="2693.67" y1="707.01" x2="2727.95" y2="715.79" stroke-linecap="round" style="stroke:#FE300B;stroke-width:8.64"/>
	<line x1="2727.95" y1="715.79" x2="2762.22" y2="724.58" stroke-linecap="round" style="stroke:#FE300B;stroke-width:8.64"/>
	<line x1="2762.22" y1="724.58" x2="2796.50" y2="733.24" stroke-linecap="round" style="stroke:#FE300B;stroke-width:8.64"/>
	<line x1="2796.50" y1="733.24" x2="2830.78" y2="741.90" stroke-linecap="round" style="stroke:#FE300B;stroke-width:8.64"/>
	<line x1="2830.78" y1="741.90" x2="2865.06" y2="750.44" stroke-linecap="round" style="stroke:#FE300B;stroke-width:8.64"/>
	<line x1="2865.06" y1="750.44" x2="2899.34" y2="759.11" stroke-linecap="round" style="stroke:#FE300B;stroke-width:8.64"/>
	<line x1="2899.34" y1="759.11" x2="2933.62" y2="767.52" stroke-linecap="round" style="stroke:#FE300B;stroke-width:8.64"/>
	<line x1="2933.62" y1="767.52" x2="2967.90" y2="775.94" stroke-linecap="round" style="stroke:#FE300B;stroke-width:8.64"/>
	<line x1="2967.90" y1="775.94" x2="3002.18" y2="784.35" stroke-linecap="round" style="stroke:#FE300B;stroke-width:8.64"/>
	<line x1="3002.18" y1="784.35" x2="3036.45" y2="792.77" stroke-linecap="round" style="stroke:#FE300B;stroke-width:8.64"/>
	<line x1="3036.45" y1="792.77" x2="3070.73" y2="801.06" stroke-linecap="round" style="stroke:#FE300B;stroke-width:8.64"/>
	<line x1="3070.73" y1="801.06" x2="3105.01" y2="809.35" stroke-linecap="round" style="stroke:#FE300B;stroke-width:8.64"/>
	<line x1="3105.01" y1="809.35" x2="3139.17" y2="817.52" stroke-linecap="round" style="stroke:#FE300B;stroke-width:8.64"/>
	<line x1="3139.17" y1="817.52" x2="3173.45" y2="825.69" stroke-linecap="round" style="stroke:#FE300B;stroke-width:8.64"/>
	<line x1="3173.45" y1="825.69" x2="3207.72" y2="833.85" stroke-linecap="round" style="stroke:#FE300B;stroke-width:8.64"/>
	<line x1="3207.72" y1="833.85" x2="3242.00" y2="841.90" stroke-linecap="round" style="stroke:#FE300B;stroke-width:8.64"/>
	<line x1="3242.00" y1="841.90" x2="3276.28" y2="849.94" stroke-linecap="round" style="stroke:#FE300B;stroke-width:8.64"/>
	<line x1="3276.28" y1="849.94" x2="3310.56" y2="857.86" stroke-linecap="round" style="stroke:#FE300B;stroke-width:8.64"/>
	<line x1="3310.56" y1="857.86" x2="3344.84" y2="865.91" stroke-linecap="round" style="stroke:#FE300B;stroke-width:8.64"/>
	<line x1="3344.84" y1="865.91" x2="3379.12" y2="873.83" stroke-linecap="round" style="stroke:#FE300B;stroke-width:8.64"/>
	<line x1="3379.12" y1="873.83" x2="3413.40" y2="881.62" stroke-linecap="round" style="stroke:#FE300B;stroke-width:8.64"/>
	<line x1="3413.40" y1="881.62" x2="3447.68" y2="889.54" stroke-linecap="round" style="stroke:#FE300B;stroke-width:8.64"/>
	<line x1="3447.68" y1="889.54" x2="3481.95" y2="897.34" stroke-linecap="round" style="stroke:#FE300B;stroke-width:8.64"/>
	<line x1="3481.95" y1="897.34" x2="3516.23" y2="905.01" stroke-linecap="round" style="stroke:#FE300B;stroke-width:8.64"/>
	<line x1="3516.23" y1="905.01" x2="3550.51" y2="912.81" stroke-linecap="round" style="stroke:#FE300B;stroke-width:8.64"/>
	<line x1="3550.51" y1="912.81" x2="3584.79" y2="920.48" stroke-linecap="round" style="stroke:#FE300B;stroke-width:8.64"/>
	<line x1="3584.79" y1="920.48" x2="3619.07" y2="928.15" stroke-linecap="round" style="stroke:#FE300B;stroke-width:8.64"/>
	<line x1="3619.07" y1="928.15" x2="3653.35" y2="935.70" stroke-linecap="round" style="stroke:#FE300B;stroke-width:8.64"/>
	<line x1="3653.35" y1="935.70" x2="3687.63" y2="943.25" stroke-linecap="round" style="stroke:#FE300B;stroke-width:8.64"/>
	<line x1="3687.63" y1="943.25" x2="3721.91" y2="950.80" stroke-linecap="round" style="stroke:#FE300B;stroke-width:8.64"/>
	<line x1="3721.91" y1="950.80" x2="3756.18" y2="958.35" stroke-linecap="round" style="stroke:#FE300B;stroke-width:8.64"/>
	<line x1="3756.18" y1="958.35" x2="3790.46" y2="965.78" stroke-linecap="round" style="stroke:#FE300B;stroke-width:8.64"/>
	<line x1="3790.46" y1="965.78" x2="3824.74" y2="973.20" stroke-linecap="round" style="stroke:#FE300B;stroke-width:8.64"/>
	<line x1="3824.74" y1="973.20" x2="3859.02" y2="980.63" stroke-linecap="round" style="stroke:#FE300B;stroke-width:8.64"/>
	<line x1="465.80" y1="2489.19" x2="425.82" y2="2489.19" style="stroke:#000000;stroke-width:5.76"/>
	<text x="405.78" y="2524.21" style="font-family:'Helvetica';font-size:99.99px;fill:#000000" text-anchor="end">0.0</text>
	<line x1="465.80" y1="2011.50" x2="425.82" y2="2011.50" style="stroke:#000000;stroke-width:5.76"/>
	<text x="405.78" y="2046.52" style="font-family:'Helvetica';font-size:99.99px;fill:#000000" text-anchor="end">0.2</text>
	<line x1="465.80" y1="1533.81" x2="425.82" y2="1533.81" style="stroke:#000000;stroke-width:5.76"/>
	<text x="405.78" y="1568.83" style="font-family:'Helvetica';font-size:99.99px;fill:#000000" text-anchor="end">0.4</text>
	<line x1="465.80" y1="1056.12" x2="425.82" y2="1056.12" style="stroke:#000000;stroke-width:5.76"/>
	<text x="405.78" y="1091.14" style="font-family:'Helvetica';font-size:99.99px;fill:#000000" text-anchor="end">0.6</text>
	<line x1="465.80" y1="578.43" x2="425.82" y2="578.43" style="stroke:#000000;stroke-width:5.76"/>
	<text x="405.78" y="613.45" style="font-family:'Helvetica';font-size:99.99px;fill:#000000" text-anchor="end">0.8</text>
	<line x1="465.80" y1="100.86" x2="425.82" y2="100.86" style="stroke:#000000;stroke-width:5.76"/>
	<text x="405.78" y="135.89" style="font-family:'Helvetica';font-size:99.99px;fill:#000000" text-anchor="end">1.0</text>
	<line x1="465.80" y1="2489.19" x2="465.80" y2="100.86" style="stroke:#000000;stroke-width:5.76"/>
	<text x="190.71" y="1294.96" style="font-family:'Helvetica';font-size:99.99px;fill:#000000" transform="rotate(-90 190.71,1294.96)" text-anchor="middle">S(t)</text>
	<line x1="465.80" y1="2489.19" x2="465.80" y2="2529.16" style="stroke:#000000;stroke-width:5.76"/>
	<text x="465.80" y="2619.14" style="font-family:'Helvetica';font-size:99.99px;fill:#000000" text-anchor="middle">0</text>
	<line x1="1144.44" y1="2489.19" x2="1144.44" y2="2529.16" style="stroke:#000000;stroke-width:5.76"/>
	<text x="1144.44" y="2619.14" style="font-family:'Helvetica';font-size:99.99px;fill:#000000" text-anchor="middle">2</text>
	<line x1="1823.09" y1="2489.19" x2="1823.09" y2="2529.16" style="stroke:#000000;stroke-width:5.76"/>
	<text x="1823.09" y="2619.14" style="font-family:'Helvetica';font-size:99.99px;fill:#000000" text-anchor="middle">4</text>
	<line x1="2501.73" y1="2489.19" x2="2501.73" y2="2529.16" style="stroke:#000000;stroke-width:5.76"/>
	<text x="2501.73" y="2619.14" style="font-family:'Helvetica';font-size:99.99px;fill:#000000" text-anchor="middle">6</text>
	<line x1="3180.38" y1="2489.19" x2="3180.38" y2="2529.16" style="stroke:#000000;stroke-width:5.76"/>
	<text x="3180.38" y="2619.14" style="font-family:'Helvetica';font-size:99.99px;fill:#000000" text-anchor="middle">8</text>
	<line x1="3859.02" y1="2489.19" x2="3859.02" y2="2529.16" style="stroke:#000000;stroke-width:5.76"/>
	<text x="3859.02" y="2619.14" style="font-family:'Helvetica';font-size:99.99px;fill:#000000" text-anchor="middle">10</text>
	<line x1="465.80" y1="2489.19" x2="3859.02" y2="2489.19" style="stroke:#000000;stroke-width:5.76"/>
	<text x="2162.41" y="2729.16" style="font-family:'Helvetica';font-size:99.99px;fill:#000000" text-anchor="middle">Years from surgery</text>
	<line x1="2453.84" y1="228.57" x2="2653.82" y2="228.57" style="stroke:#0390D6;stroke-width:8.64"/>
	<line x1="2453.84" y1="368.54" x2="2653.82" y2="368.54" style="stroke:#FE300B;stroke-width:8.64"/>
	<text x="2713.84" y="263.60" style="font-family:'Helvetica';font-size:99.99px;fill:#000000">No hormonal treatment</text>
	<text x="2713.84" y="403.57" style="font-family:'Helvetica';font-size:99.99px;fill:#000000">Hormonal treatment</text>
</svg>
