<?xml version="1.0" encoding="UTF-8" standalone="no"?>
<!-- This is a Stata 15.1 generated SVG file (http://www.stata.com) -->

<svg version="1.1" width="700px" height="509px" viewBox="0 0 3960 2880" xmlns="http://www.w3.org/2000/svg" xmlns:xlink="http://www.w3.org/1999/xlink">
	<desc>Stata Graph - Graph</desc>
	<rect x="0" y="0" width="3960" height="2880" style="fill:#FFFFFF;stroke:none"/>
	<rect x="0.00" y="0.00" width="3959.88" height="2880.00" style="fill:#FFFFFF"/>
	<rect x="2.88" y="2.88" width="3954.12" height="2874.24" style="fill:none;stroke:#FFFFFF;stroke-width:5.76"/>
	<line x1="465.80" y1="2489.19" x2="3859.02" y2="2489.19" style="stroke:#E8E8E8;stroke-width:5.76"/>
	<line x1="465.80" y1="2011.50" x2="3859.02" y2="2011.50" style="stroke:#E8E8E8;stroke-width:5.76"/>
	<line x1="465.80" y1="1533.93" x2="3859.02" y2="1533.93" style="stroke:#E8E8E8;stroke-width:5.76"/>
	<line x1="465.80" y1="1056.24" x2="3859.02" y2="1056.24" style="stroke:#E8E8E8;stroke-width:5.76"/>
	<line x1="465.80" y1="578.55" x2="3859.02" y2="578.55" style="stroke:#E8E8E8;stroke-width:5.76"/>
	<line x1="465.80" y1="100.98" x2="3859.02" y2="100.98" style="stroke:#E8E8E8;stroke-width:5.76"/>
	<line x1="465.80" y1="2489.19" x2="465.80" y2="100.86" style="stroke:#E8E8E8;stroke-width:5.76"/>
	<line x1="1144.44" y1="2489.19" x2="1144.44" y2="100.86" style="stroke:#E8E8E8;stroke-width:5.76"/>
	<line x1="1823.09" y1="2489.19" x2="1823.09" y2="100.86" style="stroke:#E8E8E8;stroke-width:5.76"/>
	<line x1="2501.73" y1="2489.19" x2="2501.73" y2="100.86" style="stroke:#E8E8E8;stroke-width:5.76"/>
	<line x1="3180.38" y1="2489.19" x2="3180.38" y2="100.86" style="stroke:#E8E8E8;stroke-width:5.76"/>
	<line x1="3859.02" y1="2489.19" x2="3859.02" y2="100.86" style="stroke:#E8E8E8;stroke-width:5.76"/>
	<defs>
		<path id="path1" d="M465.80 100.98 L465.80 100.98 L500.07 101.85 L534.35 105.31 L568.63 111.63 L602.91 120.54 L637.19 132.17 L671.47 146.40 L705.75 162.86 L740.02 181.67 L774.30 202.59 L808.58 225.60 L842.86 250.60 L877.14 277.46 L911.42 305.92 L945.70 335.74 L979.98 367.05 L1014.13 399.35 L1048.41 432.52 L1082.69 466.43 L1116.97 500.96 L1151.25 535.85 L1185.53 571.00 L1219.80 606.39 L1254.08 641.91 L1288.36 677.30 L1322.64 712.82 L1356.92 748.09 L1391.20 783.36 L1425.48 818.51 L1459.76 853.41 L1494.03 888.06 L1528.31 922.34 L1562.59 956.25 L1596.87 989.78 L1631.15 1022.83 L1665.43 1055.37 L1699.71 1087.18 L1733.98 1118.49 L1768.26 1149.05 L1802.54 1178.88 L1836.82 1207.96 L1871.10 1236.42 L1905.38 1264.27 L1939.66 1291.62 L1973.94 1318.23 L2008.21 1344.46 L2042.49 1370.20 L2076.77 1395.57 L2111.05 1420.45 L2145.33 1444.95 L2179.61 1469.21 L2213.89 1492.97 L2248.17 1516.48 L2282.45 1539.62 L2316.72 1562.52 L2351.00 1585.04 L2385.28 1607.19 L2419.44 1629.22 L2453.72 1650.88 L2487.99 1672.16 L2522.27 1693.20 L2556.55 1713.99 L2590.83 1734.53 L2625.11 1754.71 L2659.39 1774.75 L2693.67 1794.43 L2727.95 1813.86 L2762.22 1833.17 L2796.50 1852.10 L2830.78 1870.91 L2865.06 1889.47 L2899.34 1907.79 L2933.62 1925.98 L2967.90 1944.05 L3002.18 1961.87 L3036.45 1979.44 L3070.73 1997.02 L3105.01 2014.34 L3139.29 2031.54 L3173.57 2048.62 L3207.85 2065.58 L3242.13 2082.41 L3276.41 2099.11 L3310.68 2115.70 L3344.96 2132.28 L3379.24 2148.61 L3413.52 2164.95 L3447.80 2181.16 L3482.08 2197.25 L3516.36 2213.34 L3550.64 2229.30 L3584.91 2245.14 L3619.19 2260.86 L3653.47 2276.58 L3687.75 2292.17 L3722.03 2307.76 L3756.31 2323.23 L3790.59 2338.70 L3824.86 2353.92 L3859.02 2369.14 L3859.02 2187.60 L3824.86 2174.23 L3790.59 2160.74 L3756.31 2147.13 L3722.03 2133.27 L3687.75 2119.28 L3653.47 2105.18 L3619.19 2090.95 L3584.91 2076.59 L3550.64 2061.99 L3516.36 2047.14 L3482.08 2032.29 L3447.80 2017.19 L3413.52 2001.84 L3379.24 1986.37 L3344.96 1970.78 L3310.68 1954.94 L3276.41 1938.85 L3242.13 1922.64 L3207.85 1906.30 L3173.57 1889.72 L3139.29 1872.89 L3105.01 1855.94 L3070.73 1838.86 L3036.45 1821.53 L3002.18 1803.96 L2967.90 1786.26 L2933.62 1768.32 L2899.34 1750.25 L2865.06 1732.06 L2830.78 1713.62 L2796.50 1694.93 L2762.22 1676.25 L2727.95 1657.19 L2693.67 1638.01 L2659.39 1618.70 L2625.11 1599.15 L2590.83 1579.47 L2556.55 1559.55 L2522.27 1539.37 L2487.99 1519.08 L2453.72 1498.54 L2419.44 1477.87 L2385.28 1456.83 L2351.00 1435.54 L2316.72 1414.01 L2282.45 1392.11 L2248.17 1369.83 L2213.89 1347.31 L2179.61 1324.29 L2145.33 1301.02 L2111.05 1277.14 L2076.77 1253.01 L2042.49 1228.26 L2008.21 1203.14 L1973.94 1177.52 L1939.66 1151.53 L1905.38 1125.05 L1871.10 1097.94 L1836.82 1070.59 L1802.54 1042.63 L1768.26 1014.29 L1733.98 985.58 L1699.71 956.25 L1665.43 926.55 L1631.15 896.47 L1596.87 865.91 L1562.59 834.84 L1528.31 803.41 L1494.03 771.61 L1459.76 739.31 L1425.48 706.76 L1391.20 674.09 L1356.92 641.17 L1322.64 608.13 L1288.36 575.21 L1254.08 542.41 L1219.80 510.11 L1185.53 478.06 L1151.25 446.75 L1116.97 415.94 L1082.69 385.86 L1048.41 356.66 L1014.13 328.20 L979.98 300.85 L945.70 274.61 L911.42 249.61 L877.14 225.97 L842.86 203.82 L808.58 183.28 L774.30 164.72 L740.02 148.26 L705.75 134.03 L671.47 122.27 L637.19 113.23 L602.91 106.80 L568.63 102.84 L534.35 101.11 L500.07 100.86 L465.80 100.98 L465.80 100.98 Z" stroke-linecap="round"/>
	</defs>
	<defs>
		<clipPath id="clipPath1">
			<use xlink:href="#path1"/>
		</clipPath>
	</defs>
	<use xlink:href="#path1" style="stroke:none;fill:#FF3333;fill-opacity:0.25"/>
	<use xlink:href="#path1" style="fill:none;stroke:#FF0000;stroke-opacity:0.25;stroke-width:17.28" clip-path="url(#clipPath1)"/>
	<defs>
		<path id="path2" d="M465.80 100.98 L465.80 100.98 L500.07 101.60 L534.35 104.45 L568.63 109.40 L602.91 116.70 L637.19 126.11 L671.47 137.61 L705.75 151.23 L740.02 166.82 L774.30 184.27 L808.58 203.58 L842.86 224.74 L877.14 247.38 L911.42 271.64 L945.70 297.13 L979.98 323.86 L1014.13 351.71 L1048.41 380.30 L1082.69 409.75 L1116.97 439.70 L1151.25 470.14 L1185.53 501.08 L1219.80 532.27 L1254.08 563.70 L1288.36 595.26 L1322.64 626.81 L1356.92 658.49 L1391.20 690.18 L1425.48 721.73 L1459.76 753.29 L1494.03 784.48 L1528.31 815.54 L1562.59 846.23 L1596.87 876.55 L1631.15 906.62 L1665.43 936.20 L1699.71 965.28 L1733.98 993.74 L1768.26 1021.84 L1802.54 1049.31 L1836.82 1076.29 L1871.10 1102.65 L1905.38 1128.51 L1939.66 1154.00 L1973.94 1178.88 L2008.21 1203.51 L2042.49 1227.64 L2076.77 1251.28 L2111.05 1274.66 L2145.33 1297.68 L2179.61 1320.45 L2213.89 1342.85 L2248.17 1364.88 L2282.45 1386.66 L2316.72 1408.20 L2351.00 1429.36 L2385.28 1450.40 L2419.44 1471.06 L2453.72 1491.61 L2487.99 1511.78 L2522.27 1531.83 L2556.55 1551.63 L2590.83 1571.18 L2625.11 1590.48 L2659.39 1609.67 L2693.67 1628.48 L2727.95 1647.29 L2762.22 1665.73 L2796.50 1684.04 L2830.78 1702.23 L2865.06 1720.18 L2899.34 1738.00 L2933.62 1755.57 L2967.90 1773.15 L3002.18 1790.35 L3036.45 1807.55 L3070.73 1824.63 L3105.01 1841.46 L3139.29 1858.16 L3173.57 1874.75 L3207.85 1891.21 L3242.13 1907.54 L3276.41 1923.75 L3310.68 1939.84 L3344.96 1955.81 L3379.24 1971.65 L3413.52 1987.36 L3447.80 2002.96 L3482.08 2018.55 L3516.36 2033.89 L3550.64 2049.24 L3584.91 2064.46 L3619.19 2079.56 L3653.47 2094.66 L3687.75 2109.51 L3722.03 2124.36 L3756.31 2139.09 L3790.59 2153.81 L3824.86 2168.42 L3859.02 2182.89 L3859.02 1752.85 L3824.86 1740.85 L3790.59 1728.84 L3756.31 1716.71 L3722.03 1704.46 L3687.75 1692.09 L3653.47 1679.71 L3619.19 1667.21 L3584.91 1654.59 L3550.64 1641.84 L3516.36 1629.10 L3482.08 1616.10 L3447.80 1603.11 L3413.52 1589.99 L3379.24 1576.75 L3344.96 1563.38 L3310.68 1549.89 L3276.41 1536.28 L3242.13 1522.67 L3207.85 1508.81 L3173.57 1494.95 L3139.29 1480.84 L3105.01 1466.73 L3070.73 1452.50 L3036.45 1438.02 L3002.18 1423.54 L2967.90 1408.81 L2933.62 1394.09 L2899.34 1379.24 L2865.06 1364.14 L2830.78 1349.04 L2796.50 1333.70 L2762.22 1318.35 L2727.95 1302.76 L2693.67 1287.04 L2659.39 1271.32 L2625.11 1255.36 L2590.83 1239.27 L2556.55 1222.94 L2522.27 1206.60 L2487.99 1190.02 L2453.72 1173.43 L2419.44 1156.48 L2385.28 1139.53 L2351.00 1122.32 L2316.72 1104.87 L2282.45 1087.18 L2248.17 1069.36 L2213.89 1051.29 L2179.61 1032.85 L2145.33 1014.29 L2111.05 995.35 L2076.77 976.17 L2042.49 956.62 L2008.21 936.82 L1973.94 916.77 L1939.66 896.35 L1905.38 875.56 L1871.10 854.52 L1836.82 833.11 L1802.54 811.33 L1768.26 789.30 L1733.98 766.90 L1699.71 744.13 L1665.43 721.11 L1631.15 697.85 L1596.87 674.33 L1562.59 650.45 L1528.31 626.32 L1494.03 602.06 L1459.76 577.56 L1425.48 552.93 L1391.20 528.18 L1356.92 503.43 L1322.64 478.68 L1288.36 454.05 L1254.08 429.55 L1219.80 405.42 L1185.53 381.53 L1151.25 358.14 L1116.97 335.13 L1082.69 312.85 L1048.41 291.07 L1014.13 270.03 L979.98 249.74 L945.70 230.31 L911.42 211.74 L877.14 194.17 L842.86 177.83 L808.58 162.61 L774.30 148.88 L740.02 136.50 L705.75 125.86 L671.47 117.07 L637.19 110.26 L602.91 105.44 L568.63 102.47 L534.35 101.11 L500.07 100.86 L465.80 100.98 L465.80 100.98 Z" stroke-linecap="round"/>
	</defs>
	<defs>
		<clipPath id="clipPath2">
			<use xlink:href="#path2"/>
		</clipPath>
	</defs>
	<use xlink:href="#path2" style="stroke:none;fill:#3333FF;fill-opacity:0.25"/>
	<use xlink:href="#path2" style="fill:none;stroke:#0000FF;stroke-opacity:0.25;stroke-width:17.28" clip-path="url(#clipPath2)"/>
	<line x1="465.67" y1="100.98" x2="499.95" y2="101.35" stroke-linecap="round" style="stroke:#FF0000;stroke-width:8.64"/>
	<line x1="499.95" y1="101.35" x2="534.23" y2="103.21" stroke-linecap="round" style="stroke:#FF0000;stroke-width:8.64"/>
	<line x1="534.23" y1="103.21" x2="568.51" y2="107.29" stroke-linecap="round" style="stroke:#FF0000;stroke-width:8.64"/>
	<line x1="568.51" y1="107.29" x2="602.79" y2="113.73" stroke-linecap="round" style="stroke:#FF0000;stroke-width:8.64"/>
	<line x1="602.79" y1="113.73" x2="637.07" y2="122.76" stroke-linecap="round" style="stroke:#FF0000;stroke-width:8.64"/>
	<line x1="637.07" y1="122.76" x2="671.34" y2="134.40" stroke-linecap="round" style="stroke:#FF0000;stroke-width:8.64"/>
	<line x1="671.34" y1="134.40" x2="705.62" y2="148.50" stroke-linecap="round" style="stroke:#FF0000;stroke-width:8.64"/>
	<line x1="705.62" y1="148.50" x2="739.90" y2="164.96" stroke-linecap="round" style="stroke:#FF0000;stroke-width:8.64"/>
	<line x1="739.90" y1="164.96" x2="774.18" y2="183.77" stroke-linecap="round" style="stroke:#FF0000;stroke-width:8.64"/>
	<line x1="774.18" y1="183.77" x2="808.46" y2="204.57" stroke-linecap="round" style="stroke:#FF0000;stroke-width:8.64"/>
	<line x1="808.46" y1="204.57" x2="842.74" y2="227.34" stroke-linecap="round" style="stroke:#FF0000;stroke-width:8.64"/>
	<line x1="842.74" y1="227.34" x2="877.02" y2="251.84" stroke-linecap="round" style="stroke:#FF0000;stroke-width:8.64"/>
	<line x1="877.02" y1="251.84" x2="911.29" y2="277.95" stroke-linecap="round" style="stroke:#FF0000;stroke-width:8.64"/>
	<line x1="911.29" y1="277.95" x2="945.57" y2="305.42" stroke-linecap="round" style="stroke:#FF0000;stroke-width:8.64"/>
	<line x1="945.57" y1="305.42" x2="979.85" y2="334.14" stroke-linecap="round" style="stroke:#FF0000;stroke-width:8.64"/>
	<line x1="979.85" y1="334.14" x2="1014.13" y2="363.96" stroke-linecap="round" style="stroke:#FF0000;stroke-width:8.64"/>
	<line x1="1014.13" y1="363.96" x2="1048.41" y2="394.77" stroke-linecap="round" style="stroke:#FF0000;stroke-width:8.64"/>
	<line x1="1048.41" y1="394.77" x2="1082.69" y2="426.46" stroke-linecap="round" style="stroke:#FF0000;stroke-width:8.64"/>
	<line x1="1082.69" y1="426.46" x2="1116.97" y2="458.76" stroke-linecap="round" style="stroke:#FF0000;stroke-width:8.64"/>
	<line x1="1116.97" y1="458.76" x2="1151.25" y2="491.55" stroke-linecap="round" style="stroke:#FF0000;stroke-width:8.64"/>
	<line x1="1151.25" y1="491.55" x2="1185.53" y2="524.84" stroke-linecap="round" style="stroke:#FF0000;stroke-width:8.64"/>
	<line x1="1185.53" y1="524.84" x2="1219.80" y2="558.62" stroke-linecap="round" style="stroke:#FF0000;stroke-width:8.64"/>
	<line x1="1219.80" y1="558.62" x2="1254.08" y2="592.53" stroke-linecap="round" style="stroke:#FF0000;stroke-width:8.64"/>
	<line x1="1254.08" y1="592.53" x2="1288.36" y2="626.69" stroke-linecap="round" style="stroke:#FF0000;stroke-width:8.64"/>
	<line x1="1288.36" y1="626.69" x2="1322.64" y2="660.85" stroke-linecap="round" style="stroke:#FF0000;stroke-width:8.64"/>
	<line x1="1322.64" y1="660.85" x2="1356.92" y2="695.00" stroke-linecap="round" style="stroke:#FF0000;stroke-width:8.64"/>
	<line x1="1356.92" y1="695.00" x2="1391.20" y2="729.16" stroke-linecap="round" style="stroke:#FF0000;stroke-width:8.64"/>
	<line x1="1391.20" y1="729.16" x2="1425.48" y2="763.07" stroke-linecap="round" style="stroke:#FF0000;stroke-width:8.64"/>
	<line x1="1425.48" y1="763.07" x2="1459.76" y2="796.85" stroke-linecap="round" style="stroke:#FF0000;stroke-width:8.64"/>
	<line x1="1459.76" y1="796.85" x2="1494.03" y2="830.26" stroke-linecap="round" style="stroke:#FF0000;stroke-width:8.64"/>
	<line x1="1494.03" y1="830.26" x2="1528.31" y2="863.43" stroke-linecap="round" style="stroke:#FF0000;stroke-width:8.64"/>
	<line x1="1528.31" y1="863.43" x2="1562.59" y2="896.10" stroke-linecap="round" style="stroke:#FF0000;stroke-width:8.64"/>
	<line x1="1562.59" y1="896.10" x2="1596.87" y2="928.40" stroke-linecap="round" style="stroke:#FF0000;stroke-width:8.64"/>
	<line x1="1596.87" y1="928.40" x2="1631.15" y2="960.21" stroke-linecap="round" style="stroke:#FF0000;stroke-width:8.64"/>
	<line x1="1631.15" y1="960.21" x2="1665.43" y2="991.52" stroke-linecap="round" style="stroke:#FF0000;stroke-width:8.64"/>
	<line x1="1665.43" y1="991.52" x2="1699.71" y2="1022.33" stroke-linecap="round" style="stroke:#FF0000;stroke-width:8.64"/>
	<line x1="1699.71" y1="1022.33" x2="1733.86" y2="1052.65" stroke-linecap="round" style="stroke:#FF0000;stroke-width:8.64"/>
	<line x1="1733.86" y1="1052.65" x2="1768.14" y2="1082.35" stroke-linecap="round" style="stroke:#FF0000;stroke-width:8.64"/>
	<line x1="1768.14" y1="1082.35" x2="1802.42" y2="1111.43" stroke-linecap="round" style="stroke:#FF0000;stroke-width:8.64"/>
	<line x1="1802.42" y1="1111.43" x2="1836.70" y2="1140.02" stroke-linecap="round" style="stroke:#FF0000;stroke-width:8.64"/>
	<line x1="1836.70" y1="1140.02" x2="1870.98" y2="1167.99" stroke-linecap="round" style="stroke:#FF0000;stroke-width:8.64"/>
	<line x1="1870.98" y1="1167.99" x2="1905.26" y2="1195.34" stroke-linecap="round" style="stroke:#FF0000;stroke-width:8.64"/>
	<line x1="1905.26" y1="1195.34" x2="1939.53" y2="1222.32" stroke-linecap="round" style="stroke:#FF0000;stroke-width:8.64"/>
	<line x1="1939.53" y1="1222.32" x2="1973.81" y2="1248.68" stroke-linecap="round" style="stroke:#FF0000;stroke-width:8.64"/>
	<line x1="1973.81" y1="1248.68" x2="2008.09" y2="1274.54" stroke-linecap="round" style="stroke:#FF0000;stroke-width:8.64"/>
	<line x1="2008.09" y1="1274.54" x2="2042.37" y2="1300.03" stroke-linecap="round" style="stroke:#FF0000;stroke-width:8.64"/>
	<line x1="2042.37" y1="1300.03" x2="2076.65" y2="1325.03" stroke-linecap="round" style="stroke:#FF0000;stroke-width:8.64"/>
	<line x1="2076.65" y1="1325.03" x2="2110.93" y2="1349.66" stroke-linecap="round" style="stroke:#FF0000;stroke-width:8.64"/>
	<line x1="2110.93" y1="1349.66" x2="2145.21" y2="1373.79" stroke-linecap="round" style="stroke:#FF0000;stroke-width:8.64"/>
	<line x1="2145.21" y1="1373.79" x2="2179.49" y2="1397.55" stroke-linecap="round" style="stroke:#FF0000;stroke-width:8.64"/>
	<line x1="2179.49" y1="1397.55" x2="2213.76" y2="1420.94" stroke-linecap="round" style="stroke:#FF0000;stroke-width:8.64"/>
	<line x1="2213.76" y1="1420.94" x2="2248.04" y2="1443.96" stroke-linecap="round" style="stroke:#FF0000;stroke-width:8.64"/>
	<line x1="2248.04" y1="1443.96" x2="2282.32" y2="1466.73" stroke-linecap="round" style="stroke:#FF0000;stroke-width:8.64"/>
	<line x1="2282.32" y1="1466.73" x2="2316.60" y2="1489.13" stroke-linecap="round" style="stroke:#FF0000;stroke-width:8.64"/>
	<line x1="2316.60" y1="1489.13" x2="2350.88" y2="1511.16" stroke-linecap="round" style="stroke:#FF0000;stroke-width:8.64"/>
	<line x1="2350.88" y1="1511.16" x2="2385.16" y2="1532.94" stroke-linecap="round" style="stroke:#FF0000;stroke-width:8.64"/>
	<line x1="2385.16" y1="1532.94" x2="2419.44" y2="1554.47" stroke-linecap="round" style="stroke:#FF0000;stroke-width:8.64"/>
	<line x1="2419.44" y1="1554.47" x2="2453.72" y2="1575.63" stroke-linecap="round" style="stroke:#FF0000;stroke-width:8.64"/>
	<line x1="2453.72" y1="1575.63" x2="2487.99" y2="1596.55" stroke-linecap="round" style="stroke:#FF0000;stroke-width:8.64"/>
	<line x1="2487.99" y1="1596.55" x2="2522.27" y2="1617.34" stroke-linecap="round" style="stroke:#FF0000;stroke-width:8.64"/>
	<line x1="2522.27" y1="1617.34" x2="2556.55" y2="1637.76" stroke-linecap="round" style="stroke:#FF0000;stroke-width:8.64"/>
	<line x1="2556.55" y1="1637.76" x2="2590.83" y2="1657.93" stroke-linecap="round" style="stroke:#FF0000;stroke-width:8.64"/>
	<line x1="2590.83" y1="1657.93" x2="2625.11" y2="1677.98" stroke-linecap="round" style="stroke:#FF0000;stroke-width:8.64"/>
	<line x1="2625.11" y1="1677.98" x2="2659.39" y2="1697.66" stroke-linecap="round" style="stroke:#FF0000;stroke-width:8.64"/>
	<line x1="2659.39" y1="1697.66" x2="2693.67" y2="1717.21" stroke-linecap="round" style="stroke:#FF0000;stroke-width:8.64"/>
	<line x1="2693.67" y1="1717.21" x2="2727.95" y2="1736.64" stroke-linecap="round" style="stroke:#FF0000;stroke-width:8.64"/>
	<line x1="2727.95" y1="1736.64" x2="2762.22" y2="1755.70" stroke-linecap="round" style="stroke:#FF0000;stroke-width:8.64"/>
	<line x1="2762.22" y1="1755.70" x2="2796.50" y2="1774.63" stroke-linecap="round" style="stroke:#FF0000;stroke-width:8.64"/>
	<line x1="2796.50" y1="1774.63" x2="2830.78" y2="1793.32" stroke-linecap="round" style="stroke:#FF0000;stroke-width:8.64"/>
	<line x1="2830.78" y1="1793.32" x2="2865.06" y2="1811.88" stroke-linecap="round" style="stroke:#FF0000;stroke-width:8.64"/>
	<line x1="2865.06" y1="1811.88" x2="2899.34" y2="1830.20" stroke-linecap="round" style="stroke:#FF0000;stroke-width:8.64"/>
	<line x1="2899.34" y1="1830.20" x2="2933.62" y2="1848.26" stroke-linecap="round" style="stroke:#FF0000;stroke-width:8.64"/>
	<line x1="2933.62" y1="1848.26" x2="2967.90" y2="1866.21" stroke-linecap="round" style="stroke:#FF0000;stroke-width:8.64"/>
	<line x1="2967.90" y1="1866.21" x2="3002.18" y2="1884.03" stroke-linecap="round" style="stroke:#FF0000;stroke-width:8.64"/>
	<line x1="3002.18" y1="1884.03" x2="3036.45" y2="1901.60" stroke-linecap="round" style="stroke:#FF0000;stroke-width:8.64"/>
	<line x1="3036.45" y1="1901.60" x2="3070.73" y2="1919.05" stroke-linecap="round" style="stroke:#FF0000;stroke-width:8.64"/>
	<line x1="3070.73" y1="1919.05" x2="3105.01" y2="1936.25" stroke-linecap="round" style="stroke:#FF0000;stroke-width:8.64"/>
	<line x1="3105.01" y1="1936.25" x2="3139.17" y2="1953.33" stroke-linecap="round" style="stroke:#FF0000;stroke-width:8.64"/>
	<line x1="3139.17" y1="1953.33" x2="3173.45" y2="1970.29" stroke-linecap="round" style="stroke:#FF0000;stroke-width:8.64"/>
	<line x1="3173.45" y1="1970.29" x2="3207.72" y2="1987.12" stroke-linecap="round" style="stroke:#FF0000;stroke-width:8.64"/>
	<line x1="3207.72" y1="1987.12" x2="3242.00" y2="2003.70" stroke-linecap="round" style="stroke:#FF0000;stroke-width:8.64"/>
	<line x1="3242.00" y1="2003.70" x2="3276.28" y2="2020.16" stroke-linecap="round" style="stroke:#FF0000;stroke-width:8.64"/>
	<line x1="3276.28" y1="2020.16" x2="3310.56" y2="2036.49" stroke-linecap="round" style="stroke:#FF0000;stroke-width:8.64"/>
	<line x1="3310.56" y1="2036.49" x2="3344.84" y2="2052.71" stroke-linecap="round" style="stroke:#FF0000;stroke-width:8.64"/>
	<line x1="3344.84" y1="2052.71" x2="3379.12" y2="2068.79" stroke-linecap="round" style="stroke:#FF0000;stroke-width:8.64"/>
	<line x1="3379.12" y1="2068.79" x2="3413.40" y2="2084.63" stroke-linecap="round" style="stroke:#FF0000;stroke-width:8.64"/>
	<line x1="3413.40" y1="2084.63" x2="3447.68" y2="2100.47" stroke-linecap="round" style="stroke:#FF0000;stroke-width:8.64"/>
	<line x1="3447.68" y1="2100.47" x2="3481.95" y2="2116.07" stroke-linecap="round" style="stroke:#FF0000;stroke-width:8.64"/>
	<line x1="3481.95" y1="2116.07" x2="3516.23" y2="2131.54" stroke-linecap="round" style="stroke:#FF0000;stroke-width:8.64"/>
	<line x1="3516.23" y1="2131.54" x2="3550.51" y2="2146.88" stroke-linecap="round" style="stroke:#FF0000;stroke-width:8.64"/>
	<line x1="3550.51" y1="2146.88" x2="3584.79" y2="2162.23" stroke-linecap="round" style="stroke:#FF0000;stroke-width:8.64"/>
	<line x1="3584.79" y1="2162.23" x2="3619.07" y2="2177.33" stroke-linecap="round" style="stroke:#FF0000;stroke-width:8.64"/>
	<line x1="3619.07" y1="2177.33" x2="3653.35" y2="2192.30" stroke-linecap="round" style="stroke:#FF0000;stroke-width:8.64"/>
	<line x1="3653.35" y1="2192.30" x2="3687.63" y2="2207.27" stroke-linecap="round" style="stroke:#FF0000;stroke-width:8.64"/>
	<line x1="3687.63" y1="2207.27" x2="3721.91" y2="2222.00" stroke-linecap="round" style="stroke:#FF0000;stroke-width:8.64"/>
	<line x1="3721.91" y1="2222.00" x2="3756.18" y2="2236.73" stroke-linecap="round" style="stroke:#FF0000;stroke-width:8.64"/>
	<line x1="3756.18" y1="2236.73" x2="3790.46" y2="2251.21" stroke-linecap="round" style="stroke:#FF0000;stroke-width:8.64"/>
	<line x1="3790.46" y1="2251.21" x2="3824.74" y2="2265.69" stroke-linecap="round" style="stroke:#FF0000;stroke-width:8.64"/>
	<line x1="3824.74" y1="2265.69" x2="3859.02" y2="2280.04" stroke-linecap="round" style="stroke:#FF0000;stroke-width:8.64"/>
	<line x1="465.67" y1="100.98" x2="499.95" y2="101.35" stroke-linecap="round" style="stroke:#0000FF;stroke-width:8.64"/>
	<line x1="499.95" y1="101.35" x2="534.23" y2="102.84" stroke-linecap="round" style="stroke:#0000FF;stroke-width:8.64"/>
	<line x1="534.23" y1="102.84" x2="568.51" y2="105.93" stroke-linecap="round" style="stroke:#0000FF;stroke-width:8.64"/>
	<line x1="568.51" y1="105.93" x2="602.79" y2="111.13" stroke-linecap="round" style="stroke:#0000FF;stroke-width:8.64"/>
	<line x1="602.79" y1="111.13" x2="637.07" y2="118.31" stroke-linecap="round" style="stroke:#0000FF;stroke-width:8.64"/>
	<line x1="637.07" y1="118.31" x2="671.34" y2="127.47" stroke-linecap="round" style="stroke:#0000FF;stroke-width:8.64"/>
	<line x1="671.34" y1="127.47" x2="705.62" y2="138.60" stroke-linecap="round" style="stroke:#0000FF;stroke-width:8.64"/>
	<line x1="705.62" y1="138.60" x2="739.90" y2="151.72" stroke-linecap="round" style="stroke:#0000FF;stroke-width:8.64"/>
	<line x1="739.90" y1="151.72" x2="774.18" y2="166.57" stroke-linecap="round" style="stroke:#0000FF;stroke-width:8.64"/>
	<line x1="774.18" y1="166.57" x2="808.46" y2="183.28" stroke-linecap="round" style="stroke:#0000FF;stroke-width:8.64"/>
	<line x1="808.46" y1="183.28" x2="842.74" y2="201.35" stroke-linecap="round" style="stroke:#0000FF;stroke-width:8.64"/>
	<line x1="842.74" y1="201.35" x2="877.02" y2="220.90" stroke-linecap="round" style="stroke:#0000FF;stroke-width:8.64"/>
	<line x1="877.02" y1="220.90" x2="911.29" y2="241.82" stroke-linecap="round" style="stroke:#0000FF;stroke-width:8.64"/>
	<line x1="911.29" y1="241.82" x2="945.57" y2="263.84" stroke-linecap="round" style="stroke:#0000FF;stroke-width:8.64"/>
	<line x1="945.57" y1="263.84" x2="979.85" y2="286.99" stroke-linecap="round" style="stroke:#0000FF;stroke-width:8.64"/>
	<line x1="979.85" y1="286.99" x2="1014.13" y2="311.12" stroke-linecap="round" style="stroke:#0000FF;stroke-width:8.64"/>
	<line x1="1014.13" y1="311.12" x2="1048.41" y2="335.99" stroke-linecap="round" style="stroke:#0000FF;stroke-width:8.64"/>
	<line x1="1048.41" y1="335.99" x2="1082.69" y2="361.61" stroke-linecap="round" style="stroke:#0000FF;stroke-width:8.64"/>
	<line x1="1082.69" y1="361.61" x2="1116.97" y2="387.84" stroke-linecap="round" style="stroke:#0000FF;stroke-width:8.64"/>
	<line x1="1116.97" y1="387.84" x2="1151.25" y2="414.58" stroke-linecap="round" style="stroke:#0000FF;stroke-width:8.64"/>
	<line x1="1151.25" y1="414.58" x2="1185.53" y2="441.80" stroke-linecap="round" style="stroke:#0000FF;stroke-width:8.64"/>
	<line x1="1185.53" y1="441.80" x2="1219.80" y2="469.27" stroke-linecap="round" style="stroke:#0000FF;stroke-width:8.64"/>
	<line x1="1219.80" y1="469.27" x2="1254.08" y2="497.12" stroke-linecap="round" style="stroke:#0000FF;stroke-width:8.64"/>
	<line x1="1254.08" y1="497.12" x2="1288.36" y2="525.21" stroke-linecap="round" style="stroke:#0000FF;stroke-width:8.64"/>
	<line x1="1288.36" y1="525.21" x2="1322.64" y2="553.43" stroke-linecap="round" style="stroke:#0000FF;stroke-width:8.64"/>
	<line x1="1322.64" y1="553.43" x2="1356.92" y2="581.77" stroke-linecap="round" style="stroke:#0000FF;stroke-width:8.64"/>
	<line x1="1356.92" y1="581.77" x2="1391.20" y2="609.98" stroke-linecap="round" style="stroke:#0000FF;stroke-width:8.64"/>
	<line x1="1391.20" y1="609.98" x2="1425.48" y2="638.32" stroke-linecap="round" style="stroke:#0000FF;stroke-width:8.64"/>
	<line x1="1425.48" y1="638.32" x2="1459.76" y2="666.41" stroke-linecap="round" style="stroke:#0000FF;stroke-width:8.64"/>
	<line x1="1459.76" y1="666.41" x2="1494.03" y2="694.38" stroke-linecap="round" style="stroke:#0000FF;stroke-width:8.64"/>
	<line x1="1494.03" y1="694.38" x2="1528.31" y2="722.10" stroke-linecap="round" style="stroke:#0000FF;stroke-width:8.64"/>
	<line x1="1528.31" y1="722.10" x2="1562.59" y2="749.58" stroke-linecap="round" style="stroke:#0000FF;stroke-width:8.64"/>
	<line x1="1562.59" y1="749.58" x2="1596.87" y2="776.80" stroke-linecap="round" style="stroke:#0000FF;stroke-width:8.64"/>
	<line x1="1596.87" y1="776.80" x2="1631.15" y2="803.66" stroke-linecap="round" style="stroke:#0000FF;stroke-width:8.64"/>
	<line x1="1631.15" y1="803.66" x2="1665.43" y2="830.14" stroke-linecap="round" style="stroke:#0000FF;stroke-width:8.64"/>
	<line x1="1665.43" y1="830.14" x2="1699.71" y2="856.25" stroke-linecap="round" style="stroke:#0000FF;stroke-width:8.64"/>
	<line x1="1699.71" y1="856.25" x2="1733.86" y2="881.99" stroke-linecap="round" style="stroke:#0000FF;stroke-width:8.64"/>
	<line x1="1733.86" y1="881.99" x2="1768.14" y2="907.36" stroke-linecap="round" style="stroke:#0000FF;stroke-width:8.64"/>
	<line x1="1768.14" y1="907.36" x2="1802.42" y2="932.24" stroke-linecap="round" style="stroke:#0000FF;stroke-width:8.64"/>
	<line x1="1802.42" y1="932.24" x2="1836.70" y2="956.62" stroke-linecap="round" style="stroke:#0000FF;stroke-width:8.64"/>
	<line x1="1836.70" y1="956.62" x2="1870.98" y2="980.63" stroke-linecap="round" style="stroke:#0000FF;stroke-width:8.64"/>
	<line x1="1870.98" y1="980.63" x2="1905.26" y2="1004.14" stroke-linecap="round" style="stroke:#0000FF;stroke-width:8.64"/>
	<line x1="1905.26" y1="1004.14" x2="1939.53" y2="1027.40" stroke-linecap="round" style="stroke:#0000FF;stroke-width:8.64"/>
	<line x1="1939.53" y1="1027.40" x2="1973.81" y2="1050.18" stroke-linecap="round" style="stroke:#0000FF;stroke-width:8.64"/>
	<line x1="1973.81" y1="1050.18" x2="2008.09" y2="1072.57" stroke-linecap="round" style="stroke:#0000FF;stroke-width:8.64"/>
	<line x1="2008.09" y1="1072.57" x2="2042.37" y2="1094.60" stroke-linecap="round" style="stroke:#0000FF;stroke-width:8.64"/>
	<line x1="2042.37" y1="1094.60" x2="2076.65" y2="1116.26" stroke-linecap="round" style="stroke:#0000FF;stroke-width:8.64"/>
	<line x1="2076.65" y1="1116.26" x2="2110.93" y2="1137.67" stroke-linecap="round" style="stroke:#0000FF;stroke-width:8.64"/>
	<line x1="2110.93" y1="1137.67" x2="2145.21" y2="1158.71" stroke-linecap="round" style="stroke:#0000FF;stroke-width:8.64"/>
	<line x1="2145.21" y1="1158.71" x2="2179.49" y2="1179.50" stroke-linecap="round" style="stroke:#0000FF;stroke-width:8.64"/>
	<line x1="2179.49" y1="1179.50" x2="2213.76" y2="1199.92" stroke-linecap="round" style="stroke:#0000FF;stroke-width:8.64"/>
	<line x1="2213.76" y1="1199.92" x2="2248.04" y2="1220.21" stroke-linecap="round" style="stroke:#0000FF;stroke-width:8.64"/>
	<line x1="2248.04" y1="1220.21" x2="2282.32" y2="1240.14" stroke-linecap="round" style="stroke:#0000FF;stroke-width:8.64"/>
	<line x1="2282.32" y1="1240.14" x2="2316.60" y2="1259.81" stroke-linecap="round" style="stroke:#0000FF;stroke-width:8.64"/>
	<line x1="2316.60" y1="1259.81" x2="2350.88" y2="1279.12" stroke-linecap="round" style="stroke:#0000FF;stroke-width:8.64"/>
	<line x1="2350.88" y1="1279.12" x2="2385.16" y2="1298.43" stroke-linecap="round" style="stroke:#0000FF;stroke-width:8.64"/>
	<line x1="2385.16" y1="1298.43" x2="2419.44" y2="1317.36" stroke-linecap="round" style="stroke:#0000FF;stroke-width:8.64"/>
	<line x1="2419.44" y1="1317.36" x2="2453.72" y2="1336.17" stroke-linecap="round" style="stroke:#0000FF;stroke-width:8.64"/>
	<line x1="2453.72" y1="1336.17" x2="2487.99" y2="1354.73" stroke-linecap="round" style="stroke:#0000FF;stroke-width:8.64"/>
	<line x1="2487.99" y1="1354.73" x2="2522.27" y2="1373.05" stroke-linecap="round" style="stroke:#0000FF;stroke-width:8.64"/>
	<line x1="2522.27" y1="1373.05" x2="2556.55" y2="1391.24" stroke-linecap="round" style="stroke:#0000FF;stroke-width:8.64"/>
	<line x1="2556.55" y1="1391.24" x2="2590.83" y2="1409.19" stroke-linecap="round" style="stroke:#0000FF;stroke-width:8.64"/>
	<line x1="2590.83" y1="1409.19" x2="2625.11" y2="1427.01" stroke-linecap="round" style="stroke:#0000FF;stroke-width:8.64"/>
	<line x1="2625.11" y1="1427.01" x2="2659.39" y2="1444.70" stroke-linecap="round" style="stroke:#0000FF;stroke-width:8.64"/>
	<line x1="2659.39" y1="1444.70" x2="2693.67" y2="1462.15" stroke-linecap="round" style="stroke:#0000FF;stroke-width:8.64"/>
	<line x1="2693.67" y1="1462.15" x2="2727.95" y2="1479.48" stroke-linecap="round" style="stroke:#0000FF;stroke-width:8.64"/>
	<line x1="2727.95" y1="1479.48" x2="2762.22" y2="1496.56" stroke-linecap="round" style="stroke:#0000FF;stroke-width:8.64"/>
	<line x1="2762.22" y1="1496.56" x2="2796.50" y2="1513.51" stroke-linecap="round" style="stroke:#0000FF;stroke-width:8.64"/>
	<line x1="2796.50" y1="1513.51" x2="2830.78" y2="1530.34" stroke-linecap="round" style="stroke:#0000FF;stroke-width:8.64"/>
	<line x1="2830.78" y1="1530.34" x2="2865.06" y2="1547.05" stroke-linecap="round" style="stroke:#0000FF;stroke-width:8.64"/>
	<line x1="2865.06" y1="1547.05" x2="2899.34" y2="1563.51" stroke-linecap="round" style="stroke:#0000FF;stroke-width:8.64"/>
	<line x1="2899.34" y1="1563.51" x2="2933.62" y2="1579.84" stroke-linecap="round" style="stroke:#0000FF;stroke-width:8.64"/>
	<line x1="2933.62" y1="1579.84" x2="2967.90" y2="1596.05" stroke-linecap="round" style="stroke:#0000FF;stroke-width:8.64"/>
	<line x1="2967.90" y1="1596.05" x2="3002.18" y2="1612.14" stroke-linecap="round" style="stroke:#0000FF;stroke-width:8.64"/>
	<line x1="3002.18" y1="1612.14" x2="3036.45" y2="1628.11" stroke-linecap="round" style="stroke:#0000FF;stroke-width:8.64"/>
	<line x1="3036.45" y1="1628.11" x2="3070.73" y2="1643.95" stroke-linecap="round" style="stroke:#0000FF;stroke-width:8.64"/>
	<line x1="3070.73" y1="1643.95" x2="3105.01" y2="1659.54" stroke-linecap="round" style="stroke:#0000FF;stroke-width:8.64"/>
	<line x1="3105.01" y1="1659.54" x2="3139.17" y2="1675.13" stroke-linecap="round" style="stroke:#0000FF;stroke-width:8.64"/>
	<line x1="3139.17" y1="1675.13" x2="3173.45" y2="1690.60" stroke-linecap="round" style="stroke:#0000FF;stroke-width:8.64"/>
	<line x1="3173.45" y1="1690.60" x2="3207.72" y2="1705.82" stroke-linecap="round" style="stroke:#0000FF;stroke-width:8.64"/>
	<line x1="3207.72" y1="1705.82" x2="3242.00" y2="1721.05" stroke-linecap="round" style="stroke:#0000FF;stroke-width:8.64"/>
	<line x1="3242.00" y1="1721.05" x2="3276.28" y2="1736.02" stroke-linecap="round" style="stroke:#0000FF;stroke-width:8.64"/>
	<line x1="3276.28" y1="1736.02" x2="3310.56" y2="1750.99" stroke-linecap="round" style="stroke:#0000FF;stroke-width:8.64"/>
	<line x1="3310.56" y1="1750.99" x2="3344.84" y2="1765.84" stroke-linecap="round" style="stroke:#0000FF;stroke-width:8.64"/>
	<line x1="3344.84" y1="1765.84" x2="3379.12" y2="1780.57" stroke-linecap="round" style="stroke:#0000FF;stroke-width:8.64"/>
	<line x1="3379.12" y1="1780.57" x2="3413.40" y2="1795.17" stroke-linecap="round" style="stroke:#0000FF;stroke-width:8.64"/>
	<line x1="3413.40" y1="1795.17" x2="3447.68" y2="1809.65" stroke-linecap="round" style="stroke:#0000FF;stroke-width:8.64"/>
	<line x1="3447.68" y1="1809.65" x2="3481.95" y2="1824.01" stroke-linecap="round" style="stroke:#0000FF;stroke-width:8.64"/>
	<line x1="3481.95" y1="1824.01" x2="3516.23" y2="1838.24" stroke-linecap="round" style="stroke:#0000FF;stroke-width:8.64"/>
	<line x1="3516.23" y1="1838.24" x2="3550.51" y2="1852.47" stroke-linecap="round" style="stroke:#0000FF;stroke-width:8.64"/>
	<line x1="3550.51" y1="1852.47" x2="3584.79" y2="1866.58" stroke-linecap="round" style="stroke:#0000FF;stroke-width:8.64"/>
	<line x1="3584.79" y1="1866.58" x2="3619.07" y2="1880.56" stroke-linecap="round" style="stroke:#0000FF;stroke-width:8.64"/>
	<line x1="3619.07" y1="1880.56" x2="3653.35" y2="1894.42" stroke-linecap="round" style="stroke:#0000FF;stroke-width:8.64"/>
	<line x1="3653.35" y1="1894.42" x2="3687.63" y2="1908.16" stroke-linecap="round" style="stroke:#0000FF;stroke-width:8.64"/>
	<line x1="3687.63" y1="1908.16" x2="3721.91" y2="1921.90" stroke-linecap="round" style="stroke:#0000FF;stroke-width:8.64"/>
	<line x1="3721.91" y1="1921.90" x2="3756.18" y2="1935.51" stroke-linecap="round" style="stroke:#0000FF;stroke-width:8.64"/>
	<line x1="3756.18" y1="1935.51" x2="3790.46" y2="1949.00" stroke-linecap="round" style="stroke:#0000FF;stroke-width:8.64"/>
	<line x1="3790.46" y1="1949.00" x2="3824.74" y2="1962.49" stroke-linecap="round" style="stroke:#0000FF;stroke-width:8.64"/>
	<line x1="3824.74" y1="1962.49" x2="3859.02" y2="1975.85" stroke-linecap="round" style="stroke:#0000FF;stroke-width:8.64"/>
	<line x1="465.80" y1="2489.19" x2="425.82" y2="2489.19" style="stroke:#000000;stroke-width:5.76"/>
	<text x="405.78" y="2524.21" style="font-family:'Helvetica';font-size:99.99px;fill:#000000" text-anchor="end">0.5</text>
	<line x1="465.80" y1="2011.50" x2="425.82" y2="2011.50" style="stroke:#000000;stroke-width:5.76"/>
	<text x="405.78" y="2046.52" style="font-family:'Helvetica';font-size:99.99px;fill:#000000" text-anchor="end">0.6</text>
	<line x1="465.80" y1="1533.93" x2="425.82" y2="1533.93" style="stroke:#000000;stroke-width:5.76"/>
	<text x="405.78" y="1568.96" style="font-family:'Helvetica';font-size:99.99px;fill:#000000" text-anchor="end">0.7</text>
	<line x1="465.80" y1="1056.24" x2="425.82" y2="1056.24" style="stroke:#000000;stroke-width:5.76"/>
	<text x="405.78" y="1091.27" style="font-family:'Helvetica';font-size:99.99px;fill:#000000" text-anchor="end">0.8</text>
	<line x1="465.80" y1="578.55" x2="425.82" y2="578.55" style="stroke:#000000;stroke-width:5.76"/>
	<text x="405.78" y="613.58" style="font-family:'Helvetica';font-size:99.99px;fill:#000000" text-anchor="end">0.9</text>
	<line x1="465.80" y1="100.98" x2="425.82" y2="100.98" style="stroke:#000000;stroke-width:5.76"/>
	<text x="405.78" y="136.01" style="font-family:'Helvetica';font-size:99.99px;fill:#000000" text-anchor="end">1.0</text>
	<line x1="465.80" y1="2489.19" x2="465.80" y2="100.98" style="stroke:#000000;stroke-width:5.76"/>
	<text x="190.71" y="1294.96" style="font-family:'Helvetica';font-size:99.99px;fill:#000000" transform="rotate(-90 190.71,1294.96)" text-anchor="middle">S(t)</text>
	<line x1="465.80" y1="2489.19" x2="465.80" y2="2529.16" style="stroke:#000000;stroke-width:5.76"/>
	<text x="465.80" y="2619.14" style="font-family:'Helvetica';font-size:99.99px;fill:#000000" text-anchor="middle">0</text>
	<line x1="1144.44" y1="2489.19" x2="1144.44" y2="2529.16" style="stroke:#000000;stroke-width:5.76"/>
	<text x="1144.44" y="2619.14" style="font-family:'Helvetica';font-size:99.99px;fill:#000000" text-anchor="middle">2</text>
	<line x1="1823.09" y1="2489.19" x2="1823.09" y2="2529.16" style="stroke:#000000;stroke-width:5.76"/>
	<text x="1823.09" y="2619.14" style="font-family:'Helvetica';font-size:99.99px;fill:#000000" text-anchor="middle">4</text>
	<line x1="2501.73" y1="2489.19" x2="2501.73" y2="2529.16" style="stroke:#000000;stroke-width:5.76"/>
	<text x="2501.73" y="2619.14" style="font-family:'Helvetica';font-size:99.99px;fill:#000000" text-anchor="middle">6</text>
	<line x1="3180.38" y1="2489.19" x2="3180.38" y2="2529.16" style="stroke:#000000;stroke-width:5.76"/>
	<text x="3180.38" y="2619.14" style="font-family:'Helvetica';font-size:99.99px;fill:#000000" text-anchor="middle">8</text>
	<line x1="3859.02" y1="2489.19" x2="3859.02" y2="2529.16" style="stroke:#000000;stroke-width:5.76"/>
	<text x="3859.02" y="2619.14" style="font-family:'Helvetica';font-size:99.99px;fill:#000000" text-anchor="middle">10</text>
	<line x1="465.80" y1="2489.19" x2="3859.02" y2="2489.19" style="stroke:#000000;stroke-width:5.76"/>
	<text x="2162.41" y="2729.16" style="font-family:'Helvetica';font-size:99.99px;fill:#000000" text-anchor="middle">Years from surgery</text>
	<rect x="2453.84" y="178.58" width="199.98" height="99.99" style="fill:#FF3333;fill-opacity:0.25"/>
	<rect x="2458.16" y="182.90" width="191.34" height="91.35" style="fill:none;stroke:#FF0000;stroke-opacity:0.25;stroke-width:8.64"/>
	<rect x="2453.84" y="318.54" width="199.98" height="99.99" style="fill:#3333FF;fill-opacity:0.25"/>
	<rect x="2458.16" y="322.86" width="191.34" height="91.35" style="fill:none;stroke:#0000FF;stroke-opacity:0.25;stroke-width:8.64"/>
	<text x="2713.84" y="263.60" style="font-family:'Helvetica';font-size:99.99px;fill:#000000">No hormonal treatment</text>
	<text x="2713.84" y="403.57" style="font-family:'Helvetica';font-size:99.99px;fill:#000000">Hormonal treatment</text>
</svg>
