<?xml version="1.0" encoding="UTF-8" standalone="no"?>
<!-- This is a Stata 17.0 generated SVG file (http://www.stata.com) -->

<svg version="1.1" width="5.500in" height="4.000in" viewBox="0 0 3960 2880" xmlns="http://www.w3.org/2000/svg" xmlns:xlink="http://www.w3.org/1999/xlink">
	<desc>Stata Graph - h</desc>
	<rect x="0" y="0" width="3960" height="2880" style="fill:#FFFFFF;stroke:none"/>
	<rect x="0.00" y="0.00" width="3959.88" height="2880.00" style="fill:#FFFFFF"/>
	<rect x="2.88" y="2.88" width="3954.12" height="2874.24" style="fill:none;stroke:#FFFFFF;stroke-width:5.76"/>
	<line x1="307.40" y1="2489.19" x2="3859.02" y2="2489.19" style="stroke:#E8E8E8;stroke-width:5.76"/>
	<line x1="307.40" y1="1892.07" x2="3859.02" y2="1892.07" style="stroke:#E8E8E8;stroke-width:5.76"/>
	<line x1="307.40" y1="1294.96" x2="3859.02" y2="1294.96" style="stroke:#E8E8E8;stroke-width:5.76"/>
	<line x1="307.40" y1="697.85" x2="3859.02" y2="697.85" style="stroke:#E8E8E8;stroke-width:5.76"/>
	<line x1="307.40" y1="100.86" x2="3859.02" y2="100.86" style="stroke:#E8E8E8;stroke-width:5.76"/>
	<line x1="307.40" y1="2489.19" x2="307.40" y2="100.86" style="stroke:#E8E8E8;stroke-width:5.76"/>
	<line x1="1017.72" y1="2489.19" x2="1017.72" y2="100.86" style="stroke:#E8E8E8;stroke-width:5.76"/>
	<line x1="1728.05" y1="2489.19" x2="1728.05" y2="100.86" style="stroke:#E8E8E8;stroke-width:5.76"/>
	<line x1="2438.37" y1="2489.19" x2="2438.37" y2="100.86" style="stroke:#E8E8E8;stroke-width:5.76"/>
	<line x1="3148.70" y1="2489.19" x2="3148.70" y2="100.86" style="stroke:#E8E8E8;stroke-width:5.76"/>
	<line x1="3859.02" y1="2489.19" x2="3859.02" y2="100.86" style="stroke:#E8E8E8;stroke-width:5.76"/>
	<path d=" M342.91 354.68 L378.43 766.04 L413.94 1251.77 L449.46 1484.18 L484.98 1591.35 L520.49 1635.78 L556.01 1655.21 L591.53 1677.98 L627.04 1703.10 L662.56 1732.93 L698.07 1761.02 L733.59 1789.48 L769.11 1817.94 L804.62 1846.04 L840.14 1872.52 L875.66 1896.78 L911.17 1919.42 L946.69 1940.34 L982.20 1959.77 L1017.72 1965.71 L1053.24 1982.78 L1088.75 1998.75 L1124.27 2013.72 L1159.79 2027.83 L1195.30 2041.20 L1230.82 2053.82 L1266.33 2065.70 L1301.85 2076.96 L1337.37 2087.60 L1372.88 2087.23 L1408.40 2096.89 L1443.92 2106.04 L1479.43 2114.58 L1514.95 2122.50 L1550.46 2130.05 L1585.98 2137.11 L1621.50 2143.66 L1657.01 2149.85 L1692.53 2155.67 L1728.05 2145.03 L1763.56 2150.22 L1799.08 2155.17 L1834.59 2159.75 L1870.11 2164.21 L1905.63 2168.42 L1941.14 2172.38 L1976.66 2176.09 L2012.18 2179.68 L2047.69 2183.02 L2083.21 2165.69 L2118.72 2168.66 L2154.24 2171.63 L2189.76 2174.48 L2225.27 2177.08 L2260.79 2179.68 L2296.30 2182.03 L2331.82 2184.38 L2367.34 2186.61 L2402.85 2188.71 L2438.37 2189.21 L2473.89 2191.06 L2509.40 2193.04 L2544.92 2194.77 L2580.44 2196.51 L2615.95 2198.12 L2651.47 2199.72 L2686.98 2201.21 L2722.50 2202.70 L2758.02 2204.06 L2793.53 2193.04 L2829.05 2194.28 L2864.57 2195.64 L2900.08 2196.75 L2935.60 2197.99 L2971.11 2199.11 L3006.63 2200.22 L3042.15 2201.21 L3077.66 2202.20 L3113.18 2203.19 L3148.70 2183.76 L3184.21 2184.75 L3219.73 2185.62 L3255.24 2186.36 L3290.76 2187.23 L3326.28 2188.09 L3361.79 2188.83 L3397.31 2189.58 L3432.83 2190.32 L3468.34 2190.94 L3503.86 2164.83 L3539.37 2165.57 L3574.89 2166.19 L3610.41 2166.81 L3645.92 2167.43 L3681.44 2167.92 L3716.96 2168.54 L3752.47 2169.03 L3787.99 2169.65 L3823.50 2170.15 L3859.02 2146.14" stroke-linejoin="round" style="fill:none;stroke:#DC241F;stroke-width:8.64"/>
	<path d=" M342.91 546.50 L378.43 780.52 L413.94 1221.57 L449.46 1455.72 L484.98 1573.53 L520.49 1628.85 L556.01 1657.68 L591.53 1689.36 L627.04 1723.03 L662.56 1756.07 L698.07 1791.09 L733.59 1825.86 L769.11 1859.90 L804.62 1893.19 L840.14 1924.13 L875.66 1952.59 L911.17 1978.82 L946.69 2003.08 L982.20 2025.48 L1017.72 2036.99 L1053.24 2056.42 L1088.75 2074.49 L1124.27 2091.44 L1159.79 2107.28 L1195.30 2122.26 L1230.82 2136.12 L1266.33 2149.36 L1301.85 2161.73 L1337.37 2173.37 L1372.88 2178.56 L1408.40 2188.96 L1443.92 2198.86 L1479.43 2208.02 L1514.95 2216.56 L1550.46 2224.48 L1585.98 2232.02 L1621.50 2238.95 L1657.01 2245.51 L1692.53 2251.70 L1728.05 2247.62 L1763.56 2253.06 L1799.08 2258.26 L1834.59 2262.96 L1870.11 2267.54 L1905.63 2271.87 L1941.14 2275.96 L1976.66 2279.67 L2012.18 2283.38 L2047.69 2286.72 L2083.21 2274.10 L2118.72 2277.19 L2154.24 2280.17 L2189.76 2282.89 L2225.27 2285.49 L2260.79 2288.09 L2296.30 2290.44 L2331.82 2292.66 L2367.34 2294.89 L2402.85 2296.87 L2438.37 2300.21 L2473.89 2302.07 L2509.40 2303.80 L2544.92 2305.53 L2580.44 2307.14 L2615.95 2308.75 L2651.47 2310.24 L2686.98 2311.72 L2722.50 2313.08 L2758.02 2314.44 L2793.53 2303.93 L2829.05 2305.16 L2864.57 2306.28 L2900.08 2307.39 L2935.60 2308.50 L2971.11 2309.49 L3006.63 2310.48 L3042.15 2311.47 L3077.66 2312.34 L3113.18 2313.21 L3148.70 2297.61 L3184.21 2298.36 L3219.73 2299.22 L3255.24 2299.97 L3290.76 2300.58 L3326.28 2301.33 L3361.79 2302.07 L3397.31 2302.69 L3432.83 2303.31 L3468.34 2303.93 L3503.86 2285.12 L3539.37 2285.73 L3574.89 2286.23 L3610.41 2286.72 L3645.92 2287.34 L3681.44 2287.71 L3716.96 2288.21 L3752.47 2288.70 L3787.99 2289.08 L3823.50 2289.57 L3859.02 2274.72" stroke-linejoin="round" style="fill:none;stroke:#0019A8;stroke-width:8.64"/>
	<line x1="307.40" y1="2489.19" x2="267.42" y2="2489.19" style="stroke:#000000;stroke-width:5.76"/>
	<text x="247.50" y="2524.21" style="font-family:'Helvetica';font-size:99.99px;fill:#000000" text-anchor="end">0</text>
	<line x1="307.40" y1="1892.07" x2="267.42" y2="1892.07" style="stroke:#000000;stroke-width:5.76"/>
	<text x="247.50" y="1927.10" style="font-family:'Helvetica';font-size:99.99px;fill:#000000" text-anchor="end">.2</text>
	<line x1="307.40" y1="1294.96" x2="267.42" y2="1294.96" style="stroke:#000000;stroke-width:5.76"/>
	<text x="247.50" y="1329.99" style="font-family:'Helvetica';font-size:99.99px;fill:#000000" text-anchor="end">.4</text>
	<line x1="307.40" y1="697.85" x2="267.42" y2="697.85" style="stroke:#000000;stroke-width:5.76"/>
	<text x="247.50" y="732.88" style="font-family:'Helvetica';font-size:99.99px;fill:#000000" text-anchor="end">.6</text>
	<line x1="307.40" y1="100.86" x2="267.42" y2="100.86" style="stroke:#000000;stroke-width:5.76"/>
	<text x="247.50" y="135.89" style="font-family:'Helvetica';font-size:99.99px;fill:#000000" text-anchor="end">.8</text>
	<line x1="307.40" y1="2489.19" x2="307.40" y2="100.86" style="stroke:#000000;stroke-width:5.76"/>
	<line x1="307.40" y1="2489.19" x2="307.40" y2="2529.16" style="stroke:#000000;stroke-width:5.76"/>
	<text x="307.40" y="2619.14" style="font-family:'Helvetica';font-size:99.99px;fill:#000000" text-anchor="middle">0</text>
	<line x1="1017.72" y1="2489.19" x2="1017.72" y2="2529.16" style="stroke:#000000;stroke-width:5.76"/>
	<text x="1017.72" y="2619.14" style="font-family:'Helvetica';font-size:99.99px;fill:#000000" text-anchor="middle">2</text>
	<line x1="1728.05" y1="2489.19" x2="1728.05" y2="2529.16" style="stroke:#000000;stroke-width:5.76"/>
	<text x="1728.05" y="2619.14" style="font-family:'Helvetica';font-size:99.99px;fill:#000000" text-anchor="middle">4</text>
	<line x1="2438.37" y1="2489.19" x2="2438.37" y2="2529.16" style="stroke:#000000;stroke-width:5.76"/>
	<text x="2438.37" y="2619.14" style="font-family:'Helvetica';font-size:99.99px;fill:#000000" text-anchor="middle">6</text>
	<line x1="3148.70" y1="2489.19" x2="3148.70" y2="2529.16" style="stroke:#000000;stroke-width:5.76"/>
	<text x="3148.70" y="2619.14" style="font-family:'Helvetica';font-size:99.99px;fill:#000000" text-anchor="middle">8</text>
	<line x1="3859.02" y1="2489.19" x2="3859.02" y2="2529.16" style="stroke:#000000;stroke-width:5.76"/>
	<text x="3859.02" y="2619.14" style="font-family:'Helvetica';font-size:99.99px;fill:#000000" text-anchor="middle">10</text>
	<line x1="307.40" y1="2489.19" x2="3859.02" y2="2489.19" style="stroke:#000000;stroke-width:5.76"/>
	<text x="2083.21" y="2729.16" style="font-family:'Helvetica';font-size:99.99px;fill:#000000" text-anchor="middle">tt</text>
	<line x1="2890.92" y1="228.57" x2="3090.90" y2="228.57" style="stroke:#DC241F;stroke-width:8.64"/>
	<line x1="3436.79" y1="228.57" x2="3636.77" y2="228.57" style="stroke:#0019A8;stroke-width:8.64"/>
	<text x="3150.92" y="263.60" style="font-family:'Helvetica';font-size:99.99px;fill:#000000">hm</text>
	<text x="3696.78" y="263.60" style="font-family:'Helvetica';font-size:99.99px;fill:#000000">hf</text>
</svg>
