<?xml version="1.0" encoding="UTF-8" standalone="no"?>
<!-- This is a Stata 17.0 generated SVG file (http://www.stata.com) -->

<svg version="1.1" width="5.500in" height="4.000in" viewBox="0 0 3960 2880" xmlns="http://www.w3.org/2000/svg" xmlns:xlink="http://www.w3.org/1999/xlink">
	<desc>Stata Graph - hdiff</desc>
	<rect x="0" y="0" width="3960" height="2880" style="fill:#FFFFFF;stroke:none"/>
	<rect x="0.00" y="0.00" width="3959.88" height="2880.00" style="fill:#FFFFFF"/>
	<rect x="2.88" y="2.88" width="3954.12" height="2874.24" style="fill:none;stroke:#FFFFFF;stroke-width:5.76"/>
	<line x1="692.38" y1="2489.19" x2="3859.02" y2="2489.19" style="stroke:#E8E8E8;stroke-width:5.76"/>
	<line x1="692.38" y1="2011.50" x2="3859.02" y2="2011.50" style="stroke:#E8E8E8;stroke-width:5.76"/>
	<line x1="692.38" y1="1533.81" x2="3859.02" y2="1533.81" style="stroke:#E8E8E8;stroke-width:5.76"/>
	<line x1="692.38" y1="1056.12" x2="3859.02" y2="1056.12" style="stroke:#E8E8E8;stroke-width:5.76"/>
	<line x1="692.38" y1="578.43" x2="3859.02" y2="578.43" style="stroke:#E8E8E8;stroke-width:5.76"/>
	<line x1="692.38" y1="100.86" x2="3859.02" y2="100.86" style="stroke:#E8E8E8;stroke-width:5.76"/>
	<line x1="692.38" y1="2489.19" x2="692.38" y2="100.86" style="stroke:#E8E8E8;stroke-width:5.76"/>
	<line x1="1325.73" y1="2489.19" x2="1325.73" y2="100.86" style="stroke:#E8E8E8;stroke-width:5.76"/>
	<line x1="1959.09" y1="2489.19" x2="1959.09" y2="100.86" style="stroke:#E8E8E8;stroke-width:5.76"/>
	<line x1="2592.44" y1="2489.19" x2="2592.44" y2="100.86" style="stroke:#E8E8E8;stroke-width:5.76"/>
	<line x1="3225.79" y1="2489.19" x2="3225.79" y2="100.86" style="stroke:#E8E8E8;stroke-width:5.76"/>
	<line x1="3859.02" y1="2489.19" x2="3859.02" y2="100.86" style="stroke:#E8E8E8;stroke-width:5.76"/>
	<path d=" M724.06 1363.15 L755.74 1079.38 L787.42 1007.85 L819.10 1010.82 L850.66 1027.78 L882.34 1045.10 L914.02 1060.20 L945.70 1074.43 L977.38 1088.04 L1009.06 1093.37 L1040.74 1104.38 L1072.42 1114.40 L1104.10 1123.44 L1135.65 1131.61 L1167.33 1138.91 L1199.01 1145.47 L1230.69 1151.28 L1262.37 1156.60 L1294.05 1161.31 L1325.73 1170.34 L1357.41 1174.18 L1389.09 1177.52 L1420.65 1180.61 L1452.33 1183.33 L1484.01 1185.81 L1515.69 1188.04 L1547.37 1190.14 L1579.05 1191.87 L1610.73 1193.48 L1642.41 1202.15 L1674.09 1203.51 L1705.65 1204.62 L1737.33 1205.73 L1769.01 1206.60 L1800.69 1207.47 L1832.37 1208.21 L1864.05 1208.83 L1895.73 1209.32 L1927.41 1209.82 L1959.09 1220.46 L1990.64 1220.83 L2022.32 1221.08 L2054.00 1221.33 L2085.68 1221.57 L2117.36 1221.82 L2149.04 1221.95 L2180.72 1222.07 L2212.40 1222.19 L2244.08 1222.19 L2275.64 1229.74 L2307.32 1229.74 L2339.00 1229.74 L2370.68 1229.74 L2402.36 1229.74 L2434.04 1229.62 L2465.72 1229.62 L2497.40 1229.49 L2529.08 1229.49 L2560.64 1229.37 L2592.32 1233.83 L2624.00 1233.70 L2655.68 1233.58 L2687.36 1233.45 L2719.04 1233.33 L2750.72 1233.21 L2782.40 1233.08 L2814.08 1232.96 L2845.63 1232.84 L2877.31 1232.71 L2908.99 1233.58 L2940.67 1233.45 L2972.35 1233.33 L3004.03 1233.21 L3035.71 1233.08 L3067.39 1232.84 L3099.07 1232.71 L3130.63 1232.59 L3162.31 1232.46 L3193.99 1232.22 L3225.67 1238.28 L3257.35 1238.16 L3289.03 1238.03 L3320.71 1237.79 L3352.39 1237.66 L3384.07 1237.54 L3415.75 1237.41 L3447.30 1237.17 L3478.98 1237.04 L3510.66 1236.92 L3542.34 1248.68 L3574.02 1248.55 L3605.70 1248.43 L3637.38 1248.18 L3669.06 1248.06 L3700.74 1247.93 L3732.30 1247.81 L3763.98 1247.69 L3795.66 1247.44 L3827.34 1247.32 L3859.02 1262.04" stroke-linejoin="round" style="fill:none;stroke:#DC241F;stroke-width:8.64"/>
	<path d=" M724.06 2422.48 L755.74 1518.58 L787.42 1220.96 L819.10 1159.08 L850.66 1146.83 L882.34 1148.68 L914.02 1154.62 L945.70 1160.56 L977.38 1166.63 L1009.06 1165.51 L1040.74 1171.08 L1072.42 1176.53 L1104.10 1181.60 L1135.65 1186.55 L1167.33 1191.13 L1199.01 1195.59 L1230.69 1199.67 L1262.37 1203.38 L1294.05 1206.97 L1325.73 1216.62 L1357.41 1219.47 L1389.09 1222.19 L1420.65 1224.54 L1452.33 1226.77 L1484.01 1228.63 L1515.69 1230.48 L1547.37 1231.97 L1579.05 1233.45 L1610.73 1234.69 L1642.41 1244.59 L1674.09 1245.58 L1705.65 1246.45 L1737.33 1247.19 L1769.01 1247.93 L1800.69 1248.55 L1832.37 1249.17 L1864.05 1249.67 L1895.73 1250.04 L1927.41 1250.41 L1959.09 1263.77 L1990.64 1264.15 L2022.32 1264.39 L2054.00 1264.64 L2085.68 1264.76 L2117.36 1265.01 L2149.04 1265.14 L2180.72 1265.26 L2212.40 1265.38 L2244.08 1265.38 L2275.64 1277.26 L2307.32 1277.39 L2339.00 1277.39 L2370.68 1277.39 L2402.36 1277.51 L2434.04 1277.51 L2465.72 1277.51 L2497.40 1277.51 L2529.08 1277.39 L2560.64 1277.39 L2592.32 1282.21 L2624.00 1282.09 L2655.68 1282.09 L2687.36 1281.97 L2719.04 1281.84 L2750.72 1281.84 L2782.40 1281.72 L2814.08 1281.60 L2845.63 1281.47 L2877.31 1281.47 L2908.99 1285.56 L2940.67 1285.56 L2972.35 1285.43 L3004.03 1285.31 L3035.71 1285.18 L3067.39 1285.06 L3099.07 1284.94 L3130.63 1284.81 L3162.31 1284.69 L3193.99 1284.57 L3225.67 1296.07 L3257.35 1295.95 L3289.03 1295.83 L3320.71 1295.70 L3352.39 1295.58 L3384.07 1295.46 L3415.75 1295.33 L3447.30 1295.08 L3478.98 1294.96 L3510.66 1294.84 L3542.34 1314.27 L3574.02 1314.14 L3605.70 1314.02 L3637.38 1313.89 L3669.06 1313.77 L3700.74 1313.52 L3732.30 1313.40 L3763.98 1313.28 L3795.66 1313.15 L3827.34 1312.90 L3859.02 1335.06" stroke-linejoin="round" style="fill:none;stroke:#0019A8;stroke-width:8.64"/>
	<path d=" M724.06 303.94 L755.74 640.06 L787.42 794.75 L819.10 862.56 L850.66 908.85 L882.34 941.40 L914.02 965.90 L945.70 988.42 L977.38 1009.34 L1009.06 1021.34 L1040.74 1037.68 L1072.42 1052.28 L1104.10 1065.15 L1135.65 1076.53 L1167.33 1086.56 L1199.01 1095.35 L1230.69 1103.02 L1262.37 1109.70 L1294.05 1115.64 L1325.73 1124.06 L1357.41 1128.76 L1389.09 1132.97 L1420.65 1136.68 L1452.33 1140.02 L1484.01 1142.99 L1515.69 1145.71 L1547.37 1148.19 L1579.05 1150.42 L1610.73 1152.40 L1642.41 1159.82 L1674.09 1161.43 L1705.65 1162.92 L1737.33 1164.15 L1769.01 1165.27 L1800.69 1166.26 L1832.37 1167.12 L1864.05 1167.99 L1895.73 1168.61 L1927.41 1169.23 L1959.09 1177.15 L1990.64 1177.52 L2022.32 1177.89 L2054.00 1178.14 L2085.68 1178.38 L2117.36 1178.63 L2149.04 1178.76 L2180.72 1178.88 L2212.40 1179.00 L2244.08 1179.13 L2275.64 1182.22 L2307.32 1182.22 L2339.00 1182.10 L2370.68 1182.10 L2402.36 1181.97 L2434.04 1181.85 L2465.72 1181.73 L2497.40 1181.60 L2529.08 1181.48 L2560.64 1181.35 L2592.32 1185.44 L2624.00 1185.31 L2655.68 1185.19 L2687.36 1184.94 L2719.04 1184.82 L2750.72 1184.70 L2782.40 1184.45 L2814.08 1184.32 L2845.63 1184.08 L2877.31 1183.95 L2908.99 1181.60 L2940.67 1181.48 L2972.35 1181.23 L3004.03 1181.11 L3035.71 1180.86 L3067.39 1180.74 L3099.07 1180.49 L3130.63 1180.36 L3162.31 1180.24 L3193.99 1179.99 L3225.67 1180.49 L3257.35 1180.36 L3289.03 1180.12 L3320.71 1179.99 L3352.39 1179.75 L3384.07 1179.62 L3415.75 1179.50 L3447.30 1179.25 L3478.98 1179.13 L3510.66 1179.00 L3542.34 1183.09 L3574.02 1182.84 L3605.70 1182.72 L3637.38 1182.59 L3669.06 1182.47 L3700.74 1182.34 L3732.30 1182.10 L3763.98 1181.97 L3795.66 1181.85 L3827.34 1181.73 L3859.02 1189.03" stroke-linejoin="round" style="fill:none;stroke:#007229;stroke-width:8.64"/>
	<line x1="692.38" y1="2489.19" x2="652.41" y2="2489.19" style="stroke:#000000;stroke-width:5.76"/>
	<text x="632.49" y="2524.21" style="font-family:'Helvetica';font-size:99.99px;fill:#000000" text-anchor="end">-.3</text>
	<line x1="692.38" y1="2011.50" x2="652.41" y2="2011.50" style="stroke:#000000;stroke-width:5.76"/>
	<text x="632.49" y="2046.52" style="font-family:'Helvetica';font-size:99.99px;fill:#000000" text-anchor="end">-.2</text>
	<line x1="692.38" y1="1533.81" x2="652.41" y2="1533.81" style="stroke:#000000;stroke-width:5.76"/>
	<text x="632.49" y="1568.83" style="font-family:'Helvetica';font-size:99.99px;fill:#000000" text-anchor="end">-.1</text>
	<line x1="692.38" y1="1056.12" x2="652.41" y2="1056.12" style="stroke:#000000;stroke-width:5.76"/>
	<text x="632.49" y="1091.14" style="font-family:'Helvetica';font-size:99.99px;fill:#000000" text-anchor="end">0</text>
	<line x1="692.38" y1="578.43" x2="652.41" y2="578.43" style="stroke:#000000;stroke-width:5.76"/>
	<text x="632.49" y="613.45" style="font-family:'Helvetica';font-size:99.99px;fill:#000000" text-anchor="end">.1</text>
	<line x1="692.38" y1="100.86" x2="652.41" y2="100.86" style="stroke:#000000;stroke-width:5.76"/>
	<text x="632.49" y="135.89" style="font-family:'Helvetica';font-size:99.99px;fill:#000000" text-anchor="end">.2</text>
	<line x1="692.38" y1="2489.19" x2="692.38" y2="100.86" style="stroke:#000000;stroke-width:5.76"/>
	<line x1="692.38" y1="2489.19" x2="692.38" y2="2529.16" style="stroke:#000000;stroke-width:5.76"/>
	<text x="692.38" y="2619.14" style="font-family:'Helvetica';font-size:99.99px;fill:#000000" text-anchor="middle">0</text>
	<line x1="1325.73" y1="2489.19" x2="1325.73" y2="2529.16" style="stroke:#000000;stroke-width:5.76"/>
	<text x="1325.73" y="2619.14" style="font-family:'Helvetica';font-size:99.99px;fill:#000000" text-anchor="middle">2</text>
	<line x1="1959.09" y1="2489.19" x2="1959.09" y2="2529.16" style="stroke:#000000;stroke-width:5.76"/>
	<text x="1959.09" y="2619.14" style="font-family:'Helvetica';font-size:99.99px;fill:#000000" text-anchor="middle">4</text>
	<line x1="2592.44" y1="2489.19" x2="2592.44" y2="2529.16" style="stroke:#000000;stroke-width:5.76"/>
	<text x="2592.44" y="2619.14" style="font-family:'Helvetica';font-size:99.99px;fill:#000000" text-anchor="middle">6</text>
	<line x1="3225.79" y1="2489.19" x2="3225.79" y2="2529.16" style="stroke:#000000;stroke-width:5.76"/>
	<text x="3225.79" y="2619.14" style="font-family:'Helvetica';font-size:99.99px;fill:#000000" text-anchor="middle">8</text>
	<line x1="3859.02" y1="2489.19" x2="3859.02" y2="2529.16" style="stroke:#000000;stroke-width:5.76"/>
	<text x="3859.02" y="2619.14" style="font-family:'Helvetica';font-size:99.99px;fill:#000000" text-anchor="middle">10</text>
	<line x1="692.38" y1="2489.19" x2="3859.02" y2="2489.19" style="stroke:#000000;stroke-width:5.76"/>
	<text x="2275.76" y="2729.16" style="font-family:'Helvetica';font-size:99.99px;fill:#000000" text-anchor="middle">tt</text>
	<line x1="2398.03" y1="228.57" x2="2598.01" y2="228.57" style="stroke:#DC241F;stroke-width:8.64"/>
	<line x1="3177.16" y1="228.57" x2="3377.14" y2="228.57" style="stroke:#0019A8;stroke-width:8.64"/>
	<line x1="2398.03" y1="368.54" x2="2598.01" y2="368.54" style="stroke:#007229;stroke-width:8.64"/>
	<text x="2658.03" y="263.60" style="font-family:'Helvetica';font-size:99.99px;fill:#000000">hdiff</text>
	<text x="3437.16" y="263.60" style="font-family:'Helvetica';font-size:99.99px;fill:#000000">hdiff_lci</text>
	<text x="2658.03" y="403.57" style="font-family:'Helvetica';font-size:99.99px;fill:#000000">hdiff_uci</text>
</svg>
