<?xml version="1.0" encoding="UTF-8" standalone="no"?>
<!-- This is a Stata 17.0 generated SVG file (http://www.stata.com) -->

<svg version="1.1" width="5.500in" height="4.000in" viewBox="0 0 3960 2880" xmlns="http://www.w3.org/2000/svg" xmlns:xlink="http://www.w3.org/1999/xlink">
	<desc>Stata Graph - Marginal_diff</desc>
	<rect x="0" y="0" width="3960" height="2880" style="fill:#FFFFFF;stroke:none"/>
	<rect x="0.00" y="0.00" width="3959.88" height="2880.00" style="fill:#FFFFFF"/>
	<rect x="2.88" y="2.88" width="3954.12" height="2874.24" style="fill:none;stroke:#FFFFFF;stroke-width:5.76"/>
	<line x1="465.80" y1="2489.19" x2="3859.02" y2="2489.19" style="stroke:#E8E8E8;stroke-width:5.76"/>
	<line x1="465.80" y1="1892.07" x2="3859.02" y2="1892.07" style="stroke:#E8E8E8;stroke-width:5.76"/>
	<line x1="465.80" y1="1294.96" x2="3859.02" y2="1294.96" style="stroke:#E8E8E8;stroke-width:5.76"/>
	<line x1="465.80" y1="697.85" x2="3859.02" y2="697.85" style="stroke:#E8E8E8;stroke-width:5.76"/>
	<line x1="465.80" y1="100.86" x2="3859.02" y2="100.86" style="stroke:#E8E8E8;stroke-width:5.76"/>
	<line x1="465.80" y1="2489.19" x2="465.80" y2="100.86" style="stroke:#E8E8E8;stroke-width:5.76"/>
	<line x1="1144.44" y1="2489.19" x2="1144.44" y2="100.86" style="stroke:#E8E8E8;stroke-width:5.76"/>
	<line x1="1823.09" y1="2489.19" x2="1823.09" y2="100.86" style="stroke:#E8E8E8;stroke-width:5.76"/>
	<line x1="2501.73" y1="2489.19" x2="2501.73" y2="100.86" style="stroke:#E8E8E8;stroke-width:5.76"/>
	<line x1="3180.38" y1="2489.19" x2="3180.38" y2="100.86" style="stroke:#E8E8E8;stroke-width:5.76"/>
	<line x1="3859.02" y1="2489.19" x2="3859.02" y2="100.86" style="stroke:#E8E8E8;stroke-width:5.76"/>
	<defs>
		<path id="path_wLgNYwdq" d="M465.80 2489.19 L465.80 2489.19 L499.70 2218.66 L533.61 2142.30 L567.52 2177.94 L601.55 2231.78 L635.46 2279.79 L669.36 2317.41 L703.27 2344.89 L737.30 2363.08 L771.21 2372.86 L805.12 2375.46 L839.03 2372.11 L872.93 2364.07 L906.96 2352.19 L940.87 2337.09 L974.78 2319.77 L1008.69 2300.34 L1042.59 2279.42 L1076.63 2257.39 L1110.53 2234.62 L1144.44 2210.99 L1178.35 2187.10 L1212.26 2162.85 L1246.29 2138.47 L1280.19 2113.96 L1314.10 2089.58 L1348.01 2065.33 L1381.92 2041.20 L1415.95 2017.31 L1449.86 1993.80 L1483.76 1970.53 L1517.67 1947.51 L1551.58 1924.99 L1585.61 1902.72 L1619.52 1880.94 L1653.42 1859.53 L1687.33 1838.49 L1721.24 1817.94 L1755.27 1797.77 L1789.18 1778.10 L1823.09 1758.79 L1856.99 1739.98 L1891.02 1721.54 L1924.93 1703.60 L1958.84 1685.90 L1992.75 1668.82 L2026.65 1651.99 L2060.69 1635.65 L2094.59 1619.81 L2128.50 1604.22 L2162.41 1589.00 L2196.32 1574.27 L2230.35 1559.92 L2264.25 1545.81 L2298.16 1532.20 L2332.07 1518.83 L2365.98 1505.84 L2400.01 1493.21 L2433.92 1480.96 L2467.82 1468.96 L2501.73 1457.33 L2535.64 1446.06 L2569.67 1435.05 L2603.58 1424.28 L2637.48 1413.89 L2671.39 1403.74 L2705.30 1393.84 L2739.33 1384.19 L2773.24 1374.91 L2807.15 1365.87 L2841.05 1357.08 L2875.08 1348.42 L2908.99 1340.13 L2942.90 1332.09 L2976.81 1324.17 L3010.71 1316.62 L3044.75 1309.19 L3078.65 1302.01 L3112.56 1295.08 L3146.47 1288.28 L3180.38 1281.72 L3214.41 1275.41 L3248.31 1269.22 L3282.22 1263.28 L3316.13 1257.46 L3350.04 1251.77 L3384.07 1246.33 L3417.98 1241.13 L3451.88 1236.05 L3485.79 1231.10 L3519.70 1226.28 L3553.73 1221.70 L3587.64 1217.24 L3621.54 1212.91 L3655.45 1208.70 L3689.36 1204.74 L3723.39 1200.78 L3757.30 1197.07 L3791.21 1193.48 L3825.11 1190.02 L3859.02 1186.68 L3859.02 308.02 L3825.11 312.11 L3791.21 316.44 L3757.30 320.89 L3723.39 325.60 L3689.36 330.30 L3655.45 335.25 L3621.54 340.32 L3587.64 345.52 L3553.73 350.84 L3519.70 356.41 L3485.79 362.10 L3451.88 367.92 L3417.98 373.98 L3384.07 380.17 L3350.04 386.48 L3316.13 393.17 L3282.22 399.85 L3248.31 406.78 L3214.41 413.96 L3180.38 421.26 L3146.47 428.81 L3112.56 436.48 L3078.65 444.40 L3044.75 452.57 L3010.71 460.86 L2976.81 469.40 L2942.90 478.18 L2908.99 487.22 L2875.08 496.50 L2841.05 505.91 L2807.15 515.68 L2773.24 525.58 L2739.33 535.73 L2705.30 546.25 L2671.39 556.89 L2637.48 567.78 L2603.58 579.04 L2569.67 590.55 L2535.64 602.31 L2501.73 614.31 L2467.82 626.57 L2433.92 639.06 L2400.01 651.94 L2365.98 665.05 L2332.07 678.54 L2298.16 692.28 L2264.25 706.26 L2230.35 720.62 L2196.32 735.22 L2162.41 750.20 L2128.50 765.42 L2094.59 781.01 L2060.69 796.85 L2026.65 813.06 L1992.75 829.52 L1958.84 846.48 L1924.93 863.55 L1891.02 881.13 L1856.99 898.95 L1823.09 917.02 L1789.18 935.46 L1755.27 954.27 L1721.24 973.45 L1687.33 992.88 L1653.42 1012.55 L1619.52 1032.60 L1585.61 1052.90 L1551.58 1073.56 L1517.67 1094.48 L1483.76 1115.64 L1449.86 1137.05 L1415.95 1158.71 L1381.92 1180.61 L1348.01 1202.64 L1314.10 1224.92 L1280.19 1247.32 L1246.29 1269.96 L1212.26 1292.49 L1178.35 1315.26 L1144.44 1337.90 L1110.53 1360.55 L1076.63 1383.07 L1042.59 1405.35 L1008.69 1427.38 L974.78 1448.91 L940.87 1470.07 L906.96 1490.37 L872.93 1509.80 L839.03 1527.87 L805.12 1543.95 L771.21 1557.19 L737.30 1566.48 L703.27 1570.44 L669.36 1567.22 L635.46 1554.60 L601.55 1533.81 L567.52 1514.75 L533.61 1546.43 L499.70 1808.54 L465.80 2489.19 L465.80 2489.19 Z" stroke-linejoin="round"/>
	</defs>
	<defs>
		<clipPath id="clipPath_gKbPtsDP">
			<use xlink:href="#path_wLgNYwdq"/>
		</clipPath>
	</defs>
	<use xlink:href="#path_wLgNYwdq" style="stroke:none;fill:#FF3333;fill-opacity:0.30"/>
	<use xlink:href="#path_wLgNYwdq" style="fill:none;stroke:#FF0000;stroke-opacity:0.30;stroke-width:17.28" clip-path="url(#clipPath_gKbPtsDP)"/>
	<path d=" M465.67 2489.31 L499.70 2013.60 L533.61 1844.43 L567.52 1846.41 L601.42 1882.79 L635.33 1917.19 L669.36 1942.44 L703.27 1957.79 L737.18 1964.84 L771.09 1965.09 L804.99 1959.77 L839.03 1950.11 L872.93 1937.00 L906.84 1921.40 L940.75 1903.71 L974.66 1884.40 L1008.69 1863.86 L1042.59 1842.45 L1076.50 1820.30 L1110.41 1797.65 L1144.32 1774.51 L1178.35 1751.24 L1212.26 1727.73 L1246.16 1704.21 L1280.07 1680.70 L1314.10 1657.31 L1348.01 1634.05 L1381.92 1611.03 L1415.82 1588.13 L1449.73 1565.49 L1483.76 1543.09 L1517.67 1521.06 L1551.58 1499.28 L1585.49 1477.87 L1619.39 1456.83 L1653.42 1436.16 L1687.33 1415.74 L1721.24 1395.70 L1755.15 1376.14 L1789.05 1356.84 L1823.09 1338.03 L1856.99 1319.46 L1890.90 1301.40 L1924.81 1283.58 L1958.72 1266.25 L1992.75 1249.30 L2026.65 1232.59 L2060.56 1216.38 L2094.47 1200.41 L2128.38 1184.82 L2162.41 1169.72 L2196.32 1154.87 L2230.22 1140.27 L2264.13 1126.16 L2298.16 1112.30 L2332.07 1098.81 L2365.98 1085.57 L2399.88 1072.70 L2433.79 1060.08 L2467.82 1047.82 L2501.73 1035.82 L2535.64 1024.19 L2569.55 1012.80 L2603.45 1001.66 L2637.48 990.90 L2671.39 980.38 L2705.30 970.11 L2739.21 960.08 L2773.11 950.31 L2807.15 940.78 L2841.05 931.50 L2874.96 922.59 L2908.87 913.80 L2942.78 905.26 L2976.81 896.84 L3010.71 888.80 L3044.62 880.88 L3078.53 873.33 L3112.44 865.78 L3146.47 858.60 L3180.38 851.55 L3214.28 844.74 L3248.19 838.06 L3282.10 831.63 L3316.13 825.31 L3350.04 819.25 L3383.94 813.31 L3417.85 807.62 L3451.88 802.05 L3485.79 796.60 L3519.70 791.41 L3553.61 786.33 L3587.51 781.38 L3621.54 776.68 L3655.45 772.10 L3689.36 767.52 L3723.27 763.31 L3757.17 759.11 L3791.21 755.02 L3825.11 751.19 L3859.02 747.35" stroke-linejoin="round" style="fill:none;stroke:#FF0000;stroke-width:8.64"/>
	<line x1="465.80" y1="2489.19" x2="425.82" y2="2489.19" style="stroke:#000000;stroke-width:5.76"/>
	<text x="405.78" y="2524.21" style="font-family:'Helvetica';font-size:99.99px;fill:#000000" text-anchor="end">0</text>
	<line x1="465.80" y1="1892.07" x2="425.82" y2="1892.07" style="stroke:#000000;stroke-width:5.76"/>
	<text x="405.78" y="1927.10" style="font-family:'Helvetica';font-size:99.99px;fill:#000000" text-anchor="end">.02</text>
	<line x1="465.80" y1="1294.96" x2="425.82" y2="1294.96" style="stroke:#000000;stroke-width:5.76"/>
	<text x="405.78" y="1329.99" style="font-family:'Helvetica';font-size:99.99px;fill:#000000" text-anchor="end">.04</text>
	<line x1="465.80" y1="697.85" x2="425.82" y2="697.85" style="stroke:#000000;stroke-width:5.76"/>
	<text x="405.78" y="732.88" style="font-family:'Helvetica';font-size:99.99px;fill:#000000" text-anchor="end">.06</text>
	<line x1="465.80" y1="100.86" x2="425.82" y2="100.86" style="stroke:#000000;stroke-width:5.76"/>
	<text x="405.78" y="135.89" style="font-family:'Helvetica';font-size:99.99px;fill:#000000" text-anchor="end">.08</text>
	<line x1="465.80" y1="2489.19" x2="465.80" y2="100.86" style="stroke:#000000;stroke-width:5.76"/>
	<text x="190.71" y="1294.96" style="font-family:'Helvetica';font-size:99.99px;fill:#000000" transform="rotate(-90 190.71,1294.96)" text-anchor="middle">Difference in marginal survival</text>
	<line x1="465.80" y1="2489.19" x2="465.80" y2="2529.16" style="stroke:#000000;stroke-width:5.76"/>
	<text x="465.80" y="2619.14" style="font-family:'Helvetica';font-size:99.99px;fill:#000000" text-anchor="middle">0</text>
	<line x1="1144.44" y1="2489.19" x2="1144.44" y2="2529.16" style="stroke:#000000;stroke-width:5.76"/>
	<text x="1144.44" y="2619.14" style="font-family:'Helvetica';font-size:99.99px;fill:#000000" text-anchor="middle">2</text>
	<line x1="1823.09" y1="2489.19" x2="1823.09" y2="2529.16" style="stroke:#000000;stroke-width:5.76"/>
	<text x="1823.09" y="2619.14" style="font-family:'Helvetica';font-size:99.99px;fill:#000000" text-anchor="middle">4</text>
	<line x1="2501.73" y1="2489.19" x2="2501.73" y2="2529.16" style="stroke:#000000;stroke-width:5.76"/>
	<text x="2501.73" y="2619.14" style="font-family:'Helvetica';font-size:99.99px;fill:#000000" text-anchor="middle">6</text>
	<line x1="3180.38" y1="2489.19" x2="3180.38" y2="2529.16" style="stroke:#000000;stroke-width:5.76"/>
	<text x="3180.38" y="2619.14" style="font-family:'Helvetica';font-size:99.99px;fill:#000000" text-anchor="middle">8</text>
	<line x1="3859.02" y1="2489.19" x2="3859.02" y2="2529.16" style="stroke:#000000;stroke-width:5.76"/>
	<text x="3859.02" y="2619.14" style="font-family:'Helvetica';font-size:99.99px;fill:#000000" text-anchor="middle">10</text>
	<line x1="465.80" y1="2489.19" x2="3859.02" y2="2489.19" style="stroke:#000000;stroke-width:5.76"/>
	<text x="2162.41" y="2729.16" style="font-family:'Helvetica';font-size:99.99px;fill:#000000" text-anchor="middle">Time since diagnosis</text>
</svg>
