<?xml version="1.0" encoding="UTF-8" standalone="no"?>
<!-- This is a Stata 17.0 generated SVG file (http://www.stata.com) -->

<svg version="1.1" width="700px" height="509px" viewBox="0 0 3960 2880" xmlns="http://www.w3.org/2000/svg" xmlns:xlink="http://www.w3.org/1999/xlink">
	<desc>Stata Graph - Graph</desc>
	<rect x="0" y="0" width="3960" height="2880" style="fill:#FFFFFF;stroke:none"/>
	<rect x="0.00" y="0.00" width="3959.88" height="2880.00" style="fill:#FFFFFF"/>
	<rect x="2.88" y="2.88" width="3954.12" height="2874.24" style="fill:none;stroke:#FFFFFF;stroke-width:5.76"/>
	<line x1="455.28" y1="2233.63" x2="3859.02" y2="2233.63" style="stroke:#E8E8E8;stroke-width:5.76"/>
	<line x1="455.28" y1="1807.05" x2="3859.02" y2="1807.05" style="stroke:#E8E8E8;stroke-width:5.76"/>
	<line x1="455.28" y1="1380.47" x2="3859.02" y2="1380.47" style="stroke:#E8E8E8;stroke-width:5.76"/>
	<line x1="455.28" y1="953.89" x2="3859.02" y2="953.89" style="stroke:#E8E8E8;stroke-width:5.76"/>
	<line x1="455.28" y1="527.44" x2="3859.02" y2="527.44" style="stroke:#E8E8E8;stroke-width:5.76"/>
	<line x1="455.28" y1="100.86" x2="3859.02" y2="100.86" style="stroke:#E8E8E8;stroke-width:5.76"/>
	<line x1="455.28" y1="2233.63" x2="455.28" y2="100.86" style="stroke:#E8E8E8;stroke-width:5.76"/>
	<line x1="1136.03" y1="2233.63" x2="1136.03" y2="100.86" style="stroke:#E8E8E8;stroke-width:5.76"/>
	<line x1="1816.77" y1="2233.63" x2="1816.77" y2="100.86" style="stroke:#E8E8E8;stroke-width:5.76"/>
	<line x1="2497.52" y1="2233.63" x2="2497.52" y2="100.86" style="stroke:#E8E8E8;stroke-width:5.76"/>
	<line x1="3178.27" y1="2233.63" x2="3178.27" y2="100.86" style="stroke:#E8E8E8;stroke-width:5.76"/>
	<line x1="3859.02" y1="2233.63" x2="3859.02" y2="100.86" style="stroke:#E8E8E8;stroke-width:5.76"/>
	<defs>
		<path id="path_OfIYvicd" d="M455.15 100.86 L455.15 100.86 L523.22 100.86 L591.28 100.86 L659.46 100.86 L727.53 100.86 L795.59 100.86 L863.65 100.86 L931.71 100.86 L999.78 100.86 L1067.84 100.86 L1135.90 100.86 L1204.09 100.86 L1272.15 100.86 L1340.21 100.86 L1408.28 100.86 L1476.34 100.86 L1544.40 100.86 L1612.46 100.86 L1680.53 100.86 L1748.59 100.86 L1816.77 100.86 L1884.84 100.86 L1952.90 100.86 L2020.96 100.86 L2089.02 100.86 L2157.09 100.86 L2225.15 100.86 L2293.21 100.86 L2361.27 100.86 L2429.46 100.86 L2497.52 100.86 L2565.59 100.86 L2633.65 100.86 L2701.71 100.86 L2769.77 100.86 L2837.84 100.86 L2905.90 100.86 L2973.96 100.86 L3042.15 100.86 L3110.21 100.86 L3178.27 100.86 L3246.33 100.86 L3314.40 100.86 L3382.46 100.86 L3450.52 100.86 L3518.58 100.86 L3586.77 100.86 L3654.83 100.86 L3722.89 100.86 L3790.96 100.86 L3859.02 100.86 L3859.02 2233.76 L455.15 2233.76 L455.15 100.86 Z" stroke-linejoin="round"/>
	</defs>
	<defs>
		<clipPath id="clipPath_EQKTtMPu">
			<use xlink:href="#path_OfIYvicd"/>
		</clipPath>
	</defs>
	<use xlink:href="#path_OfIYvicd" style="stroke:none;fill:#D7E6C7"/>
	<use xlink:href="#path_OfIYvicd" style="fill:none;stroke:#78AC44;stroke-width:17.28" clip-path="url(#clipPath_EQKTtMPu)"/>
	<defs>
		<path id="path_LjjJLJEV" d="M455.15 2233.76 L455.15 2233.76 L523.22 2120.15 L591.28 2035.63 L659.46 1973.87 L727.53 1924.99 L795.59 1884.15 L863.65 1848.64 L931.71 1816.95 L999.78 1787.75 L1067.84 1760.52 L1135.90 1734.91 L1204.09 1710.40 L1272.15 1686.89 L1340.21 1664.37 L1408.28 1642.71 L1476.34 1621.79 L1544.40 1601.75 L1612.46 1582.32 L1680.53 1563.63 L1748.59 1545.44 L1816.77 1527.74 L1884.84 1510.54 L1952.90 1493.71 L2020.96 1477.25 L2089.02 1461.16 L2157.09 1445.45 L2225.15 1430.10 L2293.21 1415.13 L2361.27 1400.65 L2429.46 1386.41 L2497.52 1372.55 L2565.59 1359.06 L2633.65 1345.95 L2701.71 1333.20 L2769.77 1320.83 L2837.84 1308.70 L2905.90 1296.94 L2973.96 1285.43 L3042.15 1274.29 L3110.21 1263.40 L3178.27 1252.64 L3246.33 1242.12 L3314.40 1231.72 L3382.46 1221.57 L3450.52 1211.43 L3518.58 1201.40 L3586.77 1191.50 L3654.83 1181.85 L3722.89 1172.20 L3790.96 1162.79 L3859.02 1153.51 L3859.02 2233.76 L455.15 2233.76 L455.15 2233.76 Z" stroke-linejoin="round"/>
	</defs>
	<defs>
		<clipPath id="clipPath_YjJoPddr">
			<use xlink:href="#path_LjjJLJEV"/>
		</clipPath>
	</defs>
	<use xlink:href="#path_LjjJLJEV" style="stroke:none;fill:#B3DEF3"/>
	<use xlink:href="#path_LjjJLJEV" style="fill:none;stroke:#0390D6;stroke-width:17.28" clip-path="url(#clipPath_YjJoPddr)"/>
	<defs>
		<path id="path_epmpCIVb" d="M455.15 2233.76 L455.15 2233.76 L523.22 2226.21 L591.28 2219.40 L659.46 2213.09 L727.53 2207.03 L795.59 2201.21 L863.65 2195.52 L931.71 2190.07 L999.78 2184.75 L1067.84 2179.55 L1135.90 2174.48 L1204.09 2169.28 L1272.15 2163.96 L1340.21 2158.76 L1408.28 2153.56 L1476.34 2148.37 L1544.40 2143.42 L1612.46 2138.59 L1680.53 2133.76 L1748.59 2129.06 L1816.77 2124.48 L1884.84 2119.90 L1952.90 2115.20 L2020.96 2110.62 L2089.02 2105.92 L2157.09 2101.09 L2225.15 2096.39 L2293.21 2091.69 L2361.27 2086.86 L2429.46 2082.16 L2497.52 2077.33 L2565.59 2072.63 L2633.65 2067.93 L2701.71 2063.35 L2769.77 2058.77 L2837.84 2054.19 L2905.90 2049.86 L2973.96 2045.53 L3042.15 2041.32 L3110.21 2037.11 L3178.27 2033.03 L3246.33 2028.82 L3314.40 2024.61 L3382.46 2020.53 L3450.52 2016.32 L3518.58 2012.11 L3586.77 2007.78 L3654.83 2003.58 L3722.89 1999.37 L3790.96 1995.28 L3859.02 1991.20 L3859.02 2233.76 L455.15 2233.76 L455.15 2233.76 Z" stroke-linejoin="round"/>
	</defs>
	<defs>
		<clipPath id="clipPath_WPCMxFPL">
			<use xlink:href="#path_epmpCIVb"/>
		</clipPath>
	</defs>
	<use xlink:href="#path_epmpCIVb" style="stroke:none;fill:#FFC1B6"/>
	<use xlink:href="#path_epmpCIVb" style="fill:none;stroke:#FE300B;stroke-width:17.28" clip-path="url(#clipPath_WPCMxFPL)"/>
	<line x1="455.28" y1="2233.63" x2="455.28" y2="100.86" style="stroke:#000000;stroke-width:5.76"/>
	<line x1="455.28" y1="2233.63" x2="415.31" y2="2233.63" style="stroke:#000000;stroke-width:5.76"/>
	<text x="395.26" y="2268.66" style="font-family:'Helvetica';font-size:99.99px;fill:#000000" text-anchor="end">0.0</text>
	<line x1="455.28" y1="1807.05" x2="415.31" y2="1807.05" style="stroke:#000000;stroke-width:5.76"/>
	<text x="395.26" y="1842.08" style="font-family:'Helvetica';font-size:99.99px;fill:#000000" text-anchor="end">0.2</text>
	<line x1="455.28" y1="1380.47" x2="415.31" y2="1380.47" style="stroke:#000000;stroke-width:5.76"/>
	<text x="395.26" y="1415.50" style="font-family:'Helvetica';font-size:99.99px;fill:#000000" text-anchor="end">0.4</text>
	<line x1="455.28" y1="953.89" x2="415.31" y2="953.89" style="stroke:#000000;stroke-width:5.76"/>
	<text x="395.26" y="988.92" style="font-family:'Helvetica';font-size:99.99px;fill:#000000" text-anchor="end">0.6</text>
	<line x1="455.28" y1="527.44" x2="415.31" y2="527.44" style="stroke:#000000;stroke-width:5.76"/>
	<text x="395.26" y="562.47" style="font-family:'Helvetica';font-size:99.99px;fill:#000000" text-anchor="end">0.8</text>
	<line x1="455.28" y1="100.86" x2="415.31" y2="100.86" style="stroke:#000000;stroke-width:5.76"/>
	<text x="395.26" y="135.89" style="font-family:'Helvetica';font-size:99.99px;fill:#000000" text-anchor="end">1.0</text>
	<text x="190.71" y="1167.25" style="font-family:'Helvetica';font-size:99.99px;fill:#000000" transform="rotate(-90 190.71,1167.25)" text-anchor="middle">Probability</text>
	<line x1="455.28" y1="2233.63" x2="3859.02" y2="2233.63" style="stroke:#000000;stroke-width:5.76"/>
	<line x1="455.28" y1="2233.63" x2="455.28" y2="2273.73" style="stroke:#000000;stroke-width:5.76"/>
	<text x="455.28" y="2363.59" style="font-family:'Helvetica';font-size:99.99px;fill:#000000" text-anchor="middle">0</text>
	<line x1="1136.03" y1="2233.63" x2="1136.03" y2="2273.73" style="stroke:#000000;stroke-width:5.76"/>
	<text x="1136.03" y="2363.59" style="font-family:'Helvetica';font-size:99.99px;fill:#000000" text-anchor="middle">1</text>
	<line x1="1816.77" y1="2233.63" x2="1816.77" y2="2273.73" style="stroke:#000000;stroke-width:5.76"/>
	<text x="1816.77" y="2363.59" style="font-family:'Helvetica';font-size:99.99px;fill:#000000" text-anchor="middle">2</text>
	<line x1="2497.52" y1="2233.63" x2="2497.52" y2="2273.73" style="stroke:#000000;stroke-width:5.76"/>
	<text x="2497.52" y="2363.59" style="font-family:'Helvetica';font-size:99.99px;fill:#000000" text-anchor="middle">3</text>
	<line x1="3178.27" y1="2233.63" x2="3178.27" y2="2273.73" style="stroke:#000000;stroke-width:5.76"/>
	<text x="3178.27" y="2363.59" style="font-family:'Helvetica';font-size:99.99px;fill:#000000" text-anchor="middle">4</text>
	<line x1="3859.02" y1="2233.63" x2="3859.02" y2="2273.73" style="stroke:#000000;stroke-width:5.76"/>
	<text x="3859.02" y="2363.59" style="font-family:'Helvetica';font-size:99.99px;fill:#000000" text-anchor="middle">5</text>
	<text x="2157.21" y="2473.60" style="font-family:'Helvetica';font-size:99.99px;fill:#000000" text-anchor="middle">Years since Diagnosis</text>
	<rect x="532.99" y="2601.43" width="193.92" height="99.99" style="fill:#D7E6C7"/>
	<rect x="537.31" y="2605.75" width="185.28" height="91.35" style="fill:none;stroke:#78AC44;stroke-width:8.64"/>
	<rect x="1130.21" y="2601.43" width="193.92" height="99.99" style="fill:#B3DEF3"/>
	<rect x="1134.53" y="2605.75" width="185.28" height="91.35" style="fill:none;stroke:#0390D6;stroke-width:8.64"/>
	<rect x="2375.13" y="2601.43" width="193.92" height="99.99" style="fill:#FFC1B6"/>
	<rect x="2379.45" y="2605.75" width="185.28" height="91.35" style="fill:none;stroke:#FE300B;stroke-width:8.64"/>
	<text x="785.19" y="2686.46" style="font-family:'Helvetica';font-size:99.99px;fill:#000000">Alive</text>
	<text x="1382.41" y="2686.46" style="font-family:'Helvetica';font-size:99.99px;fill:#000000">Death from Cancer</text>
	<text x="2627.34" y="2686.46" style="font-family:'Helvetica';font-size:99.99px;fill:#000000">Death from Other Causes</text>
</svg>
