<?xml version="1.0" encoding="UTF-8" standalone="no"?>
<!-- This is a Stata 17.0 generated SVG file (http://www.stata.com) -->

<svg version="1.1" width="700px" height="509px" viewBox="0 0 3960 2880" xmlns="http://www.w3.org/2000/svg" xmlns:xlink="http://www.w3.org/1999/xlink">
	<desc>Stata Graph - Graph</desc>
	<rect x="0" y="0" width="3960" height="2880" style="fill:#FFFFFF;stroke:none"/>
	<rect x="0.00" y="0.00" width="3959.88" height="2880.00" style="fill:#FFFFFF"/>
	<rect x="2.88" y="2.88" width="3954.12" height="2874.24" style="fill:none;stroke:#FFFFFF;stroke-width:5.76"/>
	<rect x="63.36" y="237.98" width="1916.64" height="1161.55" style="fill:#FFFFFF"/>
	<rect x="65.52" y="240.14" width="1912.32" height="1157.23" style="fill:none;stroke:#FFFFFF;stroke-width:4.32"/>
	<line x1="412.71" y1="1106.48" x2="1904.39" y2="1106.48" style="stroke:#E8E8E8;stroke-width:4.32"/>
	<line x1="412.71" y1="974.07" x2="1904.39" y2="974.07" style="stroke:#E8E8E8;stroke-width:4.32"/>
	<line x1="412.71" y1="841.65" x2="1904.39" y2="841.65" style="stroke:#E8E8E8;stroke-width:4.32"/>
	<line x1="412.71" y1="709.23" x2="1904.39" y2="709.23" style="stroke:#E8E8E8;stroke-width:4.32"/>
	<line x1="412.71" y1="576.82" x2="1904.39" y2="576.82" style="stroke:#E8E8E8;stroke-width:4.32"/>
	<line x1="412.71" y1="444.40" x2="1904.39" y2="444.40" style="stroke:#E8E8E8;stroke-width:4.32"/>
	<line x1="412.71" y1="1106.48" x2="412.71" y2="444.40" style="stroke:#E8E8E8;stroke-width:4.32"/>
	<line x1="711.07" y1="1106.48" x2="711.07" y2="444.40" style="stroke:#E8E8E8;stroke-width:4.32"/>
	<line x1="1009.30" y1="1106.48" x2="1009.30" y2="444.40" style="stroke:#E8E8E8;stroke-width:4.32"/>
	<line x1="1307.67" y1="1106.48" x2="1307.67" y2="444.40" style="stroke:#E8E8E8;stroke-width:4.32"/>
	<line x1="1606.03" y1="1106.48" x2="1606.03" y2="444.40" style="stroke:#E8E8E8;stroke-width:4.32"/>
	<line x1="1904.39" y1="1106.48" x2="1904.39" y2="444.40" style="stroke:#E8E8E8;stroke-width:4.32"/>
	<defs>
		<path id="path_TeKhkvgG" d="M412.58 444.52 L412.58 444.52 L442.41 444.52 L472.35 444.52 L502.18 444.52 L532.00 444.52 L561.83 444.52 L591.65 444.52 L621.47 444.52 L651.30 444.52 L681.12 444.52 L710.94 444.52 L740.77 444.52 L770.59 444.52 L800.41 444.52 L830.24 444.52 L860.06 444.52 L890.01 444.52 L919.83 444.52 L949.66 444.52 L979.48 444.52 L1009.30 444.52 L1039.13 444.52 L1068.95 444.52 L1098.78 444.52 L1128.60 444.52 L1158.42 444.52 L1188.25 444.52 L1218.07 444.52 L1247.89 444.52 L1277.84 444.52 L1307.67 444.52 L1337.49 444.52 L1367.31 444.52 L1397.14 444.52 L1426.96 444.52 L1456.79 444.52 L1486.61 444.52 L1516.43 444.52 L1546.26 444.52 L1576.08 444.52 L1605.90 444.52 L1635.73 444.52 L1665.67 444.52 L1695.50 444.52 L1725.32 444.52 L1755.15 444.52 L1784.97 444.52 L1814.79 444.52 L1844.62 444.52 L1874.44 444.52 L1904.27 444.52 L1904.27 1106.48 L412.58 1106.48 L412.58 444.52 Z" stroke-linejoin="round"/>
	</defs>
	<defs>
		<clipPath id="clipPath_cOwNstLE">
			<use xlink:href="#path_TeKhkvgG"/>
		</clipPath>
	</defs>
	<use xlink:href="#path_TeKhkvgG" style="stroke:none;fill:#D7E6C7"/>
	<use xlink:href="#path_TeKhkvgG" style="fill:none;stroke:#78AC44;stroke-width:12.96" clip-path="url(#clipPath_cOwNstLE)"/>
	<defs>
		<path id="path_iSjxUHRa" d="M412.58 1106.48 L412.58 1106.48 L442.41 1103.51 L472.35 1100.30 L502.18 1097.20 L532.00 1094.11 L561.83 1091.26 L591.65 1088.42 L621.47 1085.57 L651.30 1082.85 L681.12 1080.00 L710.94 1077.15 L740.77 1074.43 L770.59 1071.58 L800.41 1068.99 L830.24 1066.26 L860.06 1063.66 L890.01 1061.19 L919.83 1058.59 L949.66 1056.12 L979.48 1053.52 L1009.30 1051.04 L1039.13 1048.44 L1068.95 1045.84 L1098.78 1043.37 L1128.60 1040.77 L1158.42 1038.29 L1188.25 1035.70 L1218.07 1033.22 L1247.89 1030.75 L1277.84 1028.27 L1307.67 1025.80 L1337.49 1023.20 L1367.31 1020.72 L1397.14 1018.12 L1426.96 1015.52 L1456.79 1012.93 L1486.61 1010.33 L1516.43 1007.60 L1546.26 1005.01 L1576.08 1002.28 L1605.90 999.56 L1635.73 996.84 L1665.67 994.11 L1695.50 991.52 L1725.32 988.79 L1755.15 986.07 L1784.97 983.35 L1814.79 980.75 L1844.62 978.15 L1874.44 975.55 L1904.27 972.95 L1904.27 1106.48 L412.58 1106.48 L412.58 1106.48 Z" stroke-linejoin="round"/>
	</defs>
	<defs>
		<clipPath id="clipPath_onZXrNWy">
			<use xlink:href="#path_iSjxUHRa"/>
		</clipPath>
	</defs>
	<use xlink:href="#path_iSjxUHRa" style="stroke:none;fill:#B3DEF3"/>
	<use xlink:href="#path_iSjxUHRa" style="fill:none;stroke:#0390D6;stroke-width:12.96" clip-path="url(#clipPath_onZXrNWy)"/>
	<defs>
		<path id="path_wkJvvnND" d="M412.58 1106.48 L412.58 1106.48 L442.41 1104.38 L472.35 1102.28 L502.18 1100.17 L532.00 1098.07 L561.83 1096.09 L591.65 1093.98 L621.47 1091.88 L651.30 1089.78 L681.12 1087.67 L710.94 1085.45 L740.77 1083.22 L770.59 1080.99 L800.41 1078.76 L830.24 1076.53 L860.06 1074.43 L890.01 1072.33 L919.83 1070.10 L949.66 1067.87 L979.48 1065.64 L1009.30 1063.42 L1039.13 1061.19 L1068.95 1058.84 L1098.78 1056.49 L1128.60 1054.14 L1158.42 1051.78 L1188.25 1049.56 L1218.07 1047.21 L1247.89 1044.85 L1277.84 1042.50 L1307.67 1040.15 L1337.49 1037.68 L1367.31 1035.20 L1397.14 1032.73 L1426.96 1030.25 L1456.79 1027.78 L1486.61 1025.18 L1516.43 1022.58 L1546.26 1019.98 L1576.08 1017.38 L1605.90 1014.66 L1635.73 1012.06 L1665.67 1009.46 L1695.50 1006.74 L1725.32 1004.14 L1755.15 1001.42 L1784.97 998.82 L1814.79 996.22 L1844.62 993.62 L1874.44 991.02 L1904.27 988.42 L1904.27 1106.48 L412.58 1106.48 L412.58 1106.48 Z" stroke-linejoin="round"/>
	</defs>
	<defs>
		<clipPath id="clipPath_nmaDvkvh">
			<use xlink:href="#path_wkJvvnND"/>
		</clipPath>
	</defs>
	<use xlink:href="#path_wkJvvnND" style="stroke:none;fill:#FFC1B6"/>
	<use xlink:href="#path_wkJvvnND" style="fill:none;stroke:#FE300B;stroke-width:12.96" clip-path="url(#clipPath_nmaDvkvh)"/>
	<line x1="412.71" y1="1106.48" x2="412.71" y2="444.40" style="stroke:#000000;stroke-width:4.32"/>
	<line x1="412.71" y1="1106.48" x2="382.63" y2="1106.48" style="stroke:#000000;stroke-width:4.32"/>
	<text x="367.66" y="1132.76" style="font-family:'Helvetica';font-size:74.99px;fill:#000000" text-anchor="end">0.0</text>
	<line x1="412.71" y1="974.07" x2="382.63" y2="974.07" style="stroke:#000000;stroke-width:4.32"/>
	<text x="367.66" y="1000.35" style="font-family:'Helvetica';font-size:74.99px;fill:#000000" text-anchor="end">0.2</text>
	<line x1="412.71" y1="841.65" x2="382.63" y2="841.65" style="stroke:#000000;stroke-width:4.32"/>
	<text x="367.66" y="867.93" style="font-family:'Helvetica';font-size:74.99px;fill:#000000" text-anchor="end">0.4</text>
	<line x1="412.71" y1="709.23" x2="382.63" y2="709.23" style="stroke:#000000;stroke-width:4.32"/>
	<text x="367.66" y="735.51" style="font-family:'Helvetica';font-size:74.99px;fill:#000000" text-anchor="end">0.6</text>
	<line x1="412.71" y1="576.82" x2="382.63" y2="576.82" style="stroke:#000000;stroke-width:4.32"/>
	<text x="367.66" y="603.10" style="font-family:'Helvetica';font-size:74.99px;fill:#000000" text-anchor="end">0.8</text>
	<line x1="412.71" y1="444.40" x2="382.63" y2="444.40" style="stroke:#000000;stroke-width:4.32"/>
	<text x="367.66" y="470.68" style="font-family:'Helvetica';font-size:74.99px;fill:#000000" text-anchor="end">1.0</text>
	<text x="206.38" y="775.44" style="font-family:'Helvetica';font-size:74.99px;fill:#000000" transform="rotate(-90 206.38,775.44)" text-anchor="middle">Probability</text>
	<line x1="412.71" y1="1106.48" x2="1904.39" y2="1106.48" style="stroke:#000000;stroke-width:4.32"/>
	<line x1="412.71" y1="1106.48" x2="412.71" y2="1136.43" style="stroke:#000000;stroke-width:4.32"/>
	<text x="412.71" y="1203.84" style="font-family:'Helvetica';font-size:74.99px;fill:#000000" text-anchor="middle">0</text>
	<line x1="711.07" y1="1106.48" x2="711.07" y2="1136.43" style="stroke:#000000;stroke-width:4.32"/>
	<text x="711.07" y="1203.84" style="font-family:'Helvetica';font-size:74.99px;fill:#000000" text-anchor="middle">1</text>
	<line x1="1009.30" y1="1106.48" x2="1009.30" y2="1136.43" style="stroke:#000000;stroke-width:4.32"/>
	<text x="1009.30" y="1203.84" style="font-family:'Helvetica';font-size:74.99px;fill:#000000" text-anchor="middle">2</text>
	<line x1="1307.67" y1="1106.48" x2="1307.67" y2="1136.43" style="stroke:#000000;stroke-width:4.32"/>
	<text x="1307.67" y="1203.84" style="font-family:'Helvetica';font-size:74.99px;fill:#000000" text-anchor="middle">3</text>
	<line x1="1606.03" y1="1106.48" x2="1606.03" y2="1136.43" style="stroke:#000000;stroke-width:4.32"/>
	<text x="1606.03" y="1203.84" style="font-family:'Helvetica';font-size:74.99px;fill:#000000" text-anchor="middle">4</text>
	<line x1="1904.39" y1="1106.48" x2="1904.39" y2="1136.43" style="stroke:#000000;stroke-width:4.32"/>
	<text x="1904.39" y="1203.84" style="font-family:'Helvetica';font-size:74.99px;fill:#000000" text-anchor="middle">5</text>
	<text x="1158.55" y="1286.38" style="font-family:'Helvetica';font-size:74.99px;fill:#000000" text-anchor="middle">Years since Diagnosis</text>
	<text x="1158.55" y="399.98" style="font-family:'Helvetica';font-size:104.94px;fill:#000000" text-anchor="middle">Stage 1</text>
	<rect x="1980.00" y="237.98" width="1916.52" height="1161.55" style="fill:#FFFFFF"/>
	<rect x="1982.16" y="240.14" width="1912.20" height="1157.23" style="fill:none;stroke:#FFFFFF;stroke-width:4.32"/>
	<line x1="2329.22" y1="1106.48" x2="3820.91" y2="1106.48" style="stroke:#E8E8E8;stroke-width:4.32"/>
	<line x1="2329.22" y1="974.07" x2="3820.91" y2="974.07" style="stroke:#E8E8E8;stroke-width:4.32"/>
	<line x1="2329.22" y1="841.65" x2="3820.91" y2="841.65" style="stroke:#E8E8E8;stroke-width:4.32"/>
	<line x1="2329.22" y1="709.23" x2="3820.91" y2="709.23" style="stroke:#E8E8E8;stroke-width:4.32"/>
	<line x1="2329.22" y1="576.82" x2="3820.91" y2="576.82" style="stroke:#E8E8E8;stroke-width:4.32"/>
	<line x1="2329.22" y1="444.40" x2="3820.91" y2="444.40" style="stroke:#E8E8E8;stroke-width:4.32"/>
	<line x1="2329.22" y1="1106.48" x2="2329.22" y2="444.40" style="stroke:#E8E8E8;stroke-width:4.32"/>
	<line x1="2627.58" y1="1106.48" x2="2627.58" y2="444.40" style="stroke:#E8E8E8;stroke-width:4.32"/>
	<line x1="2925.95" y1="1106.48" x2="2925.95" y2="444.40" style="stroke:#E8E8E8;stroke-width:4.32"/>
	<line x1="3224.31" y1="1106.48" x2="3224.31" y2="444.40" style="stroke:#E8E8E8;stroke-width:4.32"/>
	<line x1="3522.54" y1="1106.48" x2="3522.54" y2="444.40" style="stroke:#E8E8E8;stroke-width:4.32"/>
	<line x1="3820.91" y1="1106.48" x2="3820.91" y2="444.40" style="stroke:#E8E8E8;stroke-width:4.32"/>
	<defs>
		<path id="path_ACIWIIAU" d="M2329.22 444.52 L2329.22 444.52 L2359.05 444.52 L2388.87 444.52 L2418.69 444.52 L2448.52 444.52 L2478.34 444.52 L2508.16 444.52 L2537.99 444.52 L2567.81 444.52 L2597.76 444.52 L2627.58 444.52 L2657.41 444.52 L2687.23 444.52 L2717.05 444.52 L2746.88 444.52 L2776.70 444.52 L2806.53 444.52 L2836.35 444.52 L2866.17 444.52 L2896.00 444.52 L2925.82 444.52 L2955.64 444.52 L2985.59 444.52 L3015.42 444.52 L3045.24 444.52 L3075.06 444.52 L3104.89 444.52 L3134.71 444.52 L3164.53 444.52 L3194.36 444.52 L3224.18 444.52 L3254.01 444.52 L3283.83 444.52 L3313.65 444.52 L3343.48 444.52 L3373.43 444.52 L3403.25 444.52 L3433.07 444.52 L3462.90 444.52 L3492.72 444.52 L3522.54 444.52 L3552.37 444.52 L3582.19 444.52 L3612.01 444.52 L3641.84 444.52 L3671.66 444.52 L3701.49 444.52 L3731.31 444.52 L3761.13 444.52 L3791.08 444.52 L3820.91 444.52 L3820.91 1106.48 L2329.22 1106.48 L2329.22 444.52 Z" stroke-linejoin="round"/>
	</defs>
	<defs>
		<clipPath id="clipPath_NjupMyup">
			<use xlink:href="#path_ACIWIIAU"/>
		</clipPath>
	</defs>
	<use xlink:href="#path_ACIWIIAU" style="stroke:none;fill:#D7E6C7"/>
	<use xlink:href="#path_ACIWIIAU" style="fill:none;stroke:#78AC44;stroke-width:12.96" clip-path="url(#clipPath_NjupMyup)"/>
	<defs>
		<path id="path_EFSkWDhc" d="M2329.22 1106.48 L2329.22 1106.48 L2359.05 1097.08 L2388.87 1088.17 L2418.69 1080.87 L2448.52 1074.68 L2478.34 1069.23 L2508.16 1064.41 L2537.99 1060.08 L2567.81 1055.99 L2597.76 1052.16 L2627.58 1048.44 L2657.41 1044.85 L2687.23 1041.39 L2717.05 1037.92 L2746.88 1034.58 L2776.70 1031.24 L2806.53 1028.15 L2836.35 1025.05 L2866.17 1022.08 L2896.00 1019.11 L2925.82 1016.27 L2955.64 1013.30 L2985.59 1010.45 L3015.42 1007.60 L3045.24 1004.76 L3075.06 1002.04 L3104.89 999.19 L3134.71 996.47 L3164.53 993.62 L3194.36 991.02 L3224.18 988.42 L3254.01 985.70 L3283.83 983.10 L3313.65 980.50 L3343.48 977.90 L3373.43 975.30 L3403.25 972.71 L3433.07 969.98 L3462.90 967.38 L3492.72 964.66 L3522.54 962.06 L3552.37 959.34 L3582.19 956.74 L3612.01 954.02 L3641.84 951.30 L3671.66 948.70 L3701.49 945.97 L3731.31 943.38 L3761.13 940.65 L3791.08 938.05 L3820.91 935.46 L3820.91 1106.48 L2329.22 1106.48 L2329.22 1106.48 Z" stroke-linejoin="round"/>
	</defs>
	<defs>
		<clipPath id="clipPath_fiMmYFsb">
			<use xlink:href="#path_EFSkWDhc"/>
		</clipPath>
	</defs>
	<use xlink:href="#path_EFSkWDhc" style="stroke:none;fill:#B3DEF3"/>
	<use xlink:href="#path_EFSkWDhc" style="fill:none;stroke:#0390D6;stroke-width:12.96" clip-path="url(#clipPath_fiMmYFsb)"/>
	<defs>
		<path id="path_oVDtgAWN" d="M2329.22 1106.48 L2329.22 1106.48 L2359.05 1104.38 L2388.87 1102.28 L2418.69 1100.30 L2448.52 1098.19 L2478.34 1096.21 L2508.16 1094.23 L2537.99 1092.25 L2567.81 1090.27 L2597.76 1088.42 L2627.58 1086.44 L2657.41 1084.33 L2687.23 1082.35 L2717.05 1080.25 L2746.88 1078.14 L2776.70 1076.04 L2806.53 1073.94 L2836.35 1071.96 L2866.17 1069.98 L2896.00 1067.87 L2925.82 1065.89 L2955.64 1063.79 L2985.59 1061.81 L3015.42 1059.70 L3045.24 1057.48 L3075.06 1055.37 L3104.89 1053.15 L3134.71 1051.04 L3164.53 1048.81 L3194.36 1046.71 L3224.18 1044.61 L3254.01 1042.38 L3283.83 1040.28 L3313.65 1038.05 L3343.48 1035.82 L3373.43 1033.47 L3403.25 1031.24 L3433.07 1028.89 L3462.90 1026.54 L3492.72 1024.19 L3522.54 1021.84 L3552.37 1019.36 L3582.19 1017.01 L3612.01 1014.53 L3641.84 1012.06 L3671.66 1009.71 L3701.49 1007.23 L3731.31 1004.76 L3761.13 1002.41 L3791.08 999.93 L3820.91 997.58 L3820.91 1106.48 L2329.22 1106.48 L2329.22 1106.48 Z" stroke-linejoin="round"/>
	</defs>
	<defs>
		<clipPath id="clipPath_qSCTccqM">
			<use xlink:href="#path_oVDtgAWN"/>
		</clipPath>
	</defs>
	<use xlink:href="#path_oVDtgAWN" style="stroke:none;fill:#FFC1B6"/>
	<use xlink:href="#path_oVDtgAWN" style="fill:none;stroke:#FE300B;stroke-width:12.96" clip-path="url(#clipPath_qSCTccqM)"/>
	<line x1="2329.22" y1="1106.48" x2="2329.22" y2="444.40" style="stroke:#000000;stroke-width:4.32"/>
	<line x1="2329.22" y1="1106.48" x2="2299.28" y2="1106.48" style="stroke:#000000;stroke-width:4.32"/>
	<text x="2284.30" y="1132.76" style="font-family:'Helvetica';font-size:74.99px;fill:#000000" text-anchor="end">0.0</text>
	<line x1="2329.22" y1="974.07" x2="2299.28" y2="974.07" style="stroke:#000000;stroke-width:4.32"/>
	<text x="2284.30" y="1000.35" style="font-family:'Helvetica';font-size:74.99px;fill:#000000" text-anchor="end">0.2</text>
	<line x1="2329.22" y1="841.65" x2="2299.28" y2="841.65" style="stroke:#000000;stroke-width:4.32"/>
	<text x="2284.30" y="867.93" style="font-family:'Helvetica';font-size:74.99px;fill:#000000" text-anchor="end">0.4</text>
	<line x1="2329.22" y1="709.23" x2="2299.28" y2="709.23" style="stroke:#000000;stroke-width:4.32"/>
	<text x="2284.30" y="735.51" style="font-family:'Helvetica';font-size:74.99px;fill:#000000" text-anchor="end">0.6</text>
	<line x1="2329.22" y1="576.82" x2="2299.28" y2="576.82" style="stroke:#000000;stroke-width:4.32"/>
	<text x="2284.30" y="603.10" style="font-family:'Helvetica';font-size:74.99px;fill:#000000" text-anchor="end">0.8</text>
	<line x1="2329.22" y1="444.40" x2="2299.28" y2="444.40" style="stroke:#000000;stroke-width:4.32"/>
	<text x="2284.30" y="470.68" style="font-family:'Helvetica';font-size:74.99px;fill:#000000" text-anchor="end">1.0</text>
	<text x="2123.02" y="775.44" style="font-family:'Helvetica';font-size:74.99px;fill:#000000" transform="rotate(-90 2123.02,775.44)" text-anchor="middle">Probability</text>
	<line x1="2329.22" y1="1106.48" x2="3820.91" y2="1106.48" style="stroke:#000000;stroke-width:4.32"/>
	<line x1="2329.22" y1="1106.48" x2="2329.22" y2="1136.43" style="stroke:#000000;stroke-width:4.32"/>
	<text x="2329.22" y="1203.84" style="font-family:'Helvetica';font-size:74.99px;fill:#000000" text-anchor="middle">0</text>
	<line x1="2627.58" y1="1106.48" x2="2627.58" y2="1136.43" style="stroke:#000000;stroke-width:4.32"/>
	<text x="2627.58" y="1203.84" style="font-family:'Helvetica';font-size:74.99px;fill:#000000" text-anchor="middle">1</text>
	<line x1="2925.95" y1="1106.48" x2="2925.95" y2="1136.43" style="stroke:#000000;stroke-width:4.32"/>
	<text x="2925.95" y="1203.84" style="font-family:'Helvetica';font-size:74.99px;fill:#000000" text-anchor="middle">2</text>
	<line x1="3224.31" y1="1106.48" x2="3224.31" y2="1136.43" style="stroke:#000000;stroke-width:4.32"/>
	<text x="3224.31" y="1203.84" style="font-family:'Helvetica';font-size:74.99px;fill:#000000" text-anchor="middle">3</text>
	<line x1="3522.54" y1="1106.48" x2="3522.54" y2="1136.43" style="stroke:#000000;stroke-width:4.32"/>
	<text x="3522.54" y="1203.84" style="font-family:'Helvetica';font-size:74.99px;fill:#000000" text-anchor="middle">4</text>
	<line x1="3820.91" y1="1106.48" x2="3820.91" y2="1136.43" style="stroke:#000000;stroke-width:4.32"/>
	<text x="3820.91" y="1203.84" style="font-family:'Helvetica';font-size:74.99px;fill:#000000" text-anchor="middle">5</text>
	<text x="3075.06" y="1286.38" style="font-family:'Helvetica';font-size:74.99px;fill:#000000" text-anchor="middle">Years since Diagnosis</text>
	<text x="3075.06" y="399.98" style="font-family:'Helvetica';font-size:104.94px;fill:#000000" text-anchor="middle">Stage 2</text>
	<rect x="63.36" y="1399.53" width="1916.64" height="1161.55" style="fill:#FFFFFF"/>
	<rect x="65.52" y="1401.69" width="1912.32" height="1157.23" style="fill:none;stroke:#FFFFFF;stroke-width:4.32"/>
	<line x1="412.71" y1="2268.04" x2="1904.39" y2="2268.04" style="stroke:#E8E8E8;stroke-width:4.32"/>
	<line x1="412.71" y1="2135.62" x2="1904.39" y2="2135.62" style="stroke:#E8E8E8;stroke-width:4.32"/>
	<line x1="412.71" y1="2003.20" x2="1904.39" y2="2003.20" style="stroke:#E8E8E8;stroke-width:4.32"/>
	<line x1="412.71" y1="1870.79" x2="1904.39" y2="1870.79" style="stroke:#E8E8E8;stroke-width:4.32"/>
	<line x1="412.71" y1="1738.49" x2="1904.39" y2="1738.49" style="stroke:#E8E8E8;stroke-width:4.32"/>
	<line x1="412.71" y1="1606.08" x2="1904.39" y2="1606.08" style="stroke:#E8E8E8;stroke-width:4.32"/>
	<line x1="412.71" y1="2268.04" x2="412.71" y2="1606.08" style="stroke:#E8E8E8;stroke-width:4.32"/>
	<line x1="711.07" y1="2268.04" x2="711.07" y2="1606.08" style="stroke:#E8E8E8;stroke-width:4.32"/>
	<line x1="1009.30" y1="2268.04" x2="1009.30" y2="1606.08" style="stroke:#E8E8E8;stroke-width:4.32"/>
	<line x1="1307.67" y1="2268.04" x2="1307.67" y2="1606.08" style="stroke:#E8E8E8;stroke-width:4.32"/>
	<line x1="1606.03" y1="2268.04" x2="1606.03" y2="1606.08" style="stroke:#E8E8E8;stroke-width:4.32"/>
	<line x1="1904.39" y1="2268.04" x2="1904.39" y2="1606.08" style="stroke:#E8E8E8;stroke-width:4.32"/>
	<defs>
		<path id="path_PLFoNxII" d="M412.58 1606.08 L412.58 1606.08 L442.41 1606.08 L472.35 1606.08 L502.18 1606.08 L532.00 1606.08 L561.83 1606.08 L591.65 1606.08 L621.47 1606.08 L651.30 1606.08 L681.12 1606.08 L710.94 1606.08 L740.77 1606.08 L770.59 1606.08 L800.41 1606.08 L830.24 1606.08 L860.06 1606.08 L890.01 1606.08 L919.83 1606.08 L949.66 1606.08 L979.48 1606.08 L1009.30 1606.08 L1039.13 1606.08 L1068.95 1606.08 L1098.78 1606.08 L1128.60 1606.08 L1158.42 1606.08 L1188.25 1606.08 L1218.07 1606.08 L1247.89 1606.08 L1277.84 1606.08 L1307.67 1606.08 L1337.49 1606.08 L1367.31 1606.08 L1397.14 1606.08 L1426.96 1606.08 L1456.79 1606.08 L1486.61 1606.08 L1516.43 1606.08 L1546.26 1606.08 L1576.08 1606.08 L1605.90 1606.08 L1635.73 1606.08 L1665.67 1606.08 L1695.50 1606.08 L1725.32 1606.08 L1755.15 1606.08 L1784.97 1606.08 L1814.79 1606.08 L1844.62 1606.08 L1874.44 1606.08 L1904.27 1606.08 L1904.27 2268.04 L412.58 2268.04 L412.58 1606.08 Z" stroke-linejoin="round"/>
	</defs>
	<defs>
		<clipPath id="clipPath_gLamcWee">
			<use xlink:href="#path_PLFoNxII"/>
		</clipPath>
	</defs>
	<use xlink:href="#path_PLFoNxII" style="stroke:none;fill:#D7E6C7"/>
	<use xlink:href="#path_PLFoNxII" style="fill:none;stroke:#78AC44;stroke-width:12.96" clip-path="url(#clipPath_gLamcWee)"/>
	<defs>
		<path id="path_whUrQbAS" d="M412.58 2268.04 L412.58 2268.04 L442.41 2249.60 L472.35 2236.60 L502.18 2224.97 L532.00 2214.08 L561.83 2203.69 L591.65 2193.54 L621.47 2183.51 L651.30 2173.61 L681.12 2163.84 L710.94 2154.06 L740.77 2144.28 L770.59 2134.75 L800.41 2125.35 L830.24 2116.07 L860.06 2107.03 L890.01 2098.12 L919.83 2089.34 L949.66 2080.67 L979.48 2072.13 L1009.30 2063.84 L1039.13 2055.55 L1068.95 2047.38 L1098.78 2039.46 L1128.60 2031.67 L1158.42 2024.12 L1188.25 2016.57 L1218.07 2009.39 L1247.89 2002.34 L1277.84 1995.41 L1307.67 1988.72 L1337.49 1982.04 L1367.31 1975.61 L1397.14 1969.30 L1426.96 1963.11 L1456.79 1957.17 L1486.61 1951.23 L1516.43 1945.41 L1546.26 1939.72 L1576.08 1934.15 L1605.90 1928.58 L1635.73 1923.26 L1665.67 1918.06 L1695.50 1912.86 L1725.32 1907.79 L1755.15 1902.84 L1784.97 1898.01 L1814.79 1893.19 L1844.62 1888.48 L1874.44 1883.91 L1904.27 1879.45 L1904.27 2268.04 L412.58 2268.04 L412.58 2268.04 Z" stroke-linejoin="round"/>
	</defs>
	<defs>
		<clipPath id="clipPath_BhPGyHzS">
			<use xlink:href="#path_whUrQbAS"/>
		</clipPath>
	</defs>
	<use xlink:href="#path_whUrQbAS" style="stroke:none;fill:#B3DEF3"/>
	<use xlink:href="#path_whUrQbAS" style="fill:none;stroke:#0390D6;stroke-width:12.96" clip-path="url(#clipPath_BhPGyHzS)"/>
	<defs>
		<path id="path_qMmLFXuE" d="M412.58 2268.04 L412.58 2268.04 L442.41 2266.06 L472.35 2263.95 L502.18 2261.97 L532.00 2259.99 L561.83 2258.14 L591.65 2256.16 L621.47 2254.30 L651.30 2252.44 L681.12 2250.59 L710.94 2248.73 L740.77 2246.75 L770.59 2244.90 L800.41 2243.04 L830.24 2241.18 L860.06 2239.45 L890.01 2237.72 L919.83 2235.98 L949.66 2234.38 L979.48 2232.64 L1009.30 2230.91 L1039.13 2229.18 L1068.95 2227.57 L1098.78 2225.84 L1128.60 2224.10 L1158.42 2222.50 L1188.25 2220.89 L1218.07 2219.28 L1247.89 2217.67 L1277.84 2216.06 L1307.67 2214.45 L1337.49 2212.97 L1367.31 2211.36 L1397.14 2209.75 L1426.96 2208.14 L1456.79 2206.66 L1486.61 2205.05 L1516.43 2203.44 L1546.26 2201.95 L1576.08 2200.34 L1605.90 2198.86 L1635.73 2197.25 L1665.67 2195.76 L1695.50 2194.28 L1725.32 2192.79 L1755.15 2191.31 L1784.97 2189.82 L1814.79 2188.46 L1844.62 2187.10 L1874.44 2185.74 L1904.27 2184.38 L1904.27 2268.04 L412.58 2268.04 L412.58 2268.04 Z" stroke-linejoin="round"/>
	</defs>
	<defs>
		<clipPath id="clipPath_XfbGOFgH">
			<use xlink:href="#path_qMmLFXuE"/>
		</clipPath>
	</defs>
	<use xlink:href="#path_qMmLFXuE" style="stroke:none;fill:#FFC1B6"/>
	<use xlink:href="#path_qMmLFXuE" style="fill:none;stroke:#FE300B;stroke-width:12.96" clip-path="url(#clipPath_XfbGOFgH)"/>
	<line x1="412.71" y1="2268.04" x2="412.71" y2="1606.08" style="stroke:#000000;stroke-width:4.32"/>
	<line x1="412.71" y1="2268.04" x2="382.63" y2="2268.04" style="stroke:#000000;stroke-width:4.32"/>
	<text x="367.66" y="2294.32" style="font-family:'Helvetica';font-size:74.99px;fill:#000000" text-anchor="end">0.0</text>
	<line x1="412.71" y1="2135.62" x2="382.63" y2="2135.62" style="stroke:#000000;stroke-width:4.32"/>
	<text x="367.66" y="2161.90" style="font-family:'Helvetica';font-size:74.99px;fill:#000000" text-anchor="end">0.2</text>
	<line x1="412.71" y1="2003.20" x2="382.63" y2="2003.20" style="stroke:#000000;stroke-width:4.32"/>
	<text x="367.66" y="2029.48" style="font-family:'Helvetica';font-size:74.99px;fill:#000000" text-anchor="end">0.4</text>
	<line x1="412.71" y1="1870.79" x2="382.63" y2="1870.79" style="stroke:#000000;stroke-width:4.32"/>
	<text x="367.66" y="1897.07" style="font-family:'Helvetica';font-size:74.99px;fill:#000000" text-anchor="end">0.6</text>
	<line x1="412.71" y1="1738.49" x2="382.63" y2="1738.49" style="stroke:#000000;stroke-width:4.32"/>
	<text x="367.66" y="1764.77" style="font-family:'Helvetica';font-size:74.99px;fill:#000000" text-anchor="end">0.8</text>
	<line x1="412.71" y1="1606.08" x2="382.63" y2="1606.08" style="stroke:#000000;stroke-width:4.32"/>
	<text x="367.66" y="1632.36" style="font-family:'Helvetica';font-size:74.99px;fill:#000000" text-anchor="end">1.0</text>
	<text x="206.38" y="1937.00" style="font-family:'Helvetica';font-size:74.99px;fill:#000000" transform="rotate(-90 206.38,1937.00)" text-anchor="middle">Probability</text>
	<line x1="412.71" y1="2268.04" x2="1904.39" y2="2268.04" style="stroke:#000000;stroke-width:4.32"/>
	<line x1="412.71" y1="2268.04" x2="412.71" y2="2297.99" style="stroke:#000000;stroke-width:4.32"/>
	<text x="412.71" y="2365.52" style="font-family:'Helvetica';font-size:74.99px;fill:#000000" text-anchor="middle">0</text>
	<line x1="711.07" y1="2268.04" x2="711.07" y2="2297.99" style="stroke:#000000;stroke-width:4.32"/>
	<text x="711.07" y="2365.52" style="font-family:'Helvetica';font-size:74.99px;fill:#000000" text-anchor="middle">1</text>
	<line x1="1009.30" y1="2268.04" x2="1009.30" y2="2297.99" style="stroke:#000000;stroke-width:4.32"/>
	<text x="1009.30" y="2365.52" style="font-family:'Helvetica';font-size:74.99px;fill:#000000" text-anchor="middle">2</text>
	<line x1="1307.67" y1="2268.04" x2="1307.67" y2="2297.99" style="stroke:#000000;stroke-width:4.32"/>
	<text x="1307.67" y="2365.52" style="font-family:'Helvetica';font-size:74.99px;fill:#000000" text-anchor="middle">3</text>
	<line x1="1606.03" y1="2268.04" x2="1606.03" y2="2297.99" style="stroke:#000000;stroke-width:4.32"/>
	<text x="1606.03" y="2365.52" style="font-family:'Helvetica';font-size:74.99px;fill:#000000" text-anchor="middle">4</text>
	<line x1="1904.39" y1="2268.04" x2="1904.39" y2="2297.99" style="stroke:#000000;stroke-width:4.32"/>
	<text x="1904.39" y="2365.52" style="font-family:'Helvetica';font-size:74.99px;fill:#000000" text-anchor="middle">5</text>
	<text x="1158.55" y="2447.94" style="font-family:'Helvetica';font-size:74.99px;fill:#000000" text-anchor="middle">Years since Diagnosis</text>
	<text x="1158.55" y="1561.54" style="font-family:'Helvetica';font-size:104.94px;fill:#000000" text-anchor="middle">Stage 3</text>
	<rect x="1980.00" y="1399.53" width="1916.52" height="1161.55" style="fill:#FFFFFF"/>
	<rect x="1982.16" y="1401.69" width="1912.20" height="1157.23" style="fill:none;stroke:#FFFFFF;stroke-width:4.32"/>
	<line x1="2329.22" y1="2268.04" x2="3820.91" y2="2268.04" style="stroke:#E8E8E8;stroke-width:4.32"/>
	<line x1="2329.22" y1="2135.62" x2="3820.91" y2="2135.62" style="stroke:#E8E8E8;stroke-width:4.32"/>
	<line x1="2329.22" y1="2003.20" x2="3820.91" y2="2003.20" style="stroke:#E8E8E8;stroke-width:4.32"/>
	<line x1="2329.22" y1="1870.79" x2="3820.91" y2="1870.79" style="stroke:#E8E8E8;stroke-width:4.32"/>
	<line x1="2329.22" y1="1738.49" x2="3820.91" y2="1738.49" style="stroke:#E8E8E8;stroke-width:4.32"/>
	<line x1="2329.22" y1="1606.08" x2="3820.91" y2="1606.08" style="stroke:#E8E8E8;stroke-width:4.32"/>
	<line x1="2329.22" y1="2268.04" x2="2329.22" y2="1606.08" style="stroke:#E8E8E8;stroke-width:4.32"/>
	<line x1="2627.58" y1="2268.04" x2="2627.58" y2="1606.08" style="stroke:#E8E8E8;stroke-width:4.32"/>
	<line x1="2925.95" y1="2268.04" x2="2925.95" y2="1606.08" style="stroke:#E8E8E8;stroke-width:4.32"/>
	<line x1="3224.31" y1="2268.04" x2="3224.31" y2="1606.08" style="stroke:#E8E8E8;stroke-width:4.32"/>
	<line x1="3522.54" y1="2268.04" x2="3522.54" y2="1606.08" style="stroke:#E8E8E8;stroke-width:4.32"/>
	<line x1="3820.91" y1="2268.04" x2="3820.91" y2="1606.08" style="stroke:#E8E8E8;stroke-width:4.32"/>
	<defs>
		<path id="path_AEXMNBPn" d="M2329.22 1606.08 L2329.22 1606.08 L2359.05 1606.08 L2388.87 1606.08 L2418.69 1606.08 L2448.52 1606.08 L2478.34 1606.08 L2508.16 1606.08 L2537.99 1606.08 L2567.81 1606.08 L2597.76 1606.08 L2627.58 1606.08 L2657.41 1606.08 L2687.23 1606.08 L2717.05 1606.08 L2746.88 1606.08 L2776.70 1606.08 L2806.53 1606.08 L2836.35 1606.08 L2866.17 1606.08 L2896.00 1606.08 L2925.82 1606.08 L2955.64 1606.08 L2985.59 1606.08 L3015.42 1606.08 L3045.24 1606.08 L3075.06 1606.08 L3104.89 1606.08 L3134.71 1606.08 L3164.53 1606.08 L3194.36 1606.08 L3224.18 1606.08 L3254.01 1606.08 L3283.83 1606.08 L3313.65 1606.08 L3343.48 1606.08 L3373.43 1606.08 L3403.25 1606.08 L3433.07 1606.08 L3462.90 1606.08 L3492.72 1606.08 L3522.54 1606.08 L3552.37 1606.08 L3582.19 1606.08 L3612.01 1606.08 L3641.84 1606.08 L3671.66 1606.08 L3701.49 1606.08 L3731.31 1606.08 L3761.13 1606.08 L3791.08 1606.08 L3820.91 1606.08 L3820.91 2268.04 L2329.22 2268.04 L2329.22 1606.08 Z" stroke-linejoin="round"/>
	</defs>
	<defs>
		<clipPath id="clipPath_mZLWWcxo">
			<use xlink:href="#path_AEXMNBPn"/>
		</clipPath>
	</defs>
	<use xlink:href="#path_AEXMNBPn" style="stroke:none;fill:#D7E6C7"/>
	<use xlink:href="#path_AEXMNBPn" style="fill:none;stroke:#78AC44;stroke-width:12.96" clip-path="url(#clipPath_mZLWWcxo)"/>
	<defs>
		<path id="path_gmcrZseY" d="M2329.22 2268.04 L2329.22 2268.04 L2359.05 2152.95 L2388.87 2075.48 L2418.69 2022.01 L2448.52 1982.04 L2478.34 1950.24 L2508.16 1924.00 L2537.99 1901.85 L2567.81 1882.54 L2597.76 1865.22 L2627.58 1849.63 L2657.41 1835.52 L2687.23 1822.65 L2717.05 1811.01 L2746.88 1800.25 L2776.70 1790.35 L2806.53 1781.19 L2836.35 1772.65 L2866.17 1764.73 L2896.00 1757.30 L2925.82 1750.37 L2955.64 1743.94 L2985.59 1737.88 L3015.42 1732.18 L3045.24 1726.86 L3075.06 1721.91 L3104.89 1717.21 L3134.71 1712.88 L3164.53 1708.92 L3194.36 1705.08 L3224.18 1701.49 L3254.01 1698.15 L3283.83 1695.06 L3313.65 1692.09 L3343.48 1689.36 L3373.43 1686.64 L3403.25 1684.17 L3433.07 1681.82 L3462.90 1679.59 L3492.72 1677.36 L3522.54 1675.38 L3552.37 1673.40 L3582.19 1671.42 L3612.01 1669.69 L3641.84 1667.95 L3671.66 1666.22 L3701.49 1664.61 L3731.31 1663.13 L3761.13 1661.52 L3791.08 1660.16 L3820.91 1658.67 L3820.91 2268.04 L2329.22 2268.04 L2329.22 2268.04 Z" stroke-linejoin="round"/>
	</defs>
	<defs>
		<clipPath id="clipPath_DfQvSpPe">
			<use xlink:href="#path_gmcrZseY"/>
		</clipPath>
	</defs>
	<use xlink:href="#path_gmcrZseY" style="stroke:none;fill:#B3DEF3"/>
	<use xlink:href="#path_gmcrZseY" style="fill:none;stroke:#0390D6;stroke-width:12.96" clip-path="url(#clipPath_DfQvSpPe)"/>
	<defs>
		<path id="path_eVrzqHqb" d="M2329.22 2268.04 L2329.22 2268.04 L2359.05 2266.18 L2388.87 2264.57 L2418.69 2263.09 L2448.52 2261.85 L2478.34 2260.74 L2508.16 2259.62 L2537.99 2258.63 L2567.81 2257.77 L2597.76 2256.90 L2627.58 2256.03 L2657.41 2255.29 L2687.23 2254.42 L2717.05 2253.68 L2746.88 2253.06 L2776.70 2252.32 L2806.53 2251.70 L2836.35 2251.08 L2866.17 2250.46 L2896.00 2249.97 L2925.82 2249.47 L2955.64 2248.86 L2985.59 2248.36 L3015.42 2247.87 L3045.24 2247.37 L3075.06 2246.88 L3104.89 2246.50 L3134.71 2246.01 L3164.53 2245.64 L3194.36 2245.27 L3224.18 2244.90 L3254.01 2244.52 L3283.83 2244.15 L3313.65 2243.78 L3343.48 2243.41 L3373.43 2243.04 L3403.25 2242.67 L3433.07 2242.42 L3462.90 2242.05 L3492.72 2241.68 L3522.54 2241.43 L3552.37 2241.06 L3582.19 2240.81 L3612.01 2240.44 L3641.84 2240.19 L3671.66 2239.94 L3701.49 2239.57 L3731.31 2239.33 L3761.13 2239.08 L3791.08 2238.83 L3820.91 2238.46 L3820.91 2268.04 L2329.22 2268.04 L2329.22 2268.04 Z" stroke-linejoin="round"/>
	</defs>
	<defs>
		<clipPath id="clipPath_QAEWsBUF">
			<use xlink:href="#path_eVrzqHqb"/>
		</clipPath>
	</defs>
	<use xlink:href="#path_eVrzqHqb" style="stroke:none;fill:#FFC1B6"/>
	<use xlink:href="#path_eVrzqHqb" style="fill:none;stroke:#FE300B;stroke-width:12.96" clip-path="url(#clipPath_QAEWsBUF)"/>
	<line x1="2329.22" y1="2268.04" x2="2329.22" y2="1606.08" style="stroke:#000000;stroke-width:4.32"/>
	<line x1="2329.22" y1="2268.04" x2="2299.28" y2="2268.04" style="stroke:#000000;stroke-width:4.32"/>
	<text x="2284.30" y="2294.32" style="font-family:'Helvetica';font-size:74.99px;fill:#000000" text-anchor="end">0.0</text>
	<line x1="2329.22" y1="2135.62" x2="2299.28" y2="2135.62" style="stroke:#000000;stroke-width:4.32"/>
	<text x="2284.30" y="2161.90" style="font-family:'Helvetica';font-size:74.99px;fill:#000000" text-anchor="end">0.2</text>
	<line x1="2329.22" y1="2003.20" x2="2299.28" y2="2003.20" style="stroke:#000000;stroke-width:4.32"/>
	<text x="2284.30" y="2029.48" style="font-family:'Helvetica';font-size:74.99px;fill:#000000" text-anchor="end">0.4</text>
	<line x1="2329.22" y1="1870.79" x2="2299.28" y2="1870.79" style="stroke:#000000;stroke-width:4.32"/>
	<text x="2284.30" y="1897.07" style="font-family:'Helvetica';font-size:74.99px;fill:#000000" text-anchor="end">0.6</text>
	<line x1="2329.22" y1="1738.49" x2="2299.28" y2="1738.49" style="stroke:#000000;stroke-width:4.32"/>
	<text x="2284.30" y="1764.77" style="font-family:'Helvetica';font-size:74.99px;fill:#000000" text-anchor="end">0.8</text>
	<line x1="2329.22" y1="1606.08" x2="2299.28" y2="1606.08" style="stroke:#000000;stroke-width:4.32"/>
	<text x="2284.30" y="1632.36" style="font-family:'Helvetica';font-size:74.99px;fill:#000000" text-anchor="end">1.0</text>
	<text x="2123.02" y="1937.00" style="font-family:'Helvetica';font-size:74.99px;fill:#000000" transform="rotate(-90 2123.02,1937.00)" text-anchor="middle">Probability</text>
	<line x1="2329.22" y1="2268.04" x2="3820.91" y2="2268.04" style="stroke:#000000;stroke-width:4.32"/>
	<line x1="2329.22" y1="2268.04" x2="2329.22" y2="2297.99" style="stroke:#000000;stroke-width:4.32"/>
	<text x="2329.22" y="2365.52" style="font-family:'Helvetica';font-size:74.99px;fill:#000000" text-anchor="middle">0</text>
	<line x1="2627.58" y1="2268.04" x2="2627.58" y2="2297.99" style="stroke:#000000;stroke-width:4.32"/>
	<text x="2627.58" y="2365.52" style="font-family:'Helvetica';font-size:74.99px;fill:#000000" text-anchor="middle">1</text>
	<line x1="2925.95" y1="2268.04" x2="2925.95" y2="2297.99" style="stroke:#000000;stroke-width:4.32"/>
	<text x="2925.95" y="2365.52" style="font-family:'Helvetica';font-size:74.99px;fill:#000000" text-anchor="middle">2</text>
	<line x1="3224.31" y1="2268.04" x2="3224.31" y2="2297.99" style="stroke:#000000;stroke-width:4.32"/>
	<text x="3224.31" y="2365.52" style="font-family:'Helvetica';font-size:74.99px;fill:#000000" text-anchor="middle">3</text>
	<line x1="3522.54" y1="2268.04" x2="3522.54" y2="2297.99" style="stroke:#000000;stroke-width:4.32"/>
	<text x="3522.54" y="2365.52" style="font-family:'Helvetica';font-size:74.99px;fill:#000000" text-anchor="middle">4</text>
	<line x1="3820.91" y1="2268.04" x2="3820.91" y2="2297.99" style="stroke:#000000;stroke-width:4.32"/>
	<text x="3820.91" y="2365.52" style="font-family:'Helvetica';font-size:74.99px;fill:#000000" text-anchor="middle">5</text>
	<text x="3075.06" y="2447.94" style="font-family:'Helvetica';font-size:74.99px;fill:#000000" text-anchor="middle">Years since Diagnosis</text>
	<text x="3075.06" y="1561.54" style="font-family:'Helvetica';font-size:104.94px;fill:#000000" text-anchor="middle">Stage 4</text>
	<text x="1980.00" y="178.60" style="font-family:'Helvetica';font-size:139.96px;fill:#000000" text-anchor="middle">Female, Age 75, Deprivation Group 5, Diagnosed in 2011</text>
	<rect x="305.17" y="2638.93" width="199.98" height="99.99" style="fill:#D7E6C7"/>
	<rect x="309.49" y="2643.25" width="191.34" height="91.35" style="fill:none;stroke:#78AC44;stroke-width:8.64"/>
	<rect x="921.07" y="2638.93" width="199.98" height="99.99" style="fill:#B3DEF3"/>
	<rect x="925.39" y="2643.25" width="191.34" height="91.35" style="fill:none;stroke:#0390D6;stroke-width:8.64"/>
	<rect x="2204.73" y="2638.93" width="199.98" height="99.99" style="fill:#FFC1B6"/>
	<rect x="2209.05" y="2643.25" width="191.34" height="91.35" style="fill:none;stroke:#FE300B;stroke-width:8.64"/>
	<text x="565.17" y="2723.95" style="font-family:'Helvetica';font-size:99.99px;fill:#000000">Alive</text>
	<text x="1181.07" y="2723.95" style="font-family:'Helvetica';font-size:99.99px;fill:#000000">Death from Cancer</text>
	<text x="2464.73" y="2723.95" style="font-family:'Helvetica';font-size:99.99px;fill:#000000">Death from Other Causes</text>
</svg>
