<?xml version="1.0" encoding="UTF-8" standalone="no"?>
<!-- This is a Stata 17.0 generated SVG file (http://www.stata.com) -->

<svg version="1.1" width="700px" height="509px" viewBox="0 0 3960 2880" xmlns="http://www.w3.org/2000/svg" xmlns:xlink="http://www.w3.org/1999/xlink">
	<desc>Stata Graph - Graph</desc>
	<rect x="0" y="0" width="3960" height="2880" style="fill:#FFFFFF;stroke:none"/>
	<rect x="0.00" y="0.00" width="3959.88" height="2880.00" style="fill:#FFFFFF"/>
	<rect x="2.88" y="2.88" width="3954.12" height="2874.24" style="fill:none;stroke:#FFFFFF;stroke-width:5.76"/>
	<line x1="465.80" y1="2489.19" x2="3859.02" y2="2489.19" style="stroke:#E8E8E8;stroke-width:5.76"/>
	<line x1="465.80" y1="2046.39" x2="3859.02" y2="2046.39" style="stroke:#E8E8E8;stroke-width:5.76"/>
	<line x1="465.80" y1="1603.73" x2="3859.02" y2="1603.73" style="stroke:#E8E8E8;stroke-width:5.76"/>
	<line x1="465.80" y1="1160.94" x2="3859.02" y2="1160.94" style="stroke:#E8E8E8;stroke-width:5.76"/>
	<line x1="465.80" y1="718.14" x2="3859.02" y2="718.14" style="stroke:#E8E8E8;stroke-width:5.76"/>
	<line x1="465.80" y1="275.35" x2="3859.02" y2="275.35" style="stroke:#E8E8E8;stroke-width:5.76"/>
	<line x1="465.80" y1="2489.19" x2="465.80" y2="275.35" style="stroke:#E8E8E8;stroke-width:5.76"/>
	<line x1="1144.44" y1="2489.19" x2="1144.44" y2="275.35" style="stroke:#E8E8E8;stroke-width:5.76"/>
	<line x1="1823.09" y1="2489.19" x2="1823.09" y2="275.35" style="stroke:#E8E8E8;stroke-width:5.76"/>
	<line x1="2501.73" y1="2489.19" x2="2501.73" y2="275.35" style="stroke:#E8E8E8;stroke-width:5.76"/>
	<line x1="3180.38" y1="2489.19" x2="3180.38" y2="275.35" style="stroke:#E8E8E8;stroke-width:5.76"/>
	<line x1="3859.02" y1="2489.19" x2="3859.02" y2="275.35" style="stroke:#E8E8E8;stroke-width:5.76"/>
	<path d=" M465.67 275.48 L499.70 301.96 L533.61 321.88 L567.52 340.69 L601.42 358.89 L635.33 376.46 L669.36 393.54 L703.27 410.00 L737.18 425.84 L771.09 441.31 L804.99 456.16 L839.02 470.51 L872.93 484.50 L906.84 497.99 L940.75 511.10 L974.65 523.85 L1008.69 536.35 L1042.59 548.35 L1076.50 560.23 L1110.41 571.74 L1144.32 583.00 L1178.35 593.89 L1212.26 604.66 L1246.16 615.18 L1280.07 625.58 L1314.10 635.60 L1348.01 645.50 L1381.92 655.28 L1415.82 664.81 L1449.73 674.09 L1483.76 683.25 L1517.67 692.28 L1551.58 701.07 L1585.48 709.60 L1619.39 718.02 L1653.42 726.19 L1687.33 734.23 L1721.24 742.03 L1755.15 749.70 L1789.05 757.13 L1823.09 764.43 L1856.99 771.48 L1890.90 778.41 L1924.81 785.09 L1958.71 791.53 L1992.75 797.96 L2026.65 804.15 L2060.56 810.09 L2094.47 815.91 L2128.38 821.60 L2162.41 827.05 L2196.32 832.37 L2230.22 837.57 L2264.13 842.52 L2298.16 847.34 L2332.07 852.17 L2365.98 856.75 L2399.88 861.08 L2433.79 865.41 L2467.82 869.62 L2501.73 873.70 L2535.64 877.79 L2569.55 881.62 L2603.45 885.46 L2637.48 889.17 L2671.39 892.76 L2705.30 896.23 L2739.21 899.69 L2773.11 903.16 L2807.14 906.37 L2841.05 909.71 L2874.96 912.81 L2908.87 915.90 L2942.78 919.00 L2976.81 921.97 L3010.71 924.94 L3044.62 927.78 L3078.53 930.63 L3112.44 933.48 L3146.47 936.20 L3180.38 938.92 L3214.28 941.52 L3248.19 944.12 L3282.10 946.72 L3316.13 949.32 L3350.04 951.79 L3383.94 954.27 L3417.85 956.74 L3451.88 959.09 L3485.79 961.57 L3519.70 963.92 L3553.61 966.27 L3587.51 968.50 L3621.54 970.85 L3655.45 973.08 L3689.36 975.30 L3723.27 977.53 L3757.17 979.76 L3791.20 981.99 L3825.11 984.09 L3859.02 986.19" stroke-linejoin="round" style="fill:none;stroke:#FF0000;stroke-width:8.64"/>
	<path d=" M465.67 275.48 L499.70 319.28 L533.61 350.72 L567.52 380.17 L601.42 408.26 L635.33 434.99 L669.36 459.99 L703.27 483.26 L737.18 504.92 L771.09 524.96 L804.99 543.40 L839.02 560.48 L872.93 576.20 L906.84 590.80 L940.75 604.54 L974.65 617.53 L1008.69 630.03 L1042.59 641.91 L1076.50 653.30 L1110.41 664.31 L1144.32 675.08 L1178.35 685.60 L1212.26 695.74 L1246.16 705.77 L1280.07 715.67 L1314.10 725.32 L1348.01 734.97 L1381.92 744.38 L1415.82 753.78 L1449.73 763.07 L1483.76 772.22 L1517.67 781.26 L1551.58 790.17 L1585.48 798.95 L1619.39 807.49 L1653.42 815.91 L1687.33 824.08 L1721.24 832.12 L1755.15 840.04 L1789.05 847.71 L1823.09 855.14 L1856.99 862.44 L1890.90 869.49 L1924.81 876.42 L1958.71 883.11 L1992.75 889.54 L2026.65 895.85 L2060.56 901.92 L2094.47 907.86 L2128.38 913.55 L2162.41 919.12 L2196.32 924.44 L2230.22 929.52 L2264.13 934.47 L2298.16 939.29 L2332.07 943.87 L2365.98 948.33 L2399.88 952.66 L2433.79 956.86 L2467.82 960.83 L2501.73 964.79 L2535.64 968.50 L2569.55 972.21 L2603.45 975.68 L2637.48 979.14 L2671.39 982.48 L2705.30 985.82 L2739.21 988.92 L2773.11 992.01 L2807.14 994.98 L2841.05 997.95 L2874.96 1000.80 L2908.87 1003.64 L2942.78 1006.37 L2976.81 1008.97 L3010.71 1011.56 L3044.62 1014.16 L3078.53 1016.64 L3112.44 1019.11 L3146.47 1021.46 L3180.38 1023.82 L3214.28 1026.17 L3248.19 1028.39 L3282.10 1030.62 L3316.13 1032.85 L3350.04 1035.08 L3383.94 1037.18 L3417.85 1039.28 L3451.88 1041.27 L3485.79 1043.37 L3519.70 1045.35 L3553.61 1047.33 L3587.51 1049.31 L3621.54 1051.29 L3655.45 1053.15 L3689.36 1055.00 L3723.27 1056.98 L3757.17 1058.84 L3791.20 1060.57 L3825.11 1062.43 L3859.02 1064.28" stroke-linejoin="round" style="fill:none;stroke:#0000FF;stroke-width:8.64"/>
	<path d=" M465.67 275.48 L499.70 396.51 L533.61 474.35 L567.52 535.98 L601.42 587.46 L635.33 631.27 L669.36 668.89 L703.27 701.44 L737.18 729.78 L771.09 754.65 L804.99 776.43 L839.02 795.74 L872.93 812.82 L906.84 828.16 L940.75 842.27 L974.65 855.39 L1008.69 867.51 L1042.59 879.02 L1076.50 889.91 L1110.41 900.43 L1144.32 910.46 L1178.35 920.36 L1212.26 929.89 L1246.16 939.17 L1280.07 948.33 L1314.10 957.36 L1348.01 966.27 L1381.92 975.06 L1415.82 983.84 L1449.73 992.38 L1483.76 1000.92 L1517.67 1009.34 L1551.58 1017.63 L1585.48 1025.67 L1619.39 1033.59 L1653.42 1041.27 L1687.33 1048.69 L1721.24 1055.99 L1755.15 1063.05 L1789.05 1069.85 L1823.09 1076.53 L1856.99 1082.97 L1890.90 1089.16 L1924.81 1095.10 L1958.71 1100.79 L1992.75 1106.36 L2026.65 1111.56 L2060.56 1116.63 L2094.47 1121.58 L2128.38 1126.16 L2162.41 1130.62 L2196.32 1134.82 L2230.22 1138.78 L2264.13 1142.62 L2298.16 1146.33 L2332.07 1149.67 L2365.98 1153.01 L2399.88 1156.11 L2433.79 1159.08 L2467.82 1161.93 L2501.73 1164.65 L2535.64 1167.25 L2569.55 1169.72 L2603.45 1172.07 L2637.48 1174.30 L2671.39 1176.53 L2705.30 1178.63 L2739.21 1180.61 L2773.11 1182.47 L2807.14 1184.32 L2841.05 1186.06 L2874.96 1187.79 L2908.87 1189.40 L2942.78 1191.01 L2976.81 1192.49 L3010.71 1193.98 L3044.62 1195.46 L3078.53 1196.82 L3112.44 1198.18 L3146.47 1199.42 L3180.38 1200.66 L3214.28 1201.90 L3248.19 1203.14 L3282.10 1204.25 L3316.13 1205.36 L3350.04 1206.48 L3383.94 1207.59 L3417.85 1208.70 L3451.88 1209.69 L3485.79 1210.68 L3519.70 1211.67 L3553.61 1212.66 L3587.51 1213.65 L3621.54 1214.52 L3655.45 1215.51 L3689.36 1216.38 L3723.27 1217.37 L3757.17 1218.23 L3791.20 1219.10 L3825.11 1219.97 L3859.02 1220.83" stroke-linejoin="round" style="fill:none;stroke:#008000;stroke-width:8.64"/>
	<line x1="465.67" y1="275.48" x2="498.09" y2="323.00" style="stroke:#FF0000;stroke-width:8.64"/>
	<line x1="517.89" y1="343.91" x2="533.61" y2="360.00" style="stroke:#FF0000;stroke-width:8.64"/>
	<line x1="533.61" y1="360.00" x2="560.22" y2="382.89" style="stroke:#FF0000;stroke-width:8.64"/>
	<line x1="582.74" y1="400.84" x2="601.42" y2="414.82" style="stroke:#FF0000;stroke-width:8.64"/>
	<line x1="601.42" y1="414.82" x2="629.64" y2="434.25" style="stroke:#FF0000;stroke-width:8.64"/>
	<line x1="653.77" y1="449.85" x2="669.36" y2="459.75" style="stroke:#FF0000;stroke-width:8.64"/>
	<line x1="669.36" y1="459.75" x2="702.90" y2="479.79" style="stroke:#FF0000;stroke-width:8.64"/>
	<line x1="728.02" y1="494.15" x2="737.18" y2="499.35" style="stroke:#FF0000;stroke-width:8.64"/>
	<line x1="737.18" y1="499.35" x2="771.09" y2="517.66" style="stroke:#FF0000;stroke-width:8.64"/>
	<line x1="771.09" y1="517.66" x2="778.51" y2="521.50" style="stroke:#FF0000;stroke-width:8.64"/>
	<line x1="804.00" y1="534.86" x2="804.99" y2="535.36" style="stroke:#FF0000;stroke-width:8.64"/>
	<line x1="804.99" y1="535.36" x2="839.02" y2="552.44" style="stroke:#FF0000;stroke-width:8.64"/>
	<line x1="839.02" y1="552.44" x2="855.61" y2="560.48" style="stroke:#FF0000;stroke-width:8.64"/>
	<line x1="881.60" y1="572.98" x2="906.84" y2="584.74" style="stroke:#FF0000;stroke-width:8.64"/>
	<line x1="906.84" y1="584.74" x2="933.94" y2="597.11" style="stroke:#FF0000;stroke-width:8.64"/>
	<line x1="960.30" y1="608.75" x2="974.65" y2="615.06" style="stroke:#FF0000;stroke-width:8.64"/>
	<line x1="974.65" y1="615.06" x2="1008.69" y2="629.54" style="stroke:#FF0000;stroke-width:8.64"/>
	<line x1="1008.69" y1="629.54" x2="1013.14" y2="631.39" style="stroke:#FF0000;stroke-width:8.64"/>
	<line x1="1039.87" y1="642.41" x2="1042.59" y2="643.52" style="stroke:#FF0000;stroke-width:8.64"/>
	<line x1="1042.59" y1="643.52" x2="1076.50" y2="657.13" style="stroke:#FF0000;stroke-width:8.64"/>
	<line x1="1076.50" y1="657.13" x2="1093.33" y2="663.69" style="stroke:#FF0000;stroke-width:8.64"/>
	<line x1="1120.31" y1="673.96" x2="1144.32" y2="682.87" style="stroke:#FF0000;stroke-width:8.64"/>
	<line x1="1144.32" y1="682.87" x2="1174.26" y2="693.76" style="stroke:#FF0000;stroke-width:8.64"/>
	<line x1="1201.49" y1="703.29" x2="1212.26" y2="707.13" style="stroke:#FF0000;stroke-width:8.64"/>
	<line x1="1212.26" y1="707.13" x2="1246.16" y2="718.76" style="stroke:#FF0000;stroke-width:8.64"/>
	<line x1="1246.16" y1="718.76" x2="1255.82" y2="721.98" style="stroke:#FF0000;stroke-width:8.64"/>
	<line x1="1283.16" y1="731.01" x2="1314.10" y2="740.91" style="stroke:#FF0000;stroke-width:8.64"/>
	<line x1="1314.10" y1="740.91" x2="1338.23" y2="748.34" style="stroke:#FF0000;stroke-width:8.64"/>
	<line x1="1365.70" y1="756.75" x2="1381.92" y2="761.71" style="stroke:#FF0000;stroke-width:8.64"/>
	<line x1="1381.92" y1="761.71" x2="1415.82" y2="771.73" style="stroke:#FF0000;stroke-width:8.64"/>
	<line x1="1415.82" y1="771.73" x2="1420.90" y2="773.21" style="stroke:#FF0000;stroke-width:8.64"/>
	<line x1="1448.62" y1="781.13" x2="1449.73" y2="781.38" style="stroke:#FF0000;stroke-width:8.64"/>
	<line x1="1449.73" y1="781.38" x2="1483.76" y2="790.79" style="stroke:#FF0000;stroke-width:8.64"/>
	<line x1="1483.76" y1="790.79" x2="1504.18" y2="796.36" style="stroke:#FF0000;stroke-width:8.64"/>
	<line x1="1532.03" y1="803.78" x2="1551.58" y2="808.86" style="stroke:#FF0000;stroke-width:8.64"/>
	<line x1="1551.58" y1="808.86" x2="1585.48" y2="817.52" style="stroke:#FF0000;stroke-width:8.64"/>
	<line x1="1585.48" y1="817.52" x2="1587.71" y2="818.01" style="stroke:#FF0000;stroke-width:8.64"/>
	<line x1="1615.68" y1="824.94" x2="1619.39" y2="825.93" style="stroke:#FF0000;stroke-width:8.64"/>
	<line x1="1619.39" y1="825.93" x2="1653.42" y2="834.10" style="stroke:#FF0000;stroke-width:8.64"/>
	<line x1="1653.42" y1="834.10" x2="1671.62" y2="838.31" style="stroke:#FF0000;stroke-width:8.64"/>
	<line x1="1699.71" y1="844.74" x2="1721.24" y2="849.69" style="stroke:#FF0000;stroke-width:8.64"/>
	<line x1="1721.24" y1="849.69" x2="1755.15" y2="857.24" style="stroke:#FF0000;stroke-width:8.64"/>
	<line x1="1755.15" y1="857.24" x2="1755.89" y2="857.37" style="stroke:#FF0000;stroke-width:8.64"/>
	<line x1="1784.10" y1="863.43" x2="1789.05" y2="864.42" style="stroke:#FF0000;stroke-width:8.64"/>
	<line x1="1789.05" y1="864.42" x2="1823.09" y2="871.60" style="stroke:#FF0000;stroke-width:8.64"/>
	<line x1="1823.09" y1="871.60" x2="1840.53" y2="875.19" style="stroke:#FF0000;stroke-width:8.64"/>
	<line x1="1868.75" y1="880.88" x2="1890.90" y2="885.21" style="stroke:#FF0000;stroke-width:8.64"/>
	<line x1="1890.90" y1="885.21" x2="1924.81" y2="891.77" style="stroke:#FF0000;stroke-width:8.64"/>
	<line x1="1924.81" y1="891.77" x2="1925.18" y2="891.89" style="stroke:#FF0000;stroke-width:8.64"/>
	<line x1="1953.52" y1="897.09" x2="1958.71" y2="898.08" style="stroke:#FF0000;stroke-width:8.64"/>
	<line x1="1958.71" y1="898.08" x2="1992.75" y2="904.27" style="stroke:#FF0000;stroke-width:8.64"/>
	<line x1="1992.75" y1="904.27" x2="2010.19" y2="907.49" style="stroke:#FF0000;stroke-width:8.64"/>
	<line x1="2038.66" y1="912.44" x2="2060.56" y2="916.15" style="stroke:#FF0000;stroke-width:8.64"/>
	<line x1="2060.56" y1="916.15" x2="2094.47" y2="921.84" style="stroke:#FF0000;stroke-width:8.64"/>
	<line x1="2094.47" y1="921.84" x2="2095.34" y2="921.97" style="stroke:#FF0000;stroke-width:8.64"/>
	<line x1="2123.80" y1="926.67" x2="2128.38" y2="927.41" style="stroke:#FF0000;stroke-width:8.64"/>
	<line x1="2128.38" y1="927.41" x2="2162.41" y2="932.73" style="stroke:#FF0000;stroke-width:8.64"/>
	<line x1="2162.41" y1="932.73" x2="2180.72" y2="935.58" style="stroke:#FF0000;stroke-width:8.64"/>
	<line x1="2209.18" y1="939.91" x2="2230.22" y2="943.13" style="stroke:#FF0000;stroke-width:8.64"/>
	<line x1="2230.22" y1="943.13" x2="2264.13" y2="948.20" style="stroke:#FF0000;stroke-width:8.64"/>
	<line x1="2264.13" y1="948.20" x2="2266.11" y2="948.45" style="stroke:#FF0000;stroke-width:8.64"/>
	<line x1="2294.70" y1="952.53" x2="2298.16" y2="953.03" style="stroke:#FF0000;stroke-width:8.64"/>
	<line x1="2298.16" y1="953.03" x2="2332.07" y2="957.73" style="stroke:#FF0000;stroke-width:8.64"/>
	<line x1="2332.07" y1="957.73" x2="2351.74" y2="960.45" style="stroke:#FF0000;stroke-width:8.64"/>
	<line x1="2380.33" y1="964.29" x2="2399.88" y2="966.89" style="stroke:#FF0000;stroke-width:8.64"/>
	<line x1="2399.88" y1="966.89" x2="2433.79" y2="971.34" style="stroke:#FF0000;stroke-width:8.64"/>
	<line x1="2433.79" y1="971.34" x2="2437.38" y2="971.72" style="stroke:#FF0000;stroke-width:8.64"/>
	<line x1="2465.97" y1="975.30" x2="2467.82" y2="975.55" style="stroke:#FF0000;stroke-width:8.64"/>
	<line x1="2467.82" y1="975.55" x2="2501.73" y2="979.76" style="stroke:#FF0000;stroke-width:8.64"/>
	<line x1="2501.73" y1="979.76" x2="2523.14" y2="982.48" style="stroke:#FF0000;stroke-width:8.64"/>
	<line x1="2551.72" y1="985.82" x2="2569.55" y2="987.93" style="stroke:#FF0000;stroke-width:8.64"/>
	<line x1="2569.55" y1="987.93" x2="2603.45" y2="991.89" style="stroke:#FF0000;stroke-width:8.64"/>
	<line x1="2603.45" y1="991.89" x2="2608.90" y2="992.51" style="stroke:#FF0000;stroke-width:8.64"/>
	<line x1="2637.48" y1="995.72" x2="2637.48" y2="995.72" style="stroke:#FF0000;stroke-width:8.64"/>
	<line x1="2637.48" y1="995.72" x2="2671.39" y2="999.56" style="stroke:#FF0000;stroke-width:8.64"/>
	<line x1="2671.39" y1="999.56" x2="2694.66" y2="1002.16" style="stroke:#FF0000;stroke-width:8.64"/>
	<line x1="2723.37" y1="1005.13" x2="2739.21" y2="1006.86" style="stroke:#FF0000;stroke-width:8.64"/>
	<line x1="2739.21" y1="1006.86" x2="2773.11" y2="1010.45" style="stroke:#FF0000;stroke-width:8.64"/>
	<line x1="2773.11" y1="1010.45" x2="2780.54" y2="1011.19" style="stroke:#FF0000;stroke-width:8.64"/>
	<line x1="2809.25" y1="1014.16" x2="2841.05" y2="1017.38" style="stroke:#FF0000;stroke-width:8.64"/>
	<line x1="2841.05" y1="1017.38" x2="2866.55" y2="1019.98" style="stroke:#FF0000;stroke-width:8.64"/>
	<line x1="2895.13" y1="1022.83" x2="2908.87" y2="1024.19" style="stroke:#FF0000;stroke-width:8.64"/>
	<line x1="2908.87" y1="1024.19" x2="2942.78" y2="1027.40" style="stroke:#FF0000;stroke-width:8.64"/>
	<line x1="2942.78" y1="1027.40" x2="2952.43" y2="1028.27" style="stroke:#FF0000;stroke-width:8.64"/>
	<line x1="2981.14" y1="1030.99" x2="3010.71" y2="1033.84" style="stroke:#FF0000;stroke-width:8.64"/>
	<line x1="3010.71" y1="1033.84" x2="3038.43" y2="1036.44" style="stroke:#FF0000;stroke-width:8.64"/>
	<line x1="3067.27" y1="1038.91" x2="3078.53" y2="1040.03" style="stroke:#FF0000;stroke-width:8.64"/>
	<line x1="3078.53" y1="1040.03" x2="3112.44" y2="1043.00" style="stroke:#FF0000;stroke-width:8.64"/>
	<line x1="3112.44" y1="1043.00" x2="3124.56" y2="1044.11" style="stroke:#FF0000;stroke-width:8.64"/>
	<line x1="3153.27" y1="1046.59" x2="3180.38" y2="1048.94" style="stroke:#FF0000;stroke-width:8.64"/>
	<line x1="3180.38" y1="1048.94" x2="3210.57" y2="1051.54" style="stroke:#FF0000;stroke-width:8.64"/>
	<line x1="3239.28" y1="1054.01" x2="3248.19" y2="1054.75" style="stroke:#FF0000;stroke-width:8.64"/>
	<line x1="3248.19" y1="1054.75" x2="3282.10" y2="1057.60" style="stroke:#FF0000;stroke-width:8.64"/>
	<line x1="3282.10" y1="1057.60" x2="3296.70" y2="1058.84" style="stroke:#FF0000;stroke-width:8.64"/>
	<line x1="3325.41" y1="1061.19" x2="3350.04" y2="1063.17" style="stroke:#FF0000;stroke-width:8.64"/>
	<line x1="3350.04" y1="1063.17" x2="3382.83" y2="1065.77" style="stroke:#FF0000;stroke-width:8.64"/>
	<line x1="3411.54" y1="1068.12" x2="3417.85" y2="1068.61" style="stroke:#FF0000;stroke-width:8.64"/>
	<line x1="3417.85" y1="1068.61" x2="3451.88" y2="1071.34" style="stroke:#FF0000;stroke-width:8.64"/>
	<line x1="3451.88" y1="1071.34" x2="3468.96" y2="1072.70" style="stroke:#FF0000;stroke-width:8.64"/>
	<line x1="3497.55" y1="1074.80" x2="3519.70" y2="1076.53" style="stroke:#FF0000;stroke-width:8.64"/>
	<line x1="3519.70" y1="1076.53" x2="3553.61" y2="1079.13" style="stroke:#FF0000;stroke-width:8.64"/>
	<line x1="3553.61" y1="1079.13" x2="3554.97" y2="1079.26" style="stroke:#FF0000;stroke-width:8.64"/>
	<line x1="3583.68" y1="1081.49" x2="3587.51" y2="1081.73" style="stroke:#FF0000;stroke-width:8.64"/>
	<line x1="3587.51" y1="1081.73" x2="3621.54" y2="1084.33" style="stroke:#FF0000;stroke-width:8.64"/>
	<line x1="3621.54" y1="1084.33" x2="3641.10" y2="1085.82" style="stroke:#FF0000;stroke-width:8.64"/>
	<line x1="3669.81" y1="1087.80" x2="3689.36" y2="1089.28" style="stroke:#FF0000;stroke-width:8.64"/>
	<line x1="3689.36" y1="1089.28" x2="3723.27" y2="1091.76" style="stroke:#FF0000;stroke-width:8.64"/>
	<line x1="3723.27" y1="1091.76" x2="3727.23" y2="1092.00" style="stroke:#FF0000;stroke-width:8.64"/>
	<line x1="3755.94" y1="1094.11" x2="3757.17" y2="1094.23" style="stroke:#FF0000;stroke-width:8.64"/>
	<line x1="3757.17" y1="1094.23" x2="3791.20" y2="1096.58" style="stroke:#FF0000;stroke-width:8.64"/>
	<line x1="3791.20" y1="1096.58" x2="3813.48" y2="1098.19" style="stroke:#FF0000;stroke-width:8.64"/>
	<line x1="3842.07" y1="1100.30" x2="3859.02" y2="1101.41" style="stroke:#FF0000;stroke-width:8.64"/>
	<path d="" stroke-linejoin="round" style="fill:none;stroke:#FF0000;stroke-width:8.64"/>
	<line x1="465.67" y1="275.48" x2="487.70" y2="328.69" style="stroke:#0000FF;stroke-width:8.64"/>
	<line x1="498.71" y1="355.30" x2="499.70" y2="357.65" style="stroke:#0000FF;stroke-width:8.64"/>
	<line x1="499.70" y1="357.65" x2="528.91" y2="404.30" style="stroke:#0000FF;stroke-width:8.64"/>
	<line x1="545.61" y1="427.69" x2="567.52" y2="456.65" style="stroke:#0000FF;stroke-width:8.64"/>
	<line x1="567.52" y1="456.65" x2="581.50" y2="472.74" style="stroke:#0000FF;stroke-width:8.64"/>
	<line x1="600.43" y1="494.52" x2="601.42" y2="495.63" style="stroke:#0000FF;stroke-width:8.64"/>
	<line x1="601.42" y1="495.63" x2="635.33" y2="530.16" style="stroke:#0000FF;stroke-width:8.64"/>
	<line x1="635.33" y1="530.16" x2="641.02" y2="535.36" style="stroke:#0000FF;stroke-width:8.64"/>
	<line x1="662.43" y1="554.66" x2="669.36" y2="560.98" style="stroke:#0000FF;stroke-width:8.64"/>
	<line x1="669.36" y1="560.98" x2="703.27" y2="588.70" style="stroke:#0000FF;stroke-width:8.64"/>
	<line x1="703.27" y1="588.70" x2="706.86" y2="591.30" style="stroke:#0000FF;stroke-width:8.64"/>
	<line x1="730.00" y1="608.37" x2="737.18" y2="613.70" style="stroke:#0000FF;stroke-width:8.64"/>
	<line x1="737.18" y1="613.70" x2="771.09" y2="636.34" style="stroke:#0000FF;stroke-width:8.64"/>
	<line x1="771.09" y1="636.34" x2="777.89" y2="640.43" style="stroke:#0000FF;stroke-width:8.64"/>
	<line x1="802.39" y1="655.52" x2="804.99" y2="657.13" style="stroke:#0000FF;stroke-width:8.64"/>
	<line x1="804.99" y1="657.13" x2="839.02" y2="676.07" style="stroke:#0000FF;stroke-width:8.64"/>
	<line x1="839.02" y1="676.07" x2="852.88" y2="683.12" style="stroke:#0000FF;stroke-width:8.64"/>
	<line x1="878.63" y1="696.12" x2="906.84" y2="709.60" style="stroke:#0000FF;stroke-width:8.64"/>
	<line x1="906.84" y1="709.60" x2="930.85" y2="720.37" style="stroke:#0000FF;stroke-width:8.64"/>
	<line x1="957.33" y1="731.63" x2="974.65" y2="738.93" style="stroke:#0000FF;stroke-width:8.64"/>
	<line x1="974.65" y1="738.93" x2="1008.69" y2="752.42" style="stroke:#0000FF;stroke-width:8.64"/>
	<line x1="1008.69" y1="752.42" x2="1010.79" y2="753.29" style="stroke:#0000FF;stroke-width:8.64"/>
	<line x1="1037.64" y1="763.31" x2="1042.59" y2="765.17" style="stroke:#0000FF;stroke-width:8.64"/>
	<line x1="1042.59" y1="765.17" x2="1076.50" y2="777.42" style="stroke:#0000FF;stroke-width:8.64"/>
	<line x1="1076.50" y1="777.42" x2="1091.97" y2="782.74" style="stroke:#0000FF;stroke-width:8.64"/>
	<line x1="1119.19" y1="792.15" x2="1144.32" y2="800.56" style="stroke:#0000FF;stroke-width:8.64"/>
	<line x1="1144.32" y1="800.56" x2="1173.77" y2="810.09" style="stroke:#0000FF;stroke-width:8.64"/>
	<line x1="1201.24" y1="818.76" x2="1212.26" y2="822.22" style="stroke:#0000FF;stroke-width:8.64"/>
	<line x1="1212.26" y1="822.22" x2="1246.16" y2="832.49" style="stroke:#0000FF;stroke-width:8.64"/>
	<line x1="1246.16" y1="832.49" x2="1256.31" y2="835.59" style="stroke:#0000FF;stroke-width:8.64"/>
	<line x1="1283.91" y1="843.88" x2="1314.10" y2="852.54" style="stroke:#0000FF;stroke-width:8.64"/>
	<line x1="1314.10" y1="852.54" x2="1339.35" y2="859.72" style="stroke:#0000FF;stroke-width:8.64"/>
	<line x1="1367.07" y1="867.51" x2="1381.92" y2="871.60" style="stroke:#0000FF;stroke-width:8.64"/>
	<line x1="1381.92" y1="871.60" x2="1415.82" y2="880.88" style="stroke:#0000FF;stroke-width:8.64"/>
	<line x1="1415.82" y1="880.88" x2="1422.63" y2="882.74" style="stroke:#0000FF;stroke-width:8.64"/>
	<line x1="1450.47" y1="890.16" x2="1483.76" y2="898.95" style="stroke:#0000FF;stroke-width:8.64"/>
	<line x1="1483.76" y1="898.95" x2="1506.16" y2="904.64" style="stroke:#0000FF;stroke-width:8.64"/>
	<line x1="1534.01" y1="911.82" x2="1551.58" y2="916.27" style="stroke:#0000FF;stroke-width:8.64"/>
	<line x1="1551.58" y1="916.27" x2="1585.48" y2="924.57" style="stroke:#0000FF;stroke-width:8.64"/>
	<line x1="1585.48" y1="924.57" x2="1589.94" y2="925.68" style="stroke:#0000FF;stroke-width:8.64"/>
	<line x1="1618.03" y1="932.36" x2="1619.39" y2="932.73" style="stroke:#0000FF;stroke-width:8.64"/>
	<line x1="1619.39" y1="932.73" x2="1653.42" y2="940.78" style="stroke:#0000FF;stroke-width:8.64"/>
	<line x1="1653.42" y1="940.78" x2="1674.09" y2="945.48" style="stroke:#0000FF;stroke-width:8.64"/>
	<line x1="1702.18" y1="951.79" x2="1721.24" y2="956.12" style="stroke:#0000FF;stroke-width:8.64"/>
	<line x1="1721.24" y1="956.12" x2="1755.15" y2="963.55" style="stroke:#0000FF;stroke-width:8.64"/>
	<line x1="1755.15" y1="963.55" x2="1758.36" y2="964.17" style="stroke:#0000FF;stroke-width:8.64"/>
	<line x1="1786.58" y1="970.23" x2="1789.05" y2="970.73" style="stroke:#0000FF;stroke-width:8.64"/>
	<line x1="1789.05" y1="970.73" x2="1823.09" y2="977.78" style="stroke:#0000FF;stroke-width:8.64"/>
	<line x1="1823.09" y1="977.78" x2="1843.01" y2="981.74" style="stroke:#0000FF;stroke-width:8.64"/>
	<line x1="1871.22" y1="987.31" x2="1890.90" y2="991.27" style="stroke:#0000FF;stroke-width:8.64"/>
	<line x1="1890.90" y1="991.27" x2="1924.81" y2="997.70" style="stroke:#0000FF;stroke-width:8.64"/>
	<line x1="1924.81" y1="997.70" x2="1927.78" y2="998.32" style="stroke:#0000FF;stroke-width:8.64"/>
	<line x1="1956.12" y1="1003.52" x2="1958.71" y2="1004.02" style="stroke:#0000FF;stroke-width:8.64"/>
	<line x1="1958.71" y1="1004.02" x2="1992.75" y2="1010.20" style="stroke:#0000FF;stroke-width:8.64"/>
	<line x1="1992.75" y1="1010.20" x2="2012.67" y2="1013.67" style="stroke:#0000FF;stroke-width:8.64"/>
	<line x1="2041.13" y1="1018.49" x2="2060.56" y2="1021.84" style="stroke:#0000FF;stroke-width:8.64"/>
	<line x1="2060.56" y1="1021.84" x2="2094.47" y2="1027.40" style="stroke:#0000FF;stroke-width:8.64"/>
	<line x1="2094.47" y1="1027.40" x2="2097.93" y2="1027.90" style="stroke:#0000FF;stroke-width:8.64"/>
	<line x1="2126.40" y1="1032.60" x2="2128.38" y2="1032.85" style="stroke:#0000FF;stroke-width:8.64"/>
	<line x1="2128.38" y1="1032.85" x2="2162.41" y2="1038.05" style="stroke:#0000FF;stroke-width:8.64"/>
	<line x1="2162.41" y1="1038.05" x2="2183.32" y2="1041.14" style="stroke:#0000FF;stroke-width:8.64"/>
	<line x1="2211.78" y1="1045.35" x2="2230.22" y2="1048.07" style="stroke:#0000FF;stroke-width:8.64"/>
	<line x1="2230.22" y1="1048.07" x2="2264.13" y2="1052.90" style="stroke:#0000FF;stroke-width:8.64"/>
	<line x1="2264.13" y1="1052.90" x2="2268.83" y2="1053.52" style="stroke:#0000FF;stroke-width:8.64"/>
	<line x1="2297.30" y1="1057.35" x2="2298.16" y2="1057.48" style="stroke:#0000FF;stroke-width:8.64"/>
	<line x1="2298.16" y1="1057.48" x2="2332.07" y2="1061.93" style="stroke:#0000FF;stroke-width:8.64"/>
	<line x1="2332.07" y1="1061.93" x2="2354.47" y2="1064.78" style="stroke:#0000FF;stroke-width:8.64"/>
	<line x1="2383.05" y1="1068.37" x2="2399.88" y2="1070.47" style="stroke:#0000FF;stroke-width:8.64"/>
	<line x1="2399.88" y1="1070.47" x2="2433.79" y2="1074.55" style="stroke:#0000FF;stroke-width:8.64"/>
	<line x1="2433.79" y1="1074.55" x2="2440.10" y2="1075.30" style="stroke:#0000FF;stroke-width:8.64"/>
	<line x1="2468.81" y1="1078.76" x2="2501.73" y2="1082.48" style="stroke:#0000FF;stroke-width:8.64"/>
	<line x1="2501.73" y1="1082.48" x2="2526.11" y2="1085.20" style="stroke:#0000FF;stroke-width:8.64"/>
	<line x1="2554.70" y1="1088.29" x2="2569.55" y2="1089.90" style="stroke:#0000FF;stroke-width:8.64"/>
	<line x1="2569.55" y1="1089.90" x2="2603.45" y2="1093.49" style="stroke:#0000FF;stroke-width:8.64"/>
	<line x1="2603.45" y1="1093.49" x2="2611.99" y2="1094.36" style="stroke:#0000FF;stroke-width:8.64"/>
	<line x1="2640.70" y1="1097.33" x2="2671.39" y2="1100.42" style="stroke:#0000FF;stroke-width:8.64"/>
	<line x1="2671.39" y1="1100.42" x2="2697.87" y2="1103.02" style="stroke:#0000FF;stroke-width:8.64"/>
	<line x1="2726.58" y1="1105.74" x2="2739.21" y2="1106.98" style="stroke:#0000FF;stroke-width:8.64"/>
	<line x1="2739.21" y1="1106.98" x2="2773.11" y2="1110.20" style="stroke:#0000FF;stroke-width:8.64"/>
	<line x1="2773.11" y1="1110.20" x2="2783.88" y2="1111.19" style="stroke:#0000FF;stroke-width:8.64"/>
	<line x1="2812.47" y1="1113.78" x2="2841.05" y2="1116.38" style="stroke:#0000FF;stroke-width:8.64"/>
	<line x1="2841.05" y1="1116.38" x2="2869.89" y2="1118.86" style="stroke:#0000FF;stroke-width:8.64"/>
	<line x1="2898.60" y1="1121.33" x2="2908.87" y2="1122.20" style="stroke:#0000FF;stroke-width:8.64"/>
	<line x1="2908.87" y1="1122.20" x2="2942.78" y2="1125.05" style="stroke:#0000FF;stroke-width:8.64"/>
	<line x1="2942.78" y1="1125.05" x2="2955.89" y2="1126.16" style="stroke:#0000FF;stroke-width:8.64"/>
	<line x1="2984.73" y1="1128.51" x2="3010.71" y2="1130.62" style="stroke:#0000FF;stroke-width:8.64"/>
	<line x1="3010.71" y1="1130.62" x2="3042.02" y2="1133.21" style="stroke:#0000FF;stroke-width:8.64"/>
	<line x1="3070.73" y1="1135.44" x2="3078.53" y2="1136.06" style="stroke:#0000FF;stroke-width:8.64"/>
	<line x1="3078.53" y1="1136.06" x2="3112.44" y2="1138.66" style="stroke:#0000FF;stroke-width:8.64"/>
	<line x1="3112.44" y1="1138.66" x2="3128.15" y2="1139.90" style="stroke:#0000FF;stroke-width:8.64"/>
	<line x1="3156.86" y1="1142.00" x2="3180.38" y2="1143.73" style="stroke:#0000FF;stroke-width:8.64"/>
	<line x1="3180.38" y1="1143.73" x2="3214.28" y2="1146.21" style="stroke:#0000FF;stroke-width:8.64"/>
	<line x1="3242.99" y1="1148.31" x2="3248.19" y2="1148.68" style="stroke:#0000FF;stroke-width:8.64"/>
	<line x1="3248.19" y1="1148.68" x2="3282.10" y2="1151.03" style="stroke:#0000FF;stroke-width:8.64"/>
	<line x1="3282.10" y1="1151.03" x2="3300.41" y2="1152.40" style="stroke:#0000FF;stroke-width:8.64"/>
	<line x1="3329.25" y1="1154.38" x2="3350.04" y2="1155.86" style="stroke:#0000FF;stroke-width:8.64"/>
	<line x1="3350.04" y1="1155.86" x2="3383.94" y2="1158.09" style="stroke:#0000FF;stroke-width:8.64"/>
	<line x1="3383.94" y1="1158.09" x2="3386.67" y2="1158.21" style="stroke:#0000FF;stroke-width:8.64"/>
	<line x1="3415.38" y1="1160.32" x2="3417.85" y2="1160.44" style="stroke:#0000FF;stroke-width:8.64"/>
	<line x1="3417.85" y1="1160.44" x2="3451.88" y2="1162.67" style="stroke:#0000FF;stroke-width:8.64"/>
	<line x1="3451.88" y1="1162.67" x2="3472.92" y2="1164.03" style="stroke:#0000FF;stroke-width:8.64"/>
	<line x1="3501.63" y1="1165.89" x2="3519.70" y2="1167.12" style="stroke:#0000FF;stroke-width:8.64"/>
	<line x1="3519.70" y1="1167.12" x2="3553.61" y2="1169.23" style="stroke:#0000FF;stroke-width:8.64"/>
	<line x1="3553.61" y1="1169.23" x2="3559.17" y2="1169.60" style="stroke:#0000FF;stroke-width:8.64"/>
	<line x1="3587.88" y1="1171.45" x2="3621.54" y2="1173.56" style="stroke:#0000FF;stroke-width:8.64"/>
	<line x1="3621.54" y1="1173.56" x2="3645.30" y2="1175.04" style="stroke:#0000FF;stroke-width:8.64"/>
	<line x1="3674.14" y1="1176.78" x2="3689.36" y2="1177.64" style="stroke:#0000FF;stroke-width:8.64"/>
	<line x1="3689.36" y1="1177.64" x2="3723.27" y2="1179.75" style="stroke:#0000FF;stroke-width:8.64"/>
	<line x1="3723.27" y1="1179.75" x2="3731.56" y2="1180.24" style="stroke:#0000FF;stroke-width:8.64"/>
	<line x1="3760.39" y1="1181.97" x2="3791.20" y2="1183.83" style="stroke:#0000FF;stroke-width:8.64"/>
	<line x1="3791.20" y1="1183.83" x2="3817.81" y2="1185.31" style="stroke:#0000FF;stroke-width:8.64"/>
	<line x1="3846.52" y1="1187.05" x2="3859.02" y2="1187.79" style="stroke:#0000FF;stroke-width:8.64"/>
	<path d="" stroke-linejoin="round" style="fill:none;stroke:#0000FF;stroke-width:8.64"/>
	<line x1="465.67" y1="275.48" x2="474.33" y2="332.40" style="stroke:#008000;stroke-width:8.64"/>
	<line x1="478.67" y1="360.87" x2="487.33" y2="417.79" style="stroke:#008000;stroke-width:8.64"/>
	<line x1="491.66" y1="446.26" x2="499.70" y2="498.85" style="stroke:#008000;stroke-width:8.64"/>
	<line x1="499.70" y1="498.85" x2="500.82" y2="503.18" style="stroke:#008000;stroke-width:8.64"/>
	<line x1="508.12" y1="531.03" x2="522.84" y2="586.59" style="stroke:#008000;stroke-width:8.64"/>
	<line x1="530.39" y1="614.44" x2="533.61" y2="626.94" style="stroke:#008000;stroke-width:8.64"/>
	<line x1="533.61" y1="626.94" x2="549.82" y2="668.52" style="stroke:#008000;stroke-width:8.64"/>
	<line x1="560.34" y1="695.37" x2="567.52" y2="713.94" style="stroke:#008000;stroke-width:8.64"/>
	<line x1="567.52" y1="713.94" x2="585.21" y2="747.23" style="stroke:#008000;stroke-width:8.64"/>
	<line x1="598.83" y1="772.60" x2="601.42" y2="777.55" style="stroke:#008000;stroke-width:8.64"/>
	<line x1="601.42" y1="777.55" x2="630.88" y2="820.36" style="stroke:#008000;stroke-width:8.64"/>
	<line x1="649.19" y1="842.64" x2="669.36" y2="866.15" style="stroke:#008000;stroke-width:8.64"/>
	<line x1="669.36" y1="866.15" x2="688.54" y2="884.59" style="stroke:#008000;stroke-width:8.64"/>
	<line x1="709.83" y1="904.02" x2="737.18" y2="926.05" style="stroke:#008000;stroke-width:8.64"/>
	<line x1="737.18" y1="926.05" x2="755.62" y2="938.80" style="stroke:#008000;stroke-width:8.64"/>
	<line x1="779.75" y1="954.64" x2="804.99" y2="969.74" style="stroke:#008000;stroke-width:8.64"/>
	<line x1="804.99" y1="969.74" x2="829.87" y2="982.73" style="stroke:#008000;stroke-width:8.64"/>
	<line x1="855.86" y1="995.23" x2="872.93" y2="1003.15" style="stroke:#008000;stroke-width:8.64"/>
	<line x1="872.93" y1="1003.15" x2="906.84" y2="1017.26" style="stroke:#008000;stroke-width:8.64"/>
	<line x1="906.84" y1="1017.26" x2="908.70" y2="1018.00" style="stroke:#008000;stroke-width:8.64"/>
	<line x1="935.67" y1="1028.15" x2="940.75" y2="1030.13" style="stroke:#008000;stroke-width:8.64"/>
	<line x1="940.75" y1="1030.13" x2="974.65" y2="1041.88" style="stroke:#008000;stroke-width:8.64"/>
	<line x1="974.65" y1="1041.88" x2="990.12" y2="1046.83" style="stroke:#008000;stroke-width:8.64"/>
	<line x1="1017.60" y1="1055.62" x2="1042.59" y2="1063.29" style="stroke:#008000;stroke-width:8.64"/>
	<line x1="1042.59" y1="1063.29" x2="1072.79" y2="1072.08" style="stroke:#008000;stroke-width:8.64"/>
	<line x1="1100.51" y1="1079.75" x2="1110.41" y2="1082.48" style="stroke:#008000;stroke-width:8.64"/>
	<line x1="1110.41" y1="1082.48" x2="1144.32" y2="1091.51" style="stroke:#008000;stroke-width:8.64"/>
	<line x1="1144.32" y1="1091.51" x2="1156.20" y2="1094.48" style="stroke:#008000;stroke-width:8.64"/>
	<line x1="1184.16" y1="1101.53" x2="1212.26" y2="1108.46" style="stroke:#008000;stroke-width:8.64"/>
	<line x1="1212.26" y1="1108.46" x2="1240.10" y2="1115.15" style="stroke:#008000;stroke-width:8.64"/>
	<line x1="1268.07" y1="1121.71" x2="1280.07" y2="1124.55" style="stroke:#008000;stroke-width:8.64"/>
	<line x1="1280.07" y1="1124.55" x2="1314.10" y2="1132.22" style="stroke:#008000;stroke-width:8.64"/>
	<line x1="1314.10" y1="1132.22" x2="1324.25" y2="1134.58" style="stroke:#008000;stroke-width:8.64"/>
	<line x1="1352.34" y1="1140.89" x2="1381.92" y2="1147.32" style="stroke:#008000;stroke-width:8.64"/>
	<line x1="1381.92" y1="1147.32" x2="1408.65" y2="1153.14" style="stroke:#008000;stroke-width:8.64"/>
	<line x1="1436.86" y1="1159.08" x2="1449.73" y2="1161.80" style="stroke:#008000;stroke-width:8.64"/>
	<line x1="1449.73" y1="1161.80" x2="1483.76" y2="1168.98" style="stroke:#008000;stroke-width:8.64"/>
	<line x1="1483.76" y1="1168.98" x2="1493.17" y2="1170.96" style="stroke:#008000;stroke-width:8.64"/>
	<line x1="1521.51" y1="1176.78" x2="1551.58" y2="1182.72" style="stroke:#008000;stroke-width:8.64"/>
	<line x1="1551.58" y1="1182.72" x2="1577.94" y2="1187.79" style="stroke:#008000;stroke-width:8.64"/>
	<line x1="1606.28" y1="1193.23" x2="1619.39" y2="1195.71" style="stroke:#008000;stroke-width:8.64"/>
	<line x1="1619.39" y1="1195.71" x2="1653.42" y2="1202.02" style="stroke:#008000;stroke-width:8.64"/>
	<line x1="1653.42" y1="1202.02" x2="1662.95" y2="1203.75" style="stroke:#008000;stroke-width:8.64"/>
	<line x1="1691.29" y1="1208.83" x2="1721.24" y2="1213.90" style="stroke:#008000;stroke-width:8.64"/>
	<line x1="1721.24" y1="1213.90" x2="1748.09" y2="1218.48" style="stroke:#008000;stroke-width:8.64"/>
	<line x1="1776.56" y1="1223.18" x2="1789.05" y2="1225.16" style="stroke:#008000;stroke-width:8.64"/>
	<line x1="1789.05" y1="1225.16" x2="1823.09" y2="1230.61" style="stroke:#008000;stroke-width:8.64"/>
	<line x1="1823.09" y1="1230.61" x2="1833.36" y2="1232.22" style="stroke:#008000;stroke-width:8.64"/>
	<line x1="1861.82" y1="1236.42" x2="1890.90" y2="1240.76" style="stroke:#008000;stroke-width:8.64"/>
	<line x1="1890.90" y1="1240.76" x2="1918.87" y2="1244.72" style="stroke:#008000;stroke-width:8.64"/>
	<line x1="1947.45" y1="1248.55" x2="1958.71" y2="1250.16" style="stroke:#008000;stroke-width:8.64"/>
	<line x1="1958.71" y1="1250.16" x2="1992.75" y2="1254.62" style="stroke:#008000;stroke-width:8.64"/>
	<line x1="1992.75" y1="1254.62" x2="2004.38" y2="1256.23" style="stroke:#008000;stroke-width:8.64"/>
	<line x1="2032.96" y1="1259.81" x2="2060.56" y2="1263.16" style="stroke:#008000;stroke-width:8.64"/>
	<line x1="2060.56" y1="1263.16" x2="2090.26" y2="1266.62" style="stroke:#008000;stroke-width:8.64"/>
	<line x1="2118.85" y1="1269.84" x2="2128.38" y2="1270.83" style="stroke:#008000;stroke-width:8.64"/>
	<line x1="2128.38" y1="1270.83" x2="2162.41" y2="1274.54" style="stroke:#008000;stroke-width:8.64"/>
	<line x1="2162.41" y1="1274.54" x2="2176.14" y2="1276.03" style="stroke:#008000;stroke-width:8.64"/>
	<line x1="2204.85" y1="1278.87" x2="2230.22" y2="1281.35" style="stroke:#008000;stroke-width:8.64"/>
	<line x1="2230.22" y1="1281.35" x2="2262.03" y2="1284.32" style="stroke:#008000;stroke-width:8.64"/>
	<line x1="2290.74" y1="1287.04" x2="2298.16" y2="1287.66" style="stroke:#008000;stroke-width:8.64"/>
	<line x1="2298.16" y1="1287.66" x2="2332.07" y2="1290.51" style="stroke:#008000;stroke-width:8.64"/>
	<line x1="2332.07" y1="1290.51" x2="2348.16" y2="1291.87" style="stroke:#008000;stroke-width:8.64"/>
	<line x1="2376.87" y1="1294.22" x2="2399.88" y2="1295.95" style="stroke:#008000;stroke-width:8.64"/>
	<line x1="2399.88" y1="1295.95" x2="2433.79" y2="1298.55" style="stroke:#008000;stroke-width:8.64"/>
	<line x1="2433.79" y1="1298.55" x2="2434.29" y2="1298.67" style="stroke:#008000;stroke-width:8.64"/>
	<line x1="2463.00" y1="1300.65" x2="2467.82" y2="1301.02" style="stroke:#008000;stroke-width:8.64"/>
	<line x1="2467.82" y1="1301.02" x2="2501.73" y2="1303.38" style="stroke:#008000;stroke-width:8.64"/>
	<line x1="2501.73" y1="1303.38" x2="2520.42" y2="1304.61" style="stroke:#008000;stroke-width:8.64"/>
	<line x1="2549.25" y1="1306.59" x2="2569.55" y2="1307.95" style="stroke:#008000;stroke-width:8.64"/>
	<line x1="2569.55" y1="1307.95" x2="2603.45" y2="1310.06" style="stroke:#008000;stroke-width:8.64"/>
	<line x1="2603.45" y1="1310.06" x2="2606.67" y2="1310.31" style="stroke:#008000;stroke-width:8.64"/>
	<line x1="2635.38" y1="1311.91" x2="2637.48" y2="1312.04" style="stroke:#008000;stroke-width:8.64"/>
	<line x1="2637.48" y1="1312.04" x2="2671.39" y2="1314.02" style="stroke:#008000;stroke-width:8.64"/>
	<line x1="2671.39" y1="1314.02" x2="2692.80" y2="1315.26" style="stroke:#008000;stroke-width:8.64"/>
	<line x1="2721.63" y1="1316.74" x2="2739.21" y2="1317.73" style="stroke:#008000;stroke-width:8.64"/>
	<line x1="2739.21" y1="1317.73" x2="2773.11" y2="1319.46" style="stroke:#008000;stroke-width:8.64"/>
	<line x1="2773.11" y1="1319.46" x2="2779.18" y2="1319.71" style="stroke:#008000;stroke-width:8.64"/>
	<line x1="2807.89" y1="1321.20" x2="2841.05" y2="1322.93" style="stroke:#008000;stroke-width:8.64"/>
	<line x1="2841.05" y1="1322.93" x2="2865.43" y2="1324.04" style="stroke:#008000;stroke-width:8.64"/>
	<line x1="2894.14" y1="1325.40" x2="2908.87" y2="1326.02" style="stroke:#008000;stroke-width:8.64"/>
	<line x1="2908.87" y1="1326.02" x2="2942.78" y2="1327.63" style="stroke:#008000;stroke-width:8.64"/>
	<line x1="2942.78" y1="1327.63" x2="2951.68" y2="1328.00" style="stroke:#008000;stroke-width:8.64"/>
	<line x1="2980.52" y1="1329.24" x2="3010.71" y2="1330.48" style="stroke:#008000;stroke-width:8.64"/>
	<line x1="3010.71" y1="1330.48" x2="3037.94" y2="1331.59" style="stroke:#008000;stroke-width:8.64"/>
	<line x1="3066.77" y1="1332.83" x2="3078.53" y2="1333.32" style="stroke:#008000;stroke-width:8.64"/>
	<line x1="3078.53" y1="1333.32" x2="3112.44" y2="1334.56" style="stroke:#008000;stroke-width:8.64"/>
	<line x1="3112.44" y1="1334.56" x2="3124.44" y2="1335.06" style="stroke:#008000;stroke-width:8.64"/>
	<line x1="3153.15" y1="1336.17" x2="3180.38" y2="1337.16" style="stroke:#008000;stroke-width:8.64"/>
	<line x1="3180.38" y1="1337.16" x2="3210.82" y2="1338.27" style="stroke:#008000;stroke-width:8.64"/>
	<line x1="3239.53" y1="1339.39" x2="3248.19" y2="1339.64" style="stroke:#008000;stroke-width:8.64"/>
	<line x1="3248.19" y1="1339.64" x2="3282.10" y2="1340.87" style="stroke:#008000;stroke-width:8.64"/>
	<line x1="3282.10" y1="1340.87" x2="3297.20" y2="1341.37" style="stroke:#008000;stroke-width:8.64"/>
	<line x1="3326.03" y1="1342.36" x2="3350.04" y2="1343.10" style="stroke:#008000;stroke-width:8.64"/>
	<line x1="3350.04" y1="1343.10" x2="3383.57" y2="1344.21" style="stroke:#008000;stroke-width:8.64"/>
	<line x1="3412.41" y1="1345.08" x2="3417.85" y2="1345.33" style="stroke:#008000;stroke-width:8.64"/>
	<line x1="3417.85" y1="1345.33" x2="3451.88" y2="1346.44" style="stroke:#008000;stroke-width:8.64"/>
	<line x1="3451.88" y1="1346.44" x2="3469.95" y2="1347.06" style="stroke:#008000;stroke-width:8.64"/>
	<line x1="3498.78" y1="1347.80" x2="3519.70" y2="1348.55" style="stroke:#008000;stroke-width:8.64"/>
	<line x1="3519.70" y1="1348.55" x2="3553.61" y2="1349.54" style="stroke:#008000;stroke-width:8.64"/>
	<line x1="3553.61" y1="1349.54" x2="3556.33" y2="1349.66" style="stroke:#008000;stroke-width:8.64"/>
	<line x1="3585.16" y1="1350.53" x2="3587.51" y2="1350.53" style="stroke:#008000;stroke-width:8.64"/>
	<line x1="3587.51" y1="1350.53" x2="3621.54" y2="1351.52" style="stroke:#008000;stroke-width:8.64"/>
	<line x1="3621.54" y1="1351.52" x2="3642.70" y2="1352.13" style="stroke:#008000;stroke-width:8.64"/>
	<line x1="3671.54" y1="1353.00" x2="3689.36" y2="1353.50" style="stroke:#008000;stroke-width:8.64"/>
	<line x1="3689.36" y1="1353.50" x2="3723.27" y2="1354.49" style="stroke:#008000;stroke-width:8.64"/>
	<line x1="3723.27" y1="1354.49" x2="3729.08" y2="1354.73" style="stroke:#008000;stroke-width:8.64"/>
	<line x1="3757.92" y1="1355.48" x2="3791.20" y2="1356.34" style="stroke:#008000;stroke-width:8.64"/>
	<line x1="3791.20" y1="1356.34" x2="3815.46" y2="1356.96" style="stroke:#008000;stroke-width:8.64"/>
	<line x1="3844.29" y1="1357.83" x2="3859.02" y2="1358.20" style="stroke:#008000;stroke-width:8.64"/>
	<path d="" stroke-linejoin="round" style="fill:none;stroke:#008000;stroke-width:8.64"/>
	<line x1="465.80" y1="2489.19" x2="425.82" y2="2489.19" style="stroke:#000000;stroke-width:5.76"/>
	<text x="405.78" y="2524.21" style="font-family:'Helvetica';font-size:99.99px;fill:#000000" text-anchor="end">0.0</text>
	<line x1="465.80" y1="2046.39" x2="425.82" y2="2046.39" style="stroke:#000000;stroke-width:5.76"/>
	<text x="405.78" y="2081.42" style="font-family:'Helvetica';font-size:99.99px;fill:#000000" text-anchor="end">0.2</text>
	<line x1="465.80" y1="1603.73" x2="425.82" y2="1603.73" style="stroke:#000000;stroke-width:5.76"/>
	<text x="405.78" y="1638.75" style="font-family:'Helvetica';font-size:99.99px;fill:#000000" text-anchor="end">0.4</text>
	<line x1="465.80" y1="1160.94" x2="425.82" y2="1160.94" style="stroke:#000000;stroke-width:5.76"/>
	<text x="405.78" y="1195.96" style="font-family:'Helvetica';font-size:99.99px;fill:#000000" text-anchor="end">0.6</text>
	<line x1="465.80" y1="718.14" x2="425.82" y2="718.14" style="stroke:#000000;stroke-width:5.76"/>
	<text x="405.78" y="753.17" style="font-family:'Helvetica';font-size:99.99px;fill:#000000" text-anchor="end">0.8</text>
	<line x1="465.80" y1="275.35" x2="425.82" y2="275.35" style="stroke:#000000;stroke-width:5.76"/>
	<text x="405.78" y="310.38" style="font-family:'Helvetica';font-size:99.99px;fill:#000000" text-anchor="end">1.0</text>
	<line x1="465.80" y1="2489.19" x2="465.80" y2="275.35" style="stroke:#000000;stroke-width:5.76"/>
	<text x="190.71" y="1382.33" style="font-family:'Helvetica';font-size:99.99px;fill:#000000" transform="rotate(-90 190.71,1382.33)" text-anchor="middle">Relative Survival</text>
	<line x1="465.80" y1="2489.19" x2="465.80" y2="2529.16" style="stroke:#000000;stroke-width:5.76"/>
	<text x="465.80" y="2619.14" style="font-family:'Helvetica';font-size:99.99px;fill:#000000" text-anchor="middle">0</text>
	<line x1="1144.44" y1="2489.19" x2="1144.44" y2="2529.16" style="stroke:#000000;stroke-width:5.76"/>
	<text x="1144.44" y="2619.14" style="font-family:'Helvetica';font-size:99.99px;fill:#000000" text-anchor="middle">1</text>
	<line x1="1823.09" y1="2489.19" x2="1823.09" y2="2529.16" style="stroke:#000000;stroke-width:5.76"/>
	<text x="1823.09" y="2619.14" style="font-family:'Helvetica';font-size:99.99px;fill:#000000" text-anchor="middle">2</text>
	<line x1="2501.73" y1="2489.19" x2="2501.73" y2="2529.16" style="stroke:#000000;stroke-width:5.76"/>
	<text x="2501.73" y="2619.14" style="font-family:'Helvetica';font-size:99.99px;fill:#000000" text-anchor="middle">3</text>
	<line x1="3180.38" y1="2489.19" x2="3180.38" y2="2529.16" style="stroke:#000000;stroke-width:5.76"/>
	<text x="3180.38" y="2619.14" style="font-family:'Helvetica';font-size:99.99px;fill:#000000" text-anchor="middle">4</text>
	<line x1="3859.02" y1="2489.19" x2="3859.02" y2="2529.16" style="stroke:#000000;stroke-width:5.76"/>
	<text x="3859.02" y="2619.14" style="font-family:'Helvetica';font-size:99.99px;fill:#000000" text-anchor="middle">5</text>
	<line x1="465.80" y1="2489.19" x2="3859.02" y2="2489.19" style="stroke:#000000;stroke-width:5.76"/>
	<text x="2162.41" y="2729.16" style="font-family:'Helvetica';font-size:99.99px;fill:#000000" text-anchor="middle">Years from diagnosis</text>
	<line x1="543.51" y1="1661.52" x2="743.49" y2="1661.52" style="stroke:#FF0000;stroke-width:8.64"/>
	<line x1="543.51" y1="1801.49" x2="743.49" y2="1801.49" style="stroke:#0000FF;stroke-width:8.64"/>
	<line x1="543.51" y1="1941.45" x2="743.49" y2="1941.45" style="stroke:#008000;stroke-width:8.64"/>
	<line x1="543.51" y1="2081.42" x2="601.05" y2="2081.42" style="stroke:#FF0000;stroke-width:8.64"/>
	<line x1="629.89" y1="2081.42" x2="687.43" y2="2081.42" style="stroke:#FF0000;stroke-width:8.64"/>
	<line x1="716.26" y1="2081.42" x2="743.49" y2="2081.42" style="stroke:#FF0000;stroke-width:8.64"/>
	<line x1="543.51" y1="2221.51" x2="601.05" y2="2221.51" style="stroke:#0000FF;stroke-width:8.64"/>
	<line x1="629.89" y1="2221.51" x2="687.43" y2="2221.51" style="stroke:#0000FF;stroke-width:8.64"/>
	<line x1="716.26" y1="2221.51" x2="743.49" y2="2221.51" style="stroke:#0000FF;stroke-width:8.64"/>
	<line x1="543.51" y1="2361.47" x2="601.05" y2="2361.47" style="stroke:#008000;stroke-width:8.64"/>
	<line x1="629.89" y1="2361.47" x2="687.43" y2="2361.47" style="stroke:#008000;stroke-width:8.64"/>
	<line x1="716.26" y1="2361.47" x2="743.49" y2="2361.47" style="stroke:#008000;stroke-width:8.64"/>
	<text x="803.51" y="1696.55" style="font-family:'Helvetica';font-size:99.99px;fill:#000000">Least Deprived Age 50</text>
	<text x="803.51" y="1836.51" style="font-family:'Helvetica';font-size:99.99px;fill:#000000">Least Deprived Age 65</text>
	<text x="803.51" y="1976.48" style="font-family:'Helvetica';font-size:99.99px;fill:#000000">Least Deprived Age 80</text>
	<text x="803.51" y="2116.44" style="font-family:'Helvetica';font-size:99.99px;fill:#000000">Most Deprived Age 65</text>
	<text x="803.51" y="2256.53" style="font-family:'Helvetica';font-size:99.99px;fill:#000000">Most Deprived Age 65</text>
	<text x="803.51" y="2396.50" style="font-family:'Helvetica';font-size:99.99px;fill:#000000">Most Deprived Age 80</text>
	<text x="2162.41" y="215.98" style="font-family:'Helvetica';font-size:139.96px;fill:#000000" text-anchor="middle">Relative Survival</text>
</svg>
