<?xml version="1.0" encoding="UTF-8" standalone="no"?>
<!-- This is a Stata 17.0 generated SVG file (http://www.stata.com) -->

<svg version="1.1" width="5.500in" height="4.000in" viewBox="0 0 3960 2880" xmlns="http://www.w3.org/2000/svg" xmlns:xlink="http://www.w3.org/1999/xlink">
	<desc>Stata Graph - Marginal</desc>
	<rect x="0" y="0" width="3960" height="2880" style="fill:#FFFFFF;stroke:none"/>
	<rect x="0.00" y="0.00" width="3959.88" height="2880.00" style="fill:#FFFFFF"/>
	<rect x="2.88" y="2.88" width="3954.12" height="2874.24" style="fill:none;stroke:#FFFFFF;stroke-width:5.76"/>
	<line x1="407.39" y1="2489.19" x2="3859.02" y2="2489.19" style="stroke:#E8E8E8;stroke-width:5.76"/>
	<line x1="407.39" y1="1892.07" x2="3859.02" y2="1892.07" style="stroke:#E8E8E8;stroke-width:5.76"/>
	<line x1="407.39" y1="1294.96" x2="3859.02" y2="1294.96" style="stroke:#E8E8E8;stroke-width:5.76"/>
	<line x1="407.39" y1="697.85" x2="3859.02" y2="697.85" style="stroke:#E8E8E8;stroke-width:5.76"/>
	<line x1="407.39" y1="100.86" x2="3859.02" y2="100.86" style="stroke:#E8E8E8;stroke-width:5.76"/>
	<line x1="407.39" y1="2489.19" x2="407.39" y2="100.86" style="stroke:#E8E8E8;stroke-width:5.76"/>
	<line x1="1097.79" y1="2489.19" x2="1097.79" y2="100.86" style="stroke:#E8E8E8;stroke-width:5.76"/>
	<line x1="1788.06" y1="2489.19" x2="1788.06" y2="100.86" style="stroke:#E8E8E8;stroke-width:5.76"/>
	<line x1="2478.47" y1="2489.19" x2="2478.47" y2="100.86" style="stroke:#E8E8E8;stroke-width:5.76"/>
	<line x1="3168.74" y1="2489.19" x2="3168.74" y2="100.86" style="stroke:#E8E8E8;stroke-width:5.76"/>
	<line x1="3859.02" y1="2489.19" x2="3859.02" y2="100.86" style="stroke:#E8E8E8;stroke-width:5.76"/>
	<path d=" M407.39 100.86 L441.91 323.86 L476.44 549.47 L510.96 693.27 L545.49 793.14 L580.02 873.58 L614.54 944.86 L648.95 1011.81 L683.47 1074.93 L718.00 1134.08 L752.52 1188.90 L787.05 1239.89 L821.58 1287.04 L856.10 1330.60 L890.63 1370.82 L925.16 1407.95 L959.68 1442.48 L994.21 1474.90 L1028.73 1505.22 L1063.14 1533.93 L1097.66 1561.03 L1132.19 1586.90 L1166.71 1611.52 L1201.24 1635.04 L1235.77 1657.68 L1270.29 1679.46 L1304.82 1700.38 L1339.35 1720.67 L1373.87 1740.23 L1408.40 1759.28 L1442.93 1777.72 L1477.45 1795.67 L1511.85 1813.12 L1546.38 1830.07 L1580.91 1846.66 L1615.43 1862.74 L1649.96 1878.46 L1684.49 1893.93 L1719.01 1908.90 L1753.54 1923.51 L1788.06 1937.86 L1822.59 1951.72 L1857.12 1965.46 L1891.64 1978.82 L1926.05 1991.82 L1960.57 2004.57 L1995.10 2017.06 L2029.62 2029.32 L2064.15 2041.32 L2098.68 2052.95 L2133.20 2064.46 L2167.73 2075.72 L2202.26 2086.74 L2236.78 2097.50 L2271.31 2108.15 L2305.83 2118.42 L2340.36 2128.69 L2374.76 2138.59 L2409.29 2148.37 L2443.82 2158.02 L2478.34 2167.43 L2512.87 2176.71 L2547.39 2185.74 L2581.92 2194.65 L2616.45 2203.44 L2650.97 2211.98 L2685.50 2220.39 L2720.03 2228.68 L2754.55 2236.85 L2788.95 2244.90 L2823.48 2252.82 L2858.01 2260.49 L2892.53 2268.16 L2927.06 2275.59 L2961.59 2282.89 L2996.11 2290.19 L3030.64 2297.24 L3065.16 2304.30 L3099.69 2311.23 L3134.22 2317.91 L3168.74 2324.59 L3203.27 2331.15 L3237.67 2337.59 L3272.20 2344.02 L3306.72 2350.21 L3341.25 2356.40 L3375.78 2362.46 L3410.30 2368.53 L3444.83 2374.34 L3479.36 2380.16 L3513.88 2385.85 L3548.41 2391.54 L3582.93 2396.99 L3617.46 2402.56 L3651.86 2407.88 L3686.39 2413.20 L3720.92 2418.40 L3755.44 2423.60 L3789.97 2428.67 L3824.49 2433.74 L3859.02 2438.69" stroke-linejoin="round" style="fill:none;stroke:#DC241F;stroke-width:8.64"/>
	<path d=" M407.39 100.86 L441.91 276.34 L476.44 484.99 L510.96 629.04 L545.49 732.50 L580.02 816.40 L614.54 890.16 L648.95 958.60 L683.47 1022.58 L718.00 1081.61 L752.52 1136.06 L787.05 1185.93 L821.58 1231.72 L856.10 1273.80 L890.63 1312.16 L925.16 1347.43 L959.68 1379.98 L994.21 1410.18 L1028.73 1438.39 L1063.14 1464.75 L1097.66 1489.63 L1132.19 1513.14 L1166.71 1535.41 L1201.24 1556.58 L1235.77 1576.87 L1270.29 1596.30 L1304.82 1614.86 L1339.35 1632.81 L1373.87 1650.13 L1408.40 1666.84 L1442.93 1683.05 L1477.45 1698.77 L1511.85 1714.11 L1546.38 1728.97 L1580.91 1743.32 L1615.43 1757.43 L1649.96 1771.17 L1684.49 1784.53 L1719.01 1797.52 L1753.54 1810.27 L1788.06 1822.65 L1822.59 1834.77 L1857.12 1846.66 L1891.64 1858.16 L1926.05 1869.55 L1960.57 1880.56 L1995.10 1891.45 L2029.62 1901.97 L2064.15 1912.37 L2098.68 1922.52 L2133.20 1932.54 L2167.73 1942.32 L2202.26 1951.85 L2236.78 1961.25 L2271.31 1970.41 L2305.83 1979.44 L2340.36 1988.23 L2374.76 1996.89 L2409.29 2005.43 L2443.82 2013.85 L2478.34 2022.14 L2512.87 2030.18 L2547.39 2038.10 L2581.92 2045.90 L2616.45 2053.57 L2650.97 2061.12 L2685.50 2068.55 L2720.03 2075.85 L2754.55 2083.03 L2788.95 2090.08 L2823.48 2097.01 L2858.01 2103.82 L2892.53 2110.50 L2927.06 2117.18 L2961.59 2123.74 L2996.11 2130.18 L3030.64 2136.49 L3065.16 2142.67 L3099.69 2148.86 L3134.22 2154.93 L3168.74 2160.87 L3203.27 2166.68 L3237.67 2172.50 L3272.20 2178.19 L3306.72 2183.88 L3341.25 2189.45 L3375.78 2194.90 L3410.30 2200.34 L3444.83 2205.67 L3479.36 2210.86 L3513.88 2216.06 L3548.41 2221.26 L3582.93 2226.21 L3617.46 2231.28 L3651.86 2236.11 L3686.39 2241.06 L3720.92 2245.89 L3755.44 2250.59 L3789.97 2255.29 L3824.49 2259.87 L3859.02 2264.45" stroke-linejoin="round" style="fill:none;stroke:#0019A8;stroke-width:8.64"/>
	<line x1="407.39" y1="2489.19" x2="367.41" y2="2489.19" style="stroke:#000000;stroke-width:5.76"/>
	<text x="347.49" y="2524.21" style="font-family:'Helvetica';font-size:99.99px;fill:#000000" text-anchor="end">.2</text>
	<line x1="407.39" y1="1892.07" x2="367.41" y2="1892.07" style="stroke:#000000;stroke-width:5.76"/>
	<text x="347.49" y="1927.10" style="font-family:'Helvetica';font-size:99.99px;fill:#000000" text-anchor="end">.4</text>
	<line x1="407.39" y1="1294.96" x2="367.41" y2="1294.96" style="stroke:#000000;stroke-width:5.76"/>
	<text x="347.49" y="1329.99" style="font-family:'Helvetica';font-size:99.99px;fill:#000000" text-anchor="end">.6</text>
	<line x1="407.39" y1="697.85" x2="367.41" y2="697.85" style="stroke:#000000;stroke-width:5.76"/>
	<text x="347.49" y="732.88" style="font-family:'Helvetica';font-size:99.99px;fill:#000000" text-anchor="end">.8</text>
	<line x1="407.39" y1="100.86" x2="367.41" y2="100.86" style="stroke:#000000;stroke-width:5.76"/>
	<text x="347.49" y="135.89" style="font-family:'Helvetica';font-size:99.99px;fill:#000000" text-anchor="end">1</text>
	<line x1="407.39" y1="2489.19" x2="407.39" y2="100.86" style="stroke:#000000;stroke-width:5.76"/>
	<text x="190.71" y="1294.96" style="font-family:'Helvetica';font-size:99.99px;fill:#000000" transform="rotate(-90 190.71,1294.96)" text-anchor="middle">S(t)</text>
	<line x1="407.39" y1="2489.19" x2="407.39" y2="2529.16" style="stroke:#000000;stroke-width:5.76"/>
	<text x="407.39" y="2619.14" style="font-family:'Helvetica';font-size:99.99px;fill:#000000" text-anchor="middle">0</text>
	<line x1="1097.79" y1="2489.19" x2="1097.79" y2="2529.16" style="stroke:#000000;stroke-width:5.76"/>
	<text x="1097.79" y="2619.14" style="font-family:'Helvetica';font-size:99.99px;fill:#000000" text-anchor="middle">2</text>
	<line x1="1788.06" y1="2489.19" x2="1788.06" y2="2529.16" style="stroke:#000000;stroke-width:5.76"/>
	<text x="1788.06" y="2619.14" style="font-family:'Helvetica';font-size:99.99px;fill:#000000" text-anchor="middle">4</text>
	<line x1="2478.47" y1="2489.19" x2="2478.47" y2="2529.16" style="stroke:#000000;stroke-width:5.76"/>
	<text x="2478.47" y="2619.14" style="font-family:'Helvetica';font-size:99.99px;fill:#000000" text-anchor="middle">6</text>
	<line x1="3168.74" y1="2489.19" x2="3168.74" y2="2529.16" style="stroke:#000000;stroke-width:5.76"/>
	<text x="3168.74" y="2619.14" style="font-family:'Helvetica';font-size:99.99px;fill:#000000" text-anchor="middle">8</text>
	<line x1="3859.02" y1="2489.19" x2="3859.02" y2="2529.16" style="stroke:#000000;stroke-width:5.76"/>
	<text x="3859.02" y="2619.14" style="font-family:'Helvetica';font-size:99.99px;fill:#000000" text-anchor="middle">10</text>
	<line x1="407.39" y1="2489.19" x2="3859.02" y2="2489.19" style="stroke:#000000;stroke-width:5.76"/>
	<text x="2133.20" y="2729.16" style="font-family:'Helvetica';font-size:99.99px;fill:#000000" text-anchor="middle">Time since diagnosis</text>
	<line x1="3118.87" y1="228.57" x2="3318.85" y2="228.57" style="stroke:#DC241F;stroke-width:8.64"/>
	<line x1="3118.87" y1="368.54" x2="3318.85" y2="368.54" style="stroke:#0019A8;stroke-width:8.64"/>
	<text x="3378.87" y="263.60" style="font-family:'Helvetica';font-size:99.99px;fill:#000000">Males</text>
	<text x="3378.87" y="403.57" style="font-family:'Helvetica';font-size:99.99px;fill:#000000">Females</text>
</svg>
