<?xml version="1.0" encoding="UTF-8" standalone="no"?>
<!-- This is a Stata 17.0 generated SVG file (http://www.stata.com) -->

<svg version="1.1" width="5.500in" height="4.000in" viewBox="0 0 3960 2880" xmlns="http://www.w3.org/2000/svg" xmlns:xlink="http://www.w3.org/1999/xlink">
	<desc>Stata Graph - RSdiff</desc>
	<rect x="0" y="0" width="3960" height="2880" style="fill:#FFFFFF;stroke:none"/>
	<rect x="0.00" y="0.00" width="3959.88" height="2880.00" style="fill:#FFFFFF"/>
	<rect x="2.88" y="2.88" width="3954.12" height="2874.24" style="fill:none;stroke:#FFFFFF;stroke-width:5.76"/>
	<line x1="500.82" y1="2489.19" x2="3859.02" y2="2489.19" style="stroke:#E8E8E8;stroke-width:5.76"/>
	<line x1="500.82" y1="1937.99" x2="3859.02" y2="1937.99" style="stroke:#E8E8E8;stroke-width:5.76"/>
	<line x1="500.82" y1="1386.91" x2="3859.02" y2="1386.91" style="stroke:#E8E8E8;stroke-width:5.76"/>
	<line x1="500.82" y1="835.71" x2="3859.02" y2="835.71" style="stroke:#E8E8E8;stroke-width:5.76"/>
	<line x1="500.82" y1="284.51" x2="3859.02" y2="284.51" style="stroke:#E8E8E8;stroke-width:5.76"/>
	<line x1="500.82" y1="2489.19" x2="500.82" y2="100.86" style="stroke:#E8E8E8;stroke-width:5.76"/>
	<line x1="1172.41" y1="2489.19" x2="1172.41" y2="100.86" style="stroke:#E8E8E8;stroke-width:5.76"/>
	<line x1="1844.12" y1="2489.19" x2="1844.12" y2="100.86" style="stroke:#E8E8E8;stroke-width:5.76"/>
	<line x1="2515.71" y1="2489.19" x2="2515.71" y2="100.86" style="stroke:#E8E8E8;stroke-width:5.76"/>
	<line x1="3187.43" y1="2489.19" x2="3187.43" y2="100.86" style="stroke:#E8E8E8;stroke-width:5.76"/>
	<line x1="3859.02" y1="2489.19" x2="3859.02" y2="100.86" style="stroke:#E8E8E8;stroke-width:5.76"/>
	<defs>
		<path id="path_WlbNqYrA" d="M534.35 1407.82 L534.35 1407.82 L567.89 1524.52 L601.55 1650.51 L635.09 1761.27 L668.75 1856.56 L702.28 1939.10 L735.82 2011.12 L769.48 2073.37 L803.01 2126.22 L836.55 2170.40 L870.21 2207.03 L903.75 2237.22 L937.41 2261.73 L970.94 2281.40 L1004.48 2296.87 L1038.14 2309.12 L1071.68 2318.28 L1105.21 2325.21 L1138.87 2330.04 L1172.41 2333.13 L1206.07 2334.86 L1239.60 2335.36 L1273.14 2334.86 L1306.80 2333.63 L1340.34 2331.65 L1374.00 2329.17 L1407.53 2326.20 L1441.07 2322.86 L1474.73 2319.27 L1508.27 2315.43 L1541.80 2311.47 L1575.46 2307.27 L1609.00 2302.94 L1642.66 2298.60 L1676.19 2294.27 L1709.73 2289.94 L1743.39 2285.49 L1776.93 2281.16 L1810.46 2276.82 L1844.12 2272.62 L1877.66 2268.28 L1911.32 2264.20 L1944.86 2260.12 L1978.39 2256.03 L2012.05 2252.20 L2045.59 2248.24 L2079.12 2244.52 L2112.78 2240.81 L2146.32 2237.22 L2179.98 2233.63 L2213.52 2230.17 L2247.05 2226.83 L2280.71 2223.49 L2314.25 2220.27 L2347.79 2217.17 L2381.45 2214.08 L2414.98 2211.11 L2448.64 2208.26 L2482.18 2205.42 L2515.71 2202.57 L2549.37 2199.85 L2582.91 2197.25 L2616.45 2194.65 L2650.11 2192.18 L2683.64 2189.70 L2717.30 2187.35 L2750.84 2185.00 L2784.38 2182.77 L2818.04 2180.54 L2851.57 2178.44 L2885.23 2176.34 L2918.77 2174.23 L2952.30 2172.25 L2985.96 2170.27 L3019.50 2168.29 L3053.04 2166.44 L3086.70 2164.70 L3120.23 2162.85 L3153.89 2161.11 L3187.43 2159.50 L3220.97 2157.77 L3254.63 2156.16 L3288.16 2154.68 L3321.70 2153.07 L3355.36 2151.58 L3388.89 2150.10 L3422.55 2148.61 L3456.09 2147.25 L3489.63 2145.89 L3523.29 2144.53 L3556.82 2143.29 L3590.36 2141.93 L3624.02 2140.69 L3657.56 2139.46 L3691.22 2138.34 L3724.75 2137.11 L3758.29 2135.99 L3791.95 2134.88 L3825.48 2133.76 L3859.02 2132.77 L3859.02 100.86 L3825.48 110.88 L3791.95 121.03 L3758.29 131.30 L3724.75 141.57 L3691.22 152.09 L3657.56 162.49 L3624.02 173.13 L3590.36 183.77 L3556.82 194.54 L3523.29 205.43 L3489.63 216.32 L3456.09 227.46 L3422.55 238.60 L3388.89 249.74 L3355.36 261.12 L3321.70 272.51 L3288.16 284.02 L3254.63 295.52 L3220.97 307.28 L3187.43 319.04 L3153.89 330.92 L3120.23 342.92 L3086.70 355.05 L3053.04 367.18 L3019.50 379.43 L2985.96 391.80 L2952.30 404.30 L2918.77 416.93 L2885.23 429.55 L2851.57 442.30 L2818.04 455.17 L2784.38 468.16 L2750.84 481.28 L2717.30 494.40 L2683.64 507.76 L2650.11 521.13 L2616.45 534.49 L2582.91 548.11 L2549.37 561.72 L2515.71 575.58 L2482.18 589.44 L2448.64 603.30 L2414.98 617.41 L2381.45 631.52 L2347.79 645.62 L2314.25 659.98 L2280.71 674.33 L2247.05 688.81 L2213.52 703.29 L2179.98 717.90 L2146.32 732.50 L2112.78 747.23 L2079.12 761.95 L2045.59 776.80 L2012.05 791.65 L1978.39 806.50 L1944.86 821.35 L1911.32 836.33 L1877.66 851.18 L1844.12 866.03 L1810.46 881.00 L1776.93 895.85 L1743.39 910.58 L1709.73 925.31 L1676.19 939.91 L1642.66 954.51 L1609.00 968.87 L1575.46 983.10 L1541.80 997.21 L1508.27 1010.95 L1474.73 1024.56 L1441.07 1037.92 L1407.53 1050.92 L1374.00 1063.54 L1340.34 1075.79 L1306.80 1087.43 L1273.14 1098.69 L1239.60 1109.21 L1206.07 1119.11 L1172.41 1128.14 L1138.87 1136.31 L1105.21 1143.49 L1071.68 1149.55 L1038.14 1154.25 L1004.48 1157.47 L970.94 1159.08 L937.41 1158.71 L903.75 1156.11 L870.21 1150.79 L836.55 1142.25 L803.01 1129.87 L769.48 1112.55 L735.82 1089.03 L702.28 1057.97 L668.75 1017.01 L635.09 965.28 L601.55 907.12 L567.89 873.95 L534.35 992.51 L534.35 1407.82 Z" stroke-linejoin="round"/>
	</defs>
	<defs>
		<clipPath id="clipPath_pxErGcmO">
			<use xlink:href="#path_WlbNqYrA"/>
		</clipPath>
	</defs>
	<use xlink:href="#path_WlbNqYrA" style="stroke:none;fill:#FF3333;fill-opacity:0.30"/>
	<use xlink:href="#path_WlbNqYrA" style="fill:none;stroke:#FF0000;stroke-opacity:0.30;stroke-width:17.28" clip-path="url(#clipPath_pxErGcmO)"/>
	<path d=" M534.35 1200.29 L567.89 1199.30 L601.42 1278.87 L635.09 1363.27 L668.62 1436.91 L702.16 1498.66 L735.82 1550.14 L769.35 1593.08 L803.01 1628.11 L836.55 1656.45 L870.09 1678.97 L903.75 1696.67 L937.28 1710.28 L970.82 1720.30 L1004.48 1727.23 L1038.02 1731.69 L1071.68 1734.04 L1105.21 1734.41 L1138.75 1733.17 L1172.41 1730.70 L1205.94 1726.99 L1239.48 1722.28 L1273.14 1716.84 L1306.68 1710.65 L1340.34 1703.72 L1373.87 1696.42 L1407.41 1688.62 L1441.07 1680.45 L1474.61 1672.04 L1508.27 1663.25 L1541.80 1654.34 L1575.34 1645.18 L1609.00 1636.03 L1642.53 1626.62 L1676.07 1617.22 L1709.73 1607.69 L1743.27 1598.16 L1776.93 1588.50 L1810.46 1578.98 L1844.00 1569.45 L1877.66 1559.79 L1911.20 1550.26 L1944.73 1540.86 L1978.39 1531.33 L2011.93 1521.93 L2045.59 1512.64 L2079.12 1503.36 L2112.66 1494.08 L2146.32 1484.92 L2179.86 1475.76 L2213.39 1466.85 L2247.05 1457.82 L2280.59 1449.03 L2314.25 1440.25 L2347.79 1431.46 L2381.32 1422.80 L2414.98 1414.26 L2448.52 1405.84 L2482.05 1397.43 L2515.71 1389.14 L2549.25 1380.85 L2582.91 1372.80 L2616.45 1364.63 L2649.98 1356.71 L2683.64 1348.79 L2717.18 1341.00 L2750.84 1333.20 L2784.38 1325.53 L2817.91 1317.98 L2851.57 1310.43 L2885.11 1303.00 L2918.64 1295.58 L2952.30 1288.28 L2985.84 1281.10 L3019.50 1273.92 L3053.04 1266.87 L3086.57 1259.94 L3120.23 1253.01 L3153.77 1246.08 L3187.31 1239.27 L3220.97 1232.59 L3254.50 1225.91 L3288.16 1219.35 L3321.70 1212.79 L3355.23 1206.35 L3388.89 1200.04 L3422.43 1193.73 L3455.97 1187.42 L3489.63 1181.23 L3523.16 1175.04 L3556.82 1168.98 L3590.36 1162.92 L3623.90 1156.97 L3657.56 1151.03 L3691.09 1145.22 L3724.63 1139.40 L3758.29 1133.71 L3791.82 1128.02 L3825.48 1122.45 L3859.02 1116.88" stroke-linejoin="round" style="fill:none;stroke:#FF0000;stroke-width:8.64"/>
	<line x1="500.82" y1="2489.19" x2="460.72" y2="2489.19" style="stroke:#000000;stroke-width:5.76"/>
	<text x="440.80" y="2524.21" style="font-family:'Helvetica';font-size:99.99px;fill:#000000" text-anchor="end">-.04</text>
	<line x1="500.82" y1="1937.99" x2="460.72" y2="1937.99" style="stroke:#000000;stroke-width:5.76"/>
	<text x="440.80" y="1973.01" style="font-family:'Helvetica';font-size:99.99px;fill:#000000" text-anchor="end">-.02</text>
	<line x1="500.82" y1="1386.91" x2="460.72" y2="1386.91" style="stroke:#000000;stroke-width:5.76"/>
	<text x="440.80" y="1421.94" style="font-family:'Helvetica';font-size:99.99px;fill:#000000" text-anchor="end">0</text>
	<line x1="500.82" y1="835.71" x2="460.72" y2="835.71" style="stroke:#000000;stroke-width:5.76"/>
	<text x="440.80" y="870.74" style="font-family:'Helvetica';font-size:99.99px;fill:#000000" text-anchor="end">.02</text>
	<line x1="500.82" y1="284.51" x2="460.72" y2="284.51" style="stroke:#000000;stroke-width:5.76"/>
	<text x="440.80" y="319.54" style="font-family:'Helvetica';font-size:99.99px;fill:#000000" text-anchor="end">.04</text>
	<line x1="500.82" y1="2489.19" x2="500.82" y2="284.51" style="stroke:#000000;stroke-width:5.76"/>
	<text x="190.71" y="1294.96" style="font-family:'Helvetica';font-size:99.99px;fill:#000000" transform="rotate(-90 190.71,1294.96)" text-anchor="middle">Difference in R(t)</text>
	<line x1="500.82" y1="2489.19" x2="500.82" y2="2529.16" style="stroke:#000000;stroke-width:5.76"/>
	<text x="500.82" y="2619.14" style="font-family:'Helvetica';font-size:99.99px;fill:#000000" text-anchor="middle">0</text>
	<line x1="1172.41" y1="2489.19" x2="1172.41" y2="2529.16" style="stroke:#000000;stroke-width:5.76"/>
	<text x="1172.41" y="2619.14" style="font-family:'Helvetica';font-size:99.99px;fill:#000000" text-anchor="middle">2</text>
	<line x1="1844.12" y1="2489.19" x2="1844.12" y2="2529.16" style="stroke:#000000;stroke-width:5.76"/>
	<text x="1844.12" y="2619.14" style="font-family:'Helvetica';font-size:99.99px;fill:#000000" text-anchor="middle">4</text>
	<line x1="2515.71" y1="2489.19" x2="2515.71" y2="2529.16" style="stroke:#000000;stroke-width:5.76"/>
	<text x="2515.71" y="2619.14" style="font-family:'Helvetica';font-size:99.99px;fill:#000000" text-anchor="middle">6</text>
	<line x1="3187.43" y1="2489.19" x2="3187.43" y2="2529.16" style="stroke:#000000;stroke-width:5.76"/>
	<text x="3187.43" y="2619.14" style="font-family:'Helvetica';font-size:99.99px;fill:#000000" text-anchor="middle">8</text>
	<line x1="3859.02" y1="2489.19" x2="3859.02" y2="2529.16" style="stroke:#000000;stroke-width:5.76"/>
	<text x="3859.02" y="2619.14" style="font-family:'Helvetica';font-size:99.99px;fill:#000000" text-anchor="middle">10</text>
	<line x1="500.82" y1="2489.19" x2="3859.02" y2="2489.19" style="stroke:#000000;stroke-width:5.76"/>
	<text x="2179.98" y="2729.16" style="font-family:'Helvetica';font-size:99.99px;fill:#000000" text-anchor="middle">Time since diagnosis</text>
</svg>
