<?xml version="1.0" encoding="UTF-8" standalone="no"?>
<!-- This is a Stata 17.0 generated SVG file (http://www.stata.com) -->

<svg version="1.1" width="5.500in" height="4.000in" viewBox="0 0 3960 2880" xmlns="http://www.w3.org/2000/svg" xmlns:xlink="http://www.w3.org/1999/xlink">
	<desc>Stata Graph - Graph</desc>
	<rect x="0" y="0" width="3960" height="2880" style="fill:#FFFFFF;stroke:none"/>
	<rect x="0.00" y="0.00" width="3959.88" height="2880.00" style="fill:#FFFFFF"/>
	<rect x="2.88" y="2.88" width="3954.12" height="2874.24" style="fill:none;stroke:#FFFFFF;stroke-width:5.76"/>
	<line x1="378.30" y1="2489.19" x2="3859.02" y2="2489.19" style="stroke:#E8E8E8;stroke-width:5.76"/>
	<line x1="378.30" y1="1892.07" x2="3859.02" y2="1892.07" style="stroke:#E8E8E8;stroke-width:5.76"/>
	<line x1="378.30" y1="1294.96" x2="3859.02" y2="1294.96" style="stroke:#E8E8E8;stroke-width:5.76"/>
	<line x1="378.30" y1="697.85" x2="3859.02" y2="697.85" style="stroke:#E8E8E8;stroke-width:5.76"/>
	<line x1="378.30" y1="100.86" x2="3859.02" y2="100.86" style="stroke:#E8E8E8;stroke-width:5.76"/>
	<line x1="618.01" y1="2489.19" x2="618.01" y2="100.86" style="stroke:#E8E8E8;stroke-width:5.76"/>
	<line x1="1428.08" y1="2489.19" x2="1428.08" y2="100.86" style="stroke:#E8E8E8;stroke-width:5.76"/>
	<line x1="2238.27" y1="2489.19" x2="2238.27" y2="100.86" style="stroke:#E8E8E8;stroke-width:5.76"/>
	<line x1="3048.33" y1="2489.19" x2="3048.33" y2="100.86" style="stroke:#E8E8E8;stroke-width:5.76"/>
	<line x1="3858.40" y1="2489.19" x2="3858.40" y2="100.86" style="stroke:#E8E8E8;stroke-width:5.76"/>
	<rect x="428.67" y="2465.05" width="100.98" height="24.13" style="fill:#CAC27E"/>
	<rect x="432.99" y="2469.37" width="92.34" height="15.49" style="fill:none;stroke:#D7D29E;stroke-width:8.64"/>
	<rect x="529.65" y="2481.14" width="100.86" height="8.04" style="fill:#CAC27E"/>
	<rect x="533.97" y="2484.87" width="92.22" height="0.60" style="fill:none;stroke:#D7D29E;stroke-width:8.64"/>
	<rect x="630.51" y="2481.14" width="100.86" height="8.04" style="fill:#CAC27E"/>
	<rect x="634.83" y="2484.87" width="92.22" height="0.60" style="fill:none;stroke:#D7D29E;stroke-width:8.64"/>
	<rect x="731.36" y="2400.83" width="100.98" height="88.36" style="fill:#CAC27E"/>
	<rect x="735.68" y="2405.14" width="92.34" height="79.72" style="fill:none;stroke:#D7D29E;stroke-width:8.64"/>
	<rect x="832.34" y="2400.83" width="100.86" height="88.36" style="fill:#CAC27E"/>
	<rect x="836.66" y="2405.14" width="92.22" height="79.72" style="fill:none;stroke:#D7D29E;stroke-width:8.64"/>
	<rect x="933.20" y="2384.74" width="100.86" height="104.45" style="fill:#CAC27E"/>
	<rect x="937.52" y="2389.06" width="92.22" height="95.81" style="fill:none;stroke:#D7D29E;stroke-width:8.64"/>
	<rect x="1034.06" y="2328.43" width="100.98" height="160.76" style="fill:#CAC27E"/>
	<rect x="1038.37" y="2332.75" width="92.34" height="152.12" style="fill:none;stroke:#D7D29E;stroke-width:8.64"/>
	<rect x="1135.04" y="2328.43" width="100.86" height="160.76" style="fill:#CAC27E"/>
	<rect x="1139.35" y="2332.75" width="92.22" height="152.12" style="fill:none;stroke:#D7D29E;stroke-width:8.64"/>
	<rect x="1235.89" y="2328.43" width="100.86" height="160.76" style="fill:#CAC27E"/>
	<rect x="1240.21" y="2332.75" width="92.22" height="152.12" style="fill:none;stroke:#D7D29E;stroke-width:8.64"/>
	<rect x="1336.75" y="2215.94" width="100.86" height="273.25" style="fill:#CAC27E"/>
	<rect x="1341.07" y="2220.26" width="92.22" height="264.61" style="fill:none;stroke:#D7D29E;stroke-width:8.64"/>
	<rect x="1437.60" y="2151.58" width="100.98" height="337.60" style="fill:#CAC27E"/>
	<rect x="1441.92" y="2155.90" width="92.34" height="328.96" style="fill:none;stroke:#D7D29E;stroke-width:8.64"/>
	<rect x="1538.58" y="2143.54" width="100.86" height="345.64" style="fill:#CAC27E"/>
	<rect x="1542.90" y="2147.86" width="92.22" height="337.00" style="fill:none;stroke:#D7D29E;stroke-width:8.64"/>
	<rect x="1639.44" y="1926.48" width="100.86" height="562.71" style="fill:#CAC27E"/>
	<rect x="1643.76" y="1930.80" width="92.22" height="554.07" style="fill:none;stroke:#D7D29E;stroke-width:8.64"/>
	<rect x="1740.30" y="1910.39" width="100.98" height="578.80" style="fill:#CAC27E"/>
	<rect x="1744.62" y="1914.71" width="92.34" height="570.16" style="fill:none;stroke:#D7D29E;stroke-width:8.64"/>
	<rect x="1841.28" y="1854.08" width="100.86" height="635.10" style="fill:#CAC27E"/>
	<rect x="1845.60" y="1858.40" width="92.22" height="626.47" style="fill:none;stroke:#D7D29E;stroke-width:8.64"/>
	<rect x="1942.13" y="1532.57" width="100.86" height="956.62" style="fill:#CAC27E"/>
	<rect x="1946.45" y="1536.89" width="92.22" height="947.98" style="fill:none;stroke:#D7D29E;stroke-width:8.64"/>
	<rect x="2042.99" y="1717.46" width="100.86" height="771.73" style="fill:#CAC27E"/>
	<rect x="2047.31" y="1721.78" width="92.22" height="763.09" style="fill:none;stroke:#D7D29E;stroke-width:8.64"/>
	<rect x="2143.84" y="1661.15" width="100.98" height="828.04" style="fill:#CAC27E"/>
	<rect x="2148.16" y="1665.47" width="92.34" height="819.40" style="fill:none;stroke:#D7D29E;stroke-width:8.64"/>
	<rect x="2244.82" y="1162.79" width="100.86" height="1326.39" style="fill:#CAC27E"/>
	<rect x="2249.14" y="1167.11" width="92.22" height="1317.75" style="fill:none;stroke:#D7D29E;stroke-width:8.64"/>
	<rect x="2345.68" y="1693.32" width="100.86" height="795.86" style="fill:#CAC27E"/>
	<rect x="2350.00" y="1697.64" width="92.22" height="787.22" style="fill:none;stroke:#D7D29E;stroke-width:8.64"/>
	<rect x="2446.54" y="993.99" width="100.98" height="1495.19" style="fill:#CAC27E"/>
	<rect x="2450.86" y="998.31" width="92.34" height="1486.55" style="fill:none;stroke:#D7D29E;stroke-width:8.64"/>
	<rect x="2547.52" y="1588.88" width="100.86" height="900.31" style="fill:#CAC27E"/>
	<rect x="2551.84" y="1593.20" width="92.22" height="891.67" style="fill:none;stroke:#D7D29E;stroke-width:8.64"/>
	<rect x="2648.37" y="1219.10" width="100.86" height="1270.09" style="fill:#CAC27E"/>
	<rect x="2652.69" y="1223.42" width="92.22" height="1261.45" style="fill:none;stroke:#D7D29E;stroke-width:8.64"/>
	<rect x="2749.23" y="1516.48" width="100.98" height="972.71" style="fill:#CAC27E"/>
	<rect x="2753.55" y="1520.80" width="92.34" height="964.07" style="fill:none;stroke:#D7D29E;stroke-width:8.64"/>
	<rect x="2850.21" y="817.15" width="100.86" height="1672.04" style="fill:#CAC27E"/>
	<rect x="2854.53" y="821.47" width="92.22" height="1663.40" style="fill:none;stroke:#D7D29E;stroke-width:8.64"/>
	<rect x="2951.07" y="656.39" width="100.86" height="1832.79" style="fill:#CAC27E"/>
	<rect x="2955.39" y="660.71" width="92.22" height="1824.16" style="fill:none;stroke:#D7D29E;stroke-width:8.64"/>
	<rect x="3051.92" y="1058.34" width="100.86" height="1430.84" style="fill:#CAC27E"/>
	<rect x="3056.24" y="1062.66" width="92.22" height="1422.20" style="fill:none;stroke:#D7D29E;stroke-width:8.64"/>
	<rect x="3152.78" y="527.69" width="100.98" height="1961.50" style="fill:#CAC27E"/>
	<rect x="3157.10" y="532.01" width="92.34" height="1952.86" style="fill:none;stroke:#D7D29E;stroke-width:8.64"/>
	<rect x="3253.76" y="1074.31" width="100.86" height="1414.88" style="fill:#CAC27E"/>
	<rect x="3258.08" y="1078.63" width="92.22" height="1406.24" style="fill:none;stroke:#D7D29E;stroke-width:8.64"/>
	<rect x="3354.62" y="1267.24" width="100.86" height="1221.95" style="fill:#CAC27E"/>
	<rect x="3358.93" y="1271.56" width="92.22" height="1213.31" style="fill:none;stroke:#D7D29E;stroke-width:8.64"/>
	<rect x="3455.47" y="1813.98" width="100.98" height="675.20" style="fill:#CAC27E"/>
	<rect x="3459.79" y="1818.30" width="92.34" height="666.56" style="fill:none;stroke:#D7D29E;stroke-width:8.64"/>
	<rect x="3556.45" y="1934.52" width="100.86" height="554.66" style="fill:#CAC27E"/>
	<rect x="3560.77" y="1938.84" width="92.22" height="546.03" style="fill:none;stroke:#D7D29E;stroke-width:8.64"/>
	<rect x="3657.31" y="2207.89" width="100.86" height="281.29" style="fill:#CAC27E"/>
	<rect x="3661.63" y="2212.21" width="92.22" height="272.65" style="fill:none;stroke:#D7D29E;stroke-width:8.64"/>
	<rect x="3758.16" y="2416.91" width="100.86" height="72.27" style="fill:#CAC27E"/>
	<rect x="3762.48" y="2421.23" width="92.22" height="63.63" style="fill:none;stroke:#D7D29E;stroke-width:8.64"/>
	<line x1="378.30" y1="2489.19" x2="338.33" y2="2489.19" style="stroke:#000000;stroke-width:5.76"/>
	<text x="318.29" y="2524.21" style="font-family:'Helvetica';font-size:99.99px;fill:#000000" text-anchor="end">0</text>
	<line x1="378.30" y1="1892.07" x2="338.33" y2="1892.07" style="stroke:#000000;stroke-width:5.76"/>
	<text x="318.29" y="1927.10" style="font-family:'Helvetica';font-size:99.99px;fill:#000000" text-anchor="end">2</text>
	<line x1="378.30" y1="1294.96" x2="338.33" y2="1294.96" style="stroke:#000000;stroke-width:5.76"/>
	<text x="318.29" y="1329.99" style="font-family:'Helvetica';font-size:99.99px;fill:#000000" text-anchor="end">4</text>
	<line x1="378.30" y1="697.85" x2="338.33" y2="697.85" style="stroke:#000000;stroke-width:5.76"/>
	<text x="318.29" y="732.88" style="font-family:'Helvetica';font-size:99.99px;fill:#000000" text-anchor="end">6</text>
	<line x1="378.30" y1="100.86" x2="338.33" y2="100.86" style="stroke:#000000;stroke-width:5.76"/>
	<text x="318.29" y="135.89" style="font-family:'Helvetica';font-size:99.99px;fill:#000000" text-anchor="end">8</text>
	<line x1="378.30" y1="2489.19" x2="378.30" y2="100.86" style="stroke:#000000;stroke-width:5.76"/>
	<text x="190.71" y="1294.96" style="font-family:'Helvetica';font-size:99.99px;fill:#000000" transform="rotate(-90 190.71,1294.96)" text-anchor="middle">Density</text>
	<line x1="618.01" y1="2489.19" x2="618.01" y2="2529.16" style="stroke:#000000;stroke-width:5.76"/>
	<text x="618.01" y="2619.14" style="font-family:'Helvetica';font-size:99.99px;fill:#000000" text-anchor="middle">.3</text>
	<line x1="1428.08" y1="2489.19" x2="1428.08" y2="2529.16" style="stroke:#000000;stroke-width:5.76"/>
	<text x="1428.08" y="2619.14" style="font-family:'Helvetica';font-size:99.99px;fill:#000000" text-anchor="middle">.4</text>
	<line x1="2238.27" y1="2489.19" x2="2238.27" y2="2529.16" style="stroke:#000000;stroke-width:5.76"/>
	<text x="2238.27" y="2619.14" style="font-family:'Helvetica';font-size:99.99px;fill:#000000" text-anchor="middle">.5</text>
	<line x1="3048.33" y1="2489.19" x2="3048.33" y2="2529.16" style="stroke:#000000;stroke-width:5.76"/>
	<text x="3048.33" y="2619.14" style="font-family:'Helvetica';font-size:99.99px;fill:#000000" text-anchor="middle">.6</text>
	<line x1="3858.40" y1="2489.19" x2="3858.40" y2="2529.16" style="stroke:#000000;stroke-width:5.76"/>
	<text x="3858.40" y="2619.14" style="font-family:'Helvetica';font-size:99.99px;fill:#000000" text-anchor="middle">.7</text>
	<line x1="618.01" y1="2489.19" x2="3858.40" y2="2489.19" style="stroke:#000000;stroke-width:5.76"/>
	<text x="2118.72" y="2729.16" style="font-family:'Helvetica';font-size:99.99px;fill:#000000" text-anchor="middle">S10</text>
</svg>
